%!PS-Adobe-3.0 EPSF-3.0
%%BoundingBox: 35 24 388 310
%%HiResBoundingBox: 35.988 24.558 387.888 309.120
%%Creator: (MATLAB, The Mathworks, Inc. Version 9.0.0.341360 \(R2016a\). Operating System: Windows 8)
%%Title: (C:/Users/matti/Documents/Universita/anno_4/Digital Transmission/dt-homeworks/HW1/Latex/img/correlationMethod.eps)
%%CreationDate: 2017-04-03T13:22:28
%%Pages: (atend)
%%LanguageLevel: 3
%%EndComments
%%BeginProlog
%%BeginResource: procset (Apache XML Graphics Std ProcSet) 1.2 0
%%Version: 1.2 0
%%Copyright: (Copyright 2001-2003,2010 The Apache Software Foundation. License terms: http://www.apache.org/licenses/LICENSE-2.0)
/bd{bind def}bind def
/ld{load def}bd
/GR/grestore ld
/M/moveto ld
/LJ/setlinejoin ld
/C/curveto ld
/f/fill ld
/LW/setlinewidth ld
/GC/setgray ld
/t/show ld
/N/newpath ld
/CT/concat ld
/cp/closepath ld
/S/stroke ld
/L/lineto ld
/CC/setcmykcolor ld
/A/ashow ld
/GS/gsave ld
/RC/setrgbcolor ld
/RM/rmoveto ld
/ML/setmiterlimit ld
/re {4 2 roll M
1 index 0 rlineto
0 exch rlineto
neg 0 rlineto
cp } bd
/_ctm matrix def
/_tm matrix def
/BT { _ctm currentmatrix pop matrix _tm copy pop 0 0 moveto } bd
/ET { _ctm setmatrix } bd
/iTm { _ctm setmatrix _tm concat } bd
/Tm { _tm astore pop iTm 0 0 moveto } bd
/ux 0.0 def
/uy 0.0 def
/F {
  /Tp exch def
  /Tf exch def
  Tf findfont Tp scalefont setfont
  /cf Tf def  /cs Tp def
} bd
/ULS {currentpoint /uy exch def /ux exch def} bd
/ULE {
  /Tcx currentpoint pop def
  gsave
  newpath
  cf findfont cs scalefont dup
  /FontMatrix get 0 get /Ts exch def /FontInfo get dup
  /UnderlinePosition get Ts mul /To exch def
  /UnderlineThickness get Ts mul /Tt exch def
  ux uy To add moveto  Tcx uy To add lineto
  Tt setlinewidth stroke
  grestore
} bd
/OLE {
  /Tcx currentpoint pop def
  gsave
  newpath
  cf findfont cs scalefont dup
  /FontMatrix get 0 get /Ts exch def /FontInfo get dup
  /UnderlinePosition get Ts mul /To exch def
  /UnderlineThickness get Ts mul /Tt exch def
  ux uy To add cs add moveto Tcx uy To add cs add lineto
  Tt setlinewidth stroke
  grestore
} bd
/SOE {
  /Tcx currentpoint pop def
  gsave
  newpath
  cf findfont cs scalefont dup
  /FontMatrix get 0 get /Ts exch def /FontInfo get dup
  /UnderlinePosition get Ts mul /To exch def
  /UnderlineThickness get Ts mul /Tt exch def
  ux uy To add cs 10 mul 26 idiv add moveto Tcx uy To add cs 10 mul 26 idiv add lineto
  Tt setlinewidth stroke
  grestore
} bd
/QT {
/Y22 exch store
/X22 exch store
/Y21 exch store
/X21 exch store
currentpoint
/Y21 load 2 mul add 3 div exch
/X21 load 2 mul add 3 div exch
/X21 load 2 mul /X22 load add 3 div
/Y21 load 2 mul /Y22 load add 3 div
/X22 load /Y22 load curveto
} bd
/SSPD {
dup length /d exch dict def
{
/v exch def
/k exch def
currentpagedevice k known {
/cpdv currentpagedevice k get def
v cpdv ne {
/upd false def
/nullv v type /nulltype eq def
/nullcpdv cpdv type /nulltype eq def
nullv nullcpdv or
{
/upd true def
} {
/sametype v type cpdv type eq def
sametype {
v type /arraytype eq {
/vlen v length def
/cpdvlen cpdv length def
vlen cpdvlen eq {
0 1 vlen 1 sub {
/i exch def
/obj v i get def
/cpdobj cpdv i get def
obj cpdobj ne {
/upd true def
exit
} if
} for
} {
/upd true def
} ifelse
} {
v type /dicttype eq {
v {
/dv exch def
/dk exch def
/cpddv cpdv dk get def
dv cpddv ne {
/upd true def
exit
} if
} forall
} {
/upd true def
} ifelse
} ifelse
} if
} ifelse
upd true eq {
d k v put
} if
} if
} if
} forall
d length 0 gt {
d setpagedevice
} if
} bd
%%EndResource
%%BeginResource: procset (Apache XML Graphics EPS ProcSet) 1.0 0
%%Version: 1.0 0
%%Copyright: (Copyright 2002-2003 The Apache Software Foundation. License terms: http://www.apache.org/licenses/LICENSE-2.0)
/BeginEPSF { %def
/b4_Inc_state save def         % Save state for cleanup
/dict_count countdictstack def % Count objects on dict stack
/op_count count 1 sub def      % Count objects on operand stack
userdict begin                 % Push userdict on dict stack
/showpage { } def              % Redefine showpage, { } = null proc
0 setgray 0 setlinecap         % Prepare graphics state
1 setlinewidth 0 setlinejoin
10 setmiterlimit [ ] 0 setdash newpath
/languagelevel where           % If level not equal to 1 then
{pop languagelevel             % set strokeadjust and
1 ne                           % overprint to their defaults.
{false setstrokeadjust false setoverprint
} if
} if
} bd
/EndEPSF { %def
count op_count sub {pop} repeat            % Clean up stacks
countdictstack dict_count sub {end} repeat
b4_Inc_state restore
} bd
%%EndResource
%FOPBeginFontDict
%%IncludeResource: font Courier-Bold
%%IncludeResource: font Helvetica
%%IncludeResource: font Courier-BoldOblique
%%IncludeResource: font Courier-Oblique
%%IncludeResource: font Times-Roman
%%IncludeResource: font Helvetica-BoldOblique
%%IncludeResource: font Helvetica-Bold
%%IncludeResource: font Helvetica-Oblique
%%IncludeResource: font Times-BoldItalic
%%IncludeResource: font Courier
%%IncludeResource: font Times-Italic
%%IncludeResource: font Times-Bold
%%IncludeResource: font Symbol
%%IncludeResource: font ZapfDingbats
%FOPEndFontDict
%%BeginResource: encoding WinAnsiEncoding
/WinAnsiEncoding [
/.notdef /.notdef /.notdef /.notdef /.notdef
/.notdef /.notdef /.notdef /.notdef /.notdef
/.notdef /.notdef /.notdef /.notdef /.notdef
/.notdef /.notdef /.notdef /.notdef /.notdef
/.notdef /.notdef /.notdef /.notdef /.notdef
/.notdef /.notdef /.notdef /.notdef /.notdef
/.notdef /.notdef /space /exclam /quotedbl
/numbersign /dollar /percent /ampersand /quotesingle
/parenleft /parenright /asterisk /plus /comma
/hyphen /period /slash /zero /one
/two /three /four /five /six
/seven /eight /nine /colon /semicolon
/less /equal /greater /question /at
/A /B /C /D /E
/F /G /H /I /J
/K /L /M /N /O
/P /Q /R /S /T
/U /V /W /X /Y
/Z /bracketleft /backslash /bracketright /asciicircum
/underscore /quoteleft /a /b /c
/d /e /f /g /h
/i /j /k /l /m
/n /o /p /q /r
/s /t /u /v /w
/x /y /z /braceleft /bar
/braceright /asciitilde /bullet /Euro /bullet
/quotesinglbase /florin /quotedblbase /ellipsis /dagger
/daggerdbl /circumflex /perthousand /Scaron /guilsinglleft
/OE /bullet /Zcaron /bullet /bullet
/quoteleft /quoteright /quotedblleft /quotedblright /bullet
/endash /emdash /asciitilde /trademark /scaron
/guilsinglright /oe /bullet /zcaron /Ydieresis
/space /exclamdown /cent /sterling /currency
/yen /brokenbar /section /dieresis /copyright
/ordfeminine /guillemotleft /logicalnot /sfthyphen /registered
/macron /degree /plusminus /twosuperior /threesuperior
/acute /mu /paragraph /middot /cedilla
/onesuperior /ordmasculine /guillemotright /onequarter /onehalf
/threequarters /questiondown /Agrave /Aacute /Acircumflex
/Atilde /Adieresis /Aring /AE /Ccedilla
/Egrave /Eacute /Ecircumflex /Edieresis /Igrave
/Iacute /Icircumflex /Idieresis /Eth /Ntilde
/Ograve /Oacute /Ocircumflex /Otilde /Odieresis
/multiply /Oslash /Ugrave /Uacute /Ucircumflex
/Udieresis /Yacute /Thorn /germandbls /agrave
/aacute /acircumflex /atilde /adieresis /aring
/ae /ccedilla /egrave /eacute /ecircumflex
/edieresis /igrave /iacute /icircumflex /idieresis
/eth /ntilde /ograve /oacute /ocircumflex
/otilde /odieresis /divide /oslash /ugrave
/uacute /ucircumflex /udieresis /yacute /thorn
/ydieresis
] def
%%EndResource
%FOPBeginFontReencode
/Courier-Bold findfont
dup length dict begin
  {1 index /FID ne {def} {pop pop} ifelse} forall
  /Encoding WinAnsiEncoding def
  currentdict
end
/Courier-Bold exch definefont pop
/Helvetica findfont
dup length dict begin
  {1 index /FID ne {def} {pop pop} ifelse} forall
  /Encoding WinAnsiEncoding def
  currentdict
end
/Helvetica exch definefont pop
/Courier-BoldOblique findfont
dup length dict begin
  {1 index /FID ne {def} {pop pop} ifelse} forall
  /Encoding WinAnsiEncoding def
  currentdict
end
/Courier-BoldOblique exch definefont pop
/Courier-Oblique findfont
dup length dict begin
  {1 index /FID ne {def} {pop pop} ifelse} forall
  /Encoding WinAnsiEncoding def
  currentdict
end
/Courier-Oblique exch definefont pop
/Times-Roman findfont
dup length dict begin
  {1 index /FID ne {def} {pop pop} ifelse} forall
  /Encoding WinAnsiEncoding def
  currentdict
end
/Times-Roman exch definefont pop
/Helvetica-BoldOblique findfont
dup length dict begin
  {1 index /FID ne {def} {pop pop} ifelse} forall
  /Encoding WinAnsiEncoding def
  currentdict
end
/Helvetica-BoldOblique exch definefont pop
/Helvetica-Bold findfont
dup length dict begin
  {1 index /FID ne {def} {pop pop} ifelse} forall
  /Encoding WinAnsiEncoding def
  currentdict
end
/Helvetica-Bold exch definefont pop
/Helvetica-Oblique findfont
dup length dict begin
  {1 index /FID ne {def} {pop pop} ifelse} forall
  /Encoding WinAnsiEncoding def
  currentdict
end
/Helvetica-Oblique exch definefont pop
/Times-BoldItalic findfont
dup length dict begin
  {1 index /FID ne {def} {pop pop} ifelse} forall
  /Encoding WinAnsiEncoding def
  currentdict
end
/Times-BoldItalic exch definefont pop
/Courier findfont
dup length dict begin
  {1 index /FID ne {def} {pop pop} ifelse} forall
  /Encoding WinAnsiEncoding def
  currentdict
end
/Courier exch definefont pop
/Times-Italic findfont
dup length dict begin
  {1 index /FID ne {def} {pop pop} ifelse} forall
  /Encoding WinAnsiEncoding def
  currentdict
end
/Times-Italic exch definefont pop
/Times-Bold findfont
dup length dict begin
  {1 index /FID ne {def} {pop pop} ifelse} forall
  /Encoding WinAnsiEncoding def
  currentdict
end
/Times-Bold exch definefont pop
%FOPEndFontReencode
%%EndProlog
%%Page: 1 1
%%PageBoundingBox: 0 0 420 315
%%BeginPageSetup
[1 0 0 -1 0 315] CT
%%EndPageSetup
GS
[0.6 0 0 0.6 0 0] CT
1 GC
N
0 0 700 525 re
f
GR
GS
[0.6 0 0 0.6 0 0] CT
1 GC
N
0 0 700 525 re
f
GR
GS
[0.6 0 0 0.6 0 0] CT
1 GC
N
91 114 M
634 114 L
634 49 L
91 49 L
cp
f
GR
GS
[0.6 0 0 0.6 0 0] CT
0.149 GC
2 setlinecap
1 LJ
0.833 LW
N
91 114 M
634 114 L
S
GR
GS
[0.6 0 0 0.6 0 0] CT
0.149 GC
2 setlinecap
1 LJ
0.833 LW
N
91 49 M
634 49 L
S
GR
GS
[0.6 0 0 0.6 0 0] CT
0.149 GC
2 setlinecap
1 LJ
0.833 LW
N
91 114 M
91 108.57 L
S
GR
GS
[0.6 0 0 0.6 0 0] CT
0.149 GC
2 setlinecap
1 LJ
0.833 LW
N
145.3 114 M
145.3 108.57 L
S
GR
GS
[0.6 0 0 0.6 0 0] CT
0.149 GC
2 setlinecap
1 LJ
0.833 LW
N
199.6 114 M
199.6 108.57 L
S
GR
GS
[0.6 0 0 0.6 0 0] CT
0.149 GC
2 setlinecap
1 LJ
0.833 LW
N
253.9 114 M
253.9 108.57 L
S
GR
GS
[0.6 0 0 0.6 0 0] CT
0.149 GC
2 setlinecap
1 LJ
0.833 LW
N
308.2 114 M
308.2 108.57 L
S
GR
GS
[0.6 0 0 0.6 0 0] CT
0.149 GC
2 setlinecap
1 LJ
0.833 LW
N
362.5 114 M
362.5 108.57 L
S
GR
GS
[0.6 0 0 0.6 0 0] CT
0.149 GC
2 setlinecap
1 LJ
0.833 LW
N
416.8 114 M
416.8 108.57 L
S
GR
GS
[0.6 0 0 0.6 0 0] CT
0.149 GC
2 setlinecap
1 LJ
0.833 LW
N
471.1 114 M
471.1 108.57 L
S
GR
GS
[0.6 0 0 0.6 0 0] CT
0.149 GC
2 setlinecap
1 LJ
0.833 LW
N
525.4 114 M
525.4 108.57 L
S
GR
GS
[0.6 0 0 0.6 0 0] CT
0.149 GC
2 setlinecap
1 LJ
0.833 LW
N
579.7 114 M
579.7 108.57 L
S
GR
GS
[0.6 0 0 0.6 0 0] CT
0.149 GC
2 setlinecap
1 LJ
0.833 LW
N
634 114 M
634 108.57 L
S
GR
GS
[0.6 0 0 0.6 0 0] CT
0.149 GC
2 setlinecap
1 LJ
0.833 LW
N
91 49 M
91 54.43 L
S
GR
GS
[0.6 0 0 0.6 0 0] CT
0.149 GC
2 setlinecap
1 LJ
0.833 LW
N
145.3 49 M
145.3 54.43 L
S
GR
GS
[0.6 0 0 0.6 0 0] CT
0.149 GC
2 setlinecap
1 LJ
0.833 LW
N
199.6 49 M
199.6 54.43 L
S
GR
GS
[0.6 0 0 0.6 0 0] CT
0.149 GC
2 setlinecap
1 LJ
0.833 LW
N
253.9 49 M
253.9 54.43 L
S
GR
GS
[0.6 0 0 0.6 0 0] CT
0.149 GC
2 setlinecap
1 LJ
0.833 LW
N
308.2 49 M
308.2 54.43 L
S
GR
GS
[0.6 0 0 0.6 0 0] CT
0.149 GC
2 setlinecap
1 LJ
0.833 LW
N
362.5 49 M
362.5 54.43 L
S
GR
GS
[0.6 0 0 0.6 0 0] CT
0.149 GC
2 setlinecap
1 LJ
0.833 LW
N
416.8 49 M
416.8 54.43 L
S
GR
GS
[0.6 0 0 0.6 0 0] CT
0.149 GC
2 setlinecap
1 LJ
0.833 LW
N
471.1 49 M
471.1 54.43 L
S
GR
GS
[0.6 0 0 0.6 0 0] CT
0.149 GC
2 setlinecap
1 LJ
0.833 LW
N
525.4 49 M
525.4 54.43 L
S
GR
GS
[0.6 0 0 0.6 0 0] CT
0.149 GC
2 setlinecap
1 LJ
0.833 LW
N
579.7 49 M
579.7 54.43 L
S
GR
GS
[0.6 0 0 0.6 0 0] CT
0.149 GC
2 setlinecap
1 LJ
0.833 LW
N
634 49 M
634 54.43 L
S
GR
GS
[0.6 0 0 0.6 54.6 72.4] CT
0.149 GC
/Helvetica 16.667 F
GS
[1 0 0 1 0 0] CT
-17.5 18 moveto 
1 -1 scale
(-100) t 
GR
GR
GS
[0.6 0 0 0.6 87.18 72.4] CT
0.149 GC
/Helvetica 16.667 F
GS
[1 0 0 1 0 0] CT
-12.5 18 moveto 
1 -1 scale
(-80) t 
GR
GR
GS
[0.6 0 0 0.6 119.76 72.4] CT
0.149 GC
/Helvetica 16.667 F
GS
[1 0 0 1 0 0] CT
-12.5 18 moveto 
1 -1 scale
(-60) t 
GR
GR
GS
[0.6 0 0 0.6 152.34 72.4] CT
0.149 GC
/Helvetica 16.667 F
GS
[1 0 0 1 0 0] CT
-12.5 18 moveto 
1 -1 scale
(-40) t 
GR
GR
GS
[0.6 0 0 0.6 184.92001 72.4] CT
0.149 GC
/Helvetica 16.667 F
GS
[1 0 0 1 0 0] CT
-12.5 18 moveto 
1 -1 scale
(-20) t 
GR
GR
GS
[0.6 0 0 0.6 217.5 72.4] CT
0.149 GC
/Helvetica 16.667 F
GS
[1 0 0 1 0 0] CT
-5 18 moveto 
1 -1 scale
(0) t 
GR
GR
GS
[0.6 0 0 0.6 250.07999 72.4] CT
0.149 GC
/Helvetica 16.667 F
GS
[1 0 0 1 0 0] CT
-9.5 18 moveto 
1 -1 scale
(20) t 
GR
GR
GS
[0.6 0 0 0.6 282.66 72.4] CT
0.149 GC
/Helvetica 16.667 F
GS
[1 0 0 1 0 0] CT
-9.5 18 moveto 
1 -1 scale
(40) t 
GR
GR
GS
[0.6 0 0 0.6 315.24001 72.4] CT
0.149 GC
/Helvetica 16.667 F
GS
[1 0 0 1 0 0] CT
-9.5 18 moveto 
1 -1 scale
(60) t 
GR
GR
GS
[0.6 0 0 0.6 347.82001 72.4] CT
0.149 GC
/Helvetica 16.667 F
GS
[1 0 0 1 0 0] CT
-9.5 18 moveto 
1 -1 scale
(80) t 
GR
GR
GS
[0.6 0 0 0.6 380.4 72.4] CT
0.149 GC
/Helvetica 16.667 F
GS
[1 0 0 1 0 0] CT
-14.5 18 moveto 
1 -1 scale
(100) t 
GR
GR
GS
[0.6 0 0 0.6 0 0] CT
0.149 GC
2 setlinecap
1 LJ
0.833 LW
N
91 114 M
91 49 L
S
GR
GS
[0.6 0 0 0.6 0 0] CT
0.149 GC
2 setlinecap
1 LJ
0.833 LW
N
634 114 M
634 49 L
S
GR
GS
[0.6 0 0 0.6 0 0] CT
0.149 GC
2 setlinecap
1 LJ
0.833 LW
N
91 114 M
96.43 114 L
S
GR
GS
[0.6 0 0 0.6 0 0] CT
0.149 GC
2 setlinecap
1 LJ
0.833 LW
N
91 81.5 M
96.43 81.5 L
S
GR
GS
[0.6 0 0 0.6 0 0] CT
0.149 GC
2 setlinecap
1 LJ
0.833 LW
N
91 49 M
96.43 49 L
S
GR
GS
[0.6 0 0 0.6 0 0] CT
0.149 GC
2 setlinecap
1 LJ
0.833 LW
N
634 114 M
628.57 114 L
S
GR
GS
[0.6 0 0 0.6 0 0] CT
0.149 GC
2 setlinecap
1 LJ
0.833 LW
N
634 81.5 M
628.57 81.5 L
S
GR
GS
[0.6 0 0 0.6 0 0] CT
0.149 GC
2 setlinecap
1 LJ
0.833 LW
N
634 49 M
628.57 49 L
S
GR
GS
[0.6 0 0 0.6 50.59999 68.4] CT
0.149 GC
/Helvetica 16.667 F
GS
[1 0 0 1 0 0] CT
-25 7 moveto 
1 -1 scale
(-10) t 
GR
GR
GS
[0.6 0 0 0.6 50.59999 48.9] CT
0.149 GC
/Helvetica 16.667 F
GS
[1 0 0 1 0 0] CT
-10 7 moveto 
1 -1 scale
(0) t 
GR
GR
GS
[0.6 0 0 0.6 50.59999 29.4] CT
0.149 GC
/Helvetica 16.667 F
GS
[1 0 0 1 0 0] CT
-19 7 moveto 
1 -1 scale
(10) t 
GR
GR
GS
[0.6 0 0 0.6 180.6 16.8] CT
/Helvetica-Bold 25 F
GS
[1 0 0 1 0 0] CT
0 0 moveto 
1 -1 scale
(Re[R) t 
GR
GR
GS
[0.6 0 0 0.6 216 24] CT
/Helvetica-Bold 20 F
GS
[1 0 0 1 0 0] CT
0 0 moveto 
1 -1 scale
(xy) t 
GR
GR
GS
[0.6 0 0 0.6 229.8 16.8] CT
/Helvetica-Bold 25 F
GS
[1 0 0 1 0 0] CT
0 0 moveto 
1 -1 scale
(\(n\)]) t 
GR
GR
GS
[0.6 0 0 0.6 0 0] CT
0 0.447 0.741 RC
1 LJ
0.833 LW
N
91 62.738 M
93.715 102.939 L
96.43 107.956 L
99.145 69.662 L
101.86 50.892 L
104.575 82.277 L
107.29 112.363 L
110.005 91.897 L
112.72 54.505 L
115.435 61.395 L
118.15 101.334 L
120.865 108.651 L
123.58 71.474 L
126.295 50.738 L
129.01 80.436 L
131.725 111.83 L
134.44 93.419 L
137.155 55.559 L
139.87 60.181 L
142.585 99.809 L
145.3 109.495 L
148.015 73.17 L
150.73 50.524 L
153.445 78.611 L
156.16 111.518 L
158.875 95.212 L
161.59 56.403 L
164.305 58.746 L
167.02 98.449 L
169.735 110.477 L
172.45 74.965 L
175.165 50.161 L
177.88 76.683 L
180.595 111.12 L
183.31 97.044 L
186.025 57.472 L
188.74 57.189 L
191.455 96.793 L
194.17 111.508 L
196.885 77.018 L
199.6 49.748 L
202.315 74.464 L
205.03 110.666 L
207.745 99.112 L
210.46 58.634 L
213.175 55.512 L
215.89 94.912 L
218.605 112.434 L
221.32 79.272 L
224.035 49.708 L
226.75 72.181 L
229.465 109.982 L
232.18 101.168 L
234.895 60.247 L
237.61 54.078 L
240.325 92.809 L
243.04 113.027 L
245.755 81.71 L
248.47 50.006 L
251.185 69.787 L
253.9 108.773 L
256.615 103.135 L
259.33 62.128 L
262.045 52.885 L
264.76 90.517 L
267.475 113.407 L
270.19 84.119 L
272.905 50.55 L
275.62 67.595 L
278.335 107.303 L
281.05 104.838 L
283.765 64.225 L
286.48 51.925 L
289.195 87.994 L
291.91 113.402 L
294.625 86.626 L
297.34 51.5 L
300.055 65.419 L
302.77 105.578 L
305.485 106.255 L
308.2 66.526 L
310.915 51.349 L
313.63 85.593 L
316.345 113.063 L
319.06 88.85 L
321.775 52.654 L
324.49 63.724 L
327.205 103.806 L
329.92 107.312 L
332.635 68.632 L
335.35 51.067 L
338.065 83.379 L
340.78 112.556 L
343.495 90.789 L
346.21 53.929 L
348.925 62.254 L
351.64 102.053 L
354.355 108.118 L
357.07 70.545 L
359.785 50.974 L
362.5 81.411 L
365.215 111.983 L
367.93 92.62 L
370.645 55.101 L
373.36 60.891 L
376.075 100.463 L
378.79 108.914 L
381.505 72.421 L
384.22 50.822 L
386.935 79.596 L
389.65 111.521 L
392.365 94.24 L
395.08 56.142 L
397.795 59.506 L
400.51 98.967 L
403.225 109.701 L
405.94 74.124 L
408.655 50.617 L
411.37 77.784 L
414.085 111.075 L
416.8 95.887 L
419.515 57.109 L
422.23 58.246 L
424.945 97.513 L
427.66 110.542 L
430.375 75.955 L
433.09 50.502 L
435.805 75.875 L
438.52 110.567 L
441.235 97.697 L
443.95 58.133 L
446.665 56.738 L
449.38 95.982 L
452.095 111.579 L
454.81 77.905 L
457.525 50.124 L
460.24 73.673 L
462.955 110.079 L
465.67 99.756 L
468.385 59.507 L
471.1 55.205 L
473.815 93.977 L
476.53 112.383 L
479.245 80.322 L
481.96 50.116 L
484.675 71.238 L
487.39 109.111 L
490.105 101.883 L
492.82 61.234 L
495.535 53.722 L
498.25 91.689 L
500.965 112.95 L
503.68 82.821 L
506.395 50.526 L
509.11 68.889 L
511.825 107.884 L
514.54 103.797 L
517.255 63.225 L
519.97 52.534 L
522.685 89.226 L
525.4 113.214 L
528.115 85.37 L
530.83 51.323 L
533.545 66.577 L
536.26 106.11 L
538.975 105.379 L
541.69 65.493 L
544.405 51.812 L
547.12 86.632 L
549.835 112.981 L
552.55 87.868 L
555.265 52.439 L
557.98 64.566 L
560.695 104.305 L
563.41 106.739 L
566.125 67.955 L
568.84 51.352 L
571.555 84.167 L
574.27 112.506 L
576.985 90.077 L
579.7 53.603 L
582.415 62.933 L
585.13 102.693 L
587.845 107.667 L
590.56 69.798 L
593.275 51.122 L
595.99 82.182 L
598.705 112.09 L
601.42 91.839 L
604.135 54.7 L
606.85 61.595 L
609.565 101.031 L
612.28 108.416 L
614.995 71.649 L
617.71 51.112 L
620.425 80.336 L
623.14 111.448 L
625.855 93.402 L
628.57 55.859 L
631.285 60.47 L
634 99.514 L
S
GR
GS
[0.6 0 0 0.6 0 0] CT
1 GC
N
91 229 M
634 229 L
634 164 L
91 164 L
cp
f
GR
GS
[0.6 0 0 0.6 0 0] CT
0.149 GC
2 setlinecap
1 LJ
0.833 LW
N
91 229 M
634 229 L
S
GR
GS
[0.6 0 0 0.6 0 0] CT
0.149 GC
2 setlinecap
1 LJ
0.833 LW
N
91 164 M
634 164 L
S
GR
GS
[0.6 0 0 0.6 0 0] CT
0.149 GC
2 setlinecap
1 LJ
0.833 LW
N
91 229 M
91 223.57 L
S
GR
GS
[0.6 0 0 0.6 0 0] CT
0.149 GC
2 setlinecap
1 LJ
0.833 LW
N
145.3 229 M
145.3 223.57 L
S
GR
GS
[0.6 0 0 0.6 0 0] CT
0.149 GC
2 setlinecap
1 LJ
0.833 LW
N
199.6 229 M
199.6 223.57 L
S
GR
GS
[0.6 0 0 0.6 0 0] CT
0.149 GC
2 setlinecap
1 LJ
0.833 LW
N
253.9 229 M
253.9 223.57 L
S
GR
GS
[0.6 0 0 0.6 0 0] CT
0.149 GC
2 setlinecap
1 LJ
0.833 LW
N
308.2 229 M
308.2 223.57 L
S
GR
GS
[0.6 0 0 0.6 0 0] CT
0.149 GC
2 setlinecap
1 LJ
0.833 LW
N
362.5 229 M
362.5 223.57 L
S
GR
GS
[0.6 0 0 0.6 0 0] CT
0.149 GC
2 setlinecap
1 LJ
0.833 LW
N
416.8 229 M
416.8 223.57 L
S
GR
GS
[0.6 0 0 0.6 0 0] CT
0.149 GC
2 setlinecap
1 LJ
0.833 LW
N
471.1 229 M
471.1 223.57 L
S
GR
GS
[0.6 0 0 0.6 0 0] CT
0.149 GC
2 setlinecap
1 LJ
0.833 LW
N
525.4 229 M
525.4 223.57 L
S
GR
GS
[0.6 0 0 0.6 0 0] CT
0.149 GC
2 setlinecap
1 LJ
0.833 LW
N
579.7 229 M
579.7 223.57 L
S
GR
GS
[0.6 0 0 0.6 0 0] CT
0.149 GC
2 setlinecap
1 LJ
0.833 LW
N
634 229 M
634 223.57 L
S
GR
GS
[0.6 0 0 0.6 0 0] CT
0.149 GC
2 setlinecap
1 LJ
0.833 LW
N
91 164 M
91 169.43 L
S
GR
GS
[0.6 0 0 0.6 0 0] CT
0.149 GC
2 setlinecap
1 LJ
0.833 LW
N
145.3 164 M
145.3 169.43 L
S
GR
GS
[0.6 0 0 0.6 0 0] CT
0.149 GC
2 setlinecap
1 LJ
0.833 LW
N
199.6 164 M
199.6 169.43 L
S
GR
GS
[0.6 0 0 0.6 0 0] CT
0.149 GC
2 setlinecap
1 LJ
0.833 LW
N
253.9 164 M
253.9 169.43 L
S
GR
GS
[0.6 0 0 0.6 0 0] CT
0.149 GC
2 setlinecap
1 LJ
0.833 LW
N
308.2 164 M
308.2 169.43 L
S
GR
GS
[0.6 0 0 0.6 0 0] CT
0.149 GC
2 setlinecap
1 LJ
0.833 LW
N
362.5 164 M
362.5 169.43 L
S
GR
GS
[0.6 0 0 0.6 0 0] CT
0.149 GC
2 setlinecap
1 LJ
0.833 LW
N
416.8 164 M
416.8 169.43 L
S
GR
GS
[0.6 0 0 0.6 0 0] CT
0.149 GC
2 setlinecap
1 LJ
0.833 LW
N
471.1 164 M
471.1 169.43 L
S
GR
GS
[0.6 0 0 0.6 0 0] CT
0.149 GC
2 setlinecap
1 LJ
0.833 LW
N
525.4 164 M
525.4 169.43 L
S
GR
GS
[0.6 0 0 0.6 0 0] CT
0.149 GC
2 setlinecap
1 LJ
0.833 LW
N
579.7 164 M
579.7 169.43 L
S
GR
GS
[0.6 0 0 0.6 0 0] CT
0.149 GC
2 setlinecap
1 LJ
0.833 LW
N
634 164 M
634 169.43 L
S
GR
GS
[0.6 0 0 0.6 54.6 141.4] CT
0.149 GC
/Helvetica 16.667 F
GS
[1 0 0 1 0 0] CT
-17.5 18 moveto 
1 -1 scale
(-100) t 
GR
GR
GS
[0.6 0 0 0.6 87.18 141.4] CT
0.149 GC
/Helvetica 16.667 F
GS
[1 0 0 1 0 0] CT
-12.5 18 moveto 
1 -1 scale
(-80) t 
GR
GR
GS
[0.6 0 0 0.6 119.76 141.4] CT
0.149 GC
/Helvetica 16.667 F
GS
[1 0 0 1 0 0] CT
-12.5 18 moveto 
1 -1 scale
(-60) t 
GR
GR
GS
[0.6 0 0 0.6 152.34 141.4] CT
0.149 GC
/Helvetica 16.667 F
GS
[1 0 0 1 0 0] CT
-12.5 18 moveto 
1 -1 scale
(-40) t 
GR
GR
GS
[0.6 0 0 0.6 184.92001 141.4] CT
0.149 GC
/Helvetica 16.667 F
GS
[1 0 0 1 0 0] CT
-12.5 18 moveto 
1 -1 scale
(-20) t 
GR
GR
GS
[0.6 0 0 0.6 217.5 141.4] CT
0.149 GC
/Helvetica 16.667 F
GS
[1 0 0 1 0 0] CT
-5 18 moveto 
1 -1 scale
(0) t 
GR
GR
GS
[0.6 0 0 0.6 250.07999 141.4] CT
0.149 GC
/Helvetica 16.667 F
GS
[1 0 0 1 0 0] CT
-9.5 18 moveto 
1 -1 scale
(20) t 
GR
GR
GS
[0.6 0 0 0.6 282.66 141.4] CT
0.149 GC
/Helvetica 16.667 F
GS
[1 0 0 1 0 0] CT
-9.5 18 moveto 
1 -1 scale
(40) t 
GR
GR
GS
[0.6 0 0 0.6 315.24001 141.4] CT
0.149 GC
/Helvetica 16.667 F
GS
[1 0 0 1 0 0] CT
-9.5 18 moveto 
1 -1 scale
(60) t 
GR
GR
GS
[0.6 0 0 0.6 347.82001 141.4] CT
0.149 GC
/Helvetica 16.667 F
GS
[1 0 0 1 0 0] CT
-9.5 18 moveto 
1 -1 scale
(80) t 
GR
GR
GS
[0.6 0 0 0.6 380.4 141.4] CT
0.149 GC
/Helvetica 16.667 F
GS
[1 0 0 1 0 0] CT
-14.5 18 moveto 
1 -1 scale
(100) t 
GR
GR
GS
[0.6 0 0 0.6 0 0] CT
0.149 GC
2 setlinecap
1 LJ
0.833 LW
N
91 229 M
91 164 L
S
GR
GS
[0.6 0 0 0.6 0 0] CT
0.149 GC
2 setlinecap
1 LJ
0.833 LW
N
634 229 M
634 164 L
S
GR
GS
[0.6 0 0 0.6 0 0] CT
0.149 GC
2 setlinecap
1 LJ
0.833 LW
N
91 229 M
96.43 229 L
S
GR
GS
[0.6 0 0 0.6 0 0] CT
0.149 GC
2 setlinecap
1 LJ
0.833 LW
N
91 196.5 M
96.43 196.5 L
S
GR
GS
[0.6 0 0 0.6 0 0] CT
0.149 GC
2 setlinecap
1 LJ
0.833 LW
N
91 164 M
96.43 164 L
S
GR
GS
[0.6 0 0 0.6 0 0] CT
0.149 GC
2 setlinecap
1 LJ
0.833 LW
N
634 229 M
628.57 229 L
S
GR
GS
[0.6 0 0 0.6 0 0] CT
0.149 GC
2 setlinecap
1 LJ
0.833 LW
N
634 196.5 M
628.57 196.5 L
S
GR
GS
[0.6 0 0 0.6 0 0] CT
0.149 GC
2 setlinecap
1 LJ
0.833 LW
N
634 164 M
628.57 164 L
S
GR
GS
[0.6 0 0 0.6 50.59999 137.4] CT
0.149 GC
/Helvetica 16.667 F
GS
[1 0 0 1 0 0] CT
-16 7 moveto 
1 -1 scale
(-5) t 
GR
GR
GS
[0.6 0 0 0.6 50.59999 117.9] CT
0.149 GC
/Helvetica 16.667 F
GS
[1 0 0 1 0 0] CT
-10 7 moveto 
1 -1 scale
(0) t 
GR
GR
GS
[0.6 0 0 0.6 50.59999 98.4] CT
0.149 GC
/Helvetica 16.667 F
GS
[1 0 0 1 0 0] CT
-10 7 moveto 
1 -1 scale
(5) t 
GR
GR
GS
[0.6 0 0 0.6 0 0] CT
0 0.447 0.741 RC
1 LJ
0.833 LW
N
91 173.046 M
93.715 205.951 L
96.43 224.449 L
99.145 201.102 L
101.86 170.984 L
104.575 179.146 L
107.29 213.031 L
110.005 221.946 L
112.72 192.76 L
115.435 169.335 L
118.15 186.266 L
120.865 218.497 L
123.58 217.798 L
126.295 185.422 L
129.01 169.653 L
131.725 193.99 L
134.44 222.181 L
137.155 211.872 L
139.87 178.733 L
142.585 172.001 L
145.3 201.689 L
148.015 223.906 L
150.73 205.138 L
153.445 173.486 L
156.16 176.019 L
158.875 209.266 L
161.59 223.58 L
164.305 197.31 L
167.02 169.568 L
169.735 181.92 L
172.45 216.348 L
175.165 221.131 L
177.88 188.957 L
180.595 167.904 L
183.31 189.727 L
186.025 221.921 L
188.74 216.164 L
191.455 180.64 L
194.17 168.493 L
196.885 198.587 L
199.6 225.939 L
202.315 209.074 L
205.03 173.232 L
207.745 172.294 L
210.46 208.036 L
213.175 226.7 L
215.89 199.929 L
218.605 167.702 L
221.32 178.906 L
224.035 216.817 L
226.75 224.192 L
229.465 189.624 L
232.18 165.333 L
234.895 187.882 L
237.61 223.57 L
240.325 218.389 L
243.04 180.144 L
245.755 166.443 L
248.47 198.216 L
251.185 227.518 L
253.9 209.889 L
256.615 172.039 L
259.33 171.105 L
262.045 208.392 L
264.76 227.548 L
267.475 199.763 L
270.19 167.072 L
272.905 178.893 L
275.62 217.273 L
278.335 224.325 L
281.05 189.309 L
283.765 165.261 L
286.48 188.331 L
289.195 223.585 L
291.91 217.879 L
294.625 180.025 L
297.34 167.192 L
300.055 198.612 L
302.77 226.697 L
305.485 209.323 L
308.2 172.688 L
310.915 172.085 L
313.63 207.932 L
316.345 226.375 L
319.06 199.912 L
321.775 168.587 L
324.49 179.293 L
327.205 215.75 L
329.92 223.111 L
332.635 190.505 L
335.35 167.168 L
338.065 187.774 L
340.78 221.247 L
343.495 217.617 L
346.21 182.336 L
348.925 168.489 L
351.64 196.594 L
354.355 224.41 L
357.07 210.481 L
359.785 175.748 L
362.5 172.201 L
365.215 204.858 L
367.93 224.974 L
370.645 202.632 L
373.36 171.253 L
376.075 177.657 L
378.79 212.126 L
381.505 223.213 L
384.22 194.4 L
386.935 168.879 L
389.65 184.666 L
392.365 218.173 L
395.08 219.507 L
397.795 186.221 L
400.51 168.274 L
403.225 192.306 L
405.94 222.587 L
408.655 213.929 L
411.37 179.181 L
414.085 170.199 L
416.8 200.598 L
419.515 225.113 L
422.23 206.753 L
424.945 172.815 L
427.66 174.151 L
430.375 209.108 L
433.09 225.579 L
435.805 198.465 L
438.52 168.24 L
441.235 180.426 L
443.95 216.752 L
446.665 222.72 L
449.38 189.251 L
452.095 166.454 L
454.81 188.845 L
457.525 223.14 L
460.24 217.388 L
462.955 179.979 L
465.67 167.313 L
468.385 198.697 L
471.1 226.967 L
473.815 209.36 L
476.53 172.18 L
479.245 171.73 L
481.96 208.71 L
484.675 227.386 L
487.39 199.259 L
490.105 166.943 L
492.82 179.114 L
495.535 217.64 L
498.25 224.351 L
500.965 188.834 L
503.68 164.961 L
506.395 188.754 L
509.11 224.265 L
511.825 217.818 L
514.54 179.318 L
517.255 166.772 L
519.97 199.096 L
522.685 227.451 L
525.4 208.938 L
528.115 171.818 L
530.83 172.255 L
533.545 209.083 L
536.26 226.566 L
538.975 198.742 L
541.69 167.493 L
544.405 180.032 L
547.12 217.112 L
549.835 222.895 L
552.55 189.116 L
555.265 166.805 L
557.98 189.175 L
560.695 222.207 L
563.41 216.546 L
566.125 181.054 L
568.84 168.924 L
571.555 198.31 L
574.27 224.602 L
576.985 208.671 L
579.7 174.597 L
582.415 173.723 L
585.13 206.98 L
587.845 224.238 L
590.56 199.962 L
593.275 170.693 L
595.99 180.086 L
598.705 213.891 L
601.42 221.474 L
604.135 191.824 L
606.85 169.529 L
609.565 187.424 L
612.28 218.713 L
614.995 216.675 L
617.71 184.721 L
620.425 170.325 L
623.14 194.964 L
625.855 221.732 L
628.57 210.871 L
631.285 178.808 L
634 173.024 L
S
GR
GS
[0.6 0 0 0.6 0 0] CT
1 GC
N
91 344 M
634 344 L
634 279 L
91 279 L
cp
f
GR
GS
[0.6 0 0 0.6 0 0] CT
0.149 GC
2 setlinecap
1 LJ
0.833 LW
N
91 344 M
634 344 L
S
GR
GS
[0.6 0 0 0.6 0 0] CT
0.149 GC
2 setlinecap
1 LJ
0.833 LW
N
91 279 M
634 279 L
S
GR
GS
[0.6 0 0 0.6 0 0] CT
0.149 GC
2 setlinecap
1 LJ
0.833 LW
N
91 344 M
91 338.57 L
S
GR
GS
[0.6 0 0 0.6 0 0] CT
0.149 GC
2 setlinecap
1 LJ
0.833 LW
N
145.3 344 M
145.3 338.57 L
S
GR
GS
[0.6 0 0 0.6 0 0] CT
0.149 GC
2 setlinecap
1 LJ
0.833 LW
N
199.6 344 M
199.6 338.57 L
S
GR
GS
[0.6 0 0 0.6 0 0] CT
0.149 GC
2 setlinecap
1 LJ
0.833 LW
N
253.9 344 M
253.9 338.57 L
S
GR
GS
[0.6 0 0 0.6 0 0] CT
0.149 GC
2 setlinecap
1 LJ
0.833 LW
N
308.2 344 M
308.2 338.57 L
S
GR
GS
[0.6 0 0 0.6 0 0] CT
0.149 GC
2 setlinecap
1 LJ
0.833 LW
N
362.5 344 M
362.5 338.57 L
S
GR
GS
[0.6 0 0 0.6 0 0] CT
0.149 GC
2 setlinecap
1 LJ
0.833 LW
N
416.8 344 M
416.8 338.57 L
S
GR
GS
[0.6 0 0 0.6 0 0] CT
0.149 GC
2 setlinecap
1 LJ
0.833 LW
N
471.1 344 M
471.1 338.57 L
S
GR
GS
[0.6 0 0 0.6 0 0] CT
0.149 GC
2 setlinecap
1 LJ
0.833 LW
N
525.4 344 M
525.4 338.57 L
S
GR
GS
[0.6 0 0 0.6 0 0] CT
0.149 GC
2 setlinecap
1 LJ
0.833 LW
N
579.7 344 M
579.7 338.57 L
S
GR
GS
[0.6 0 0 0.6 0 0] CT
0.149 GC
2 setlinecap
1 LJ
0.833 LW
N
634 344 M
634 338.57 L
S
GR
GS
[0.6 0 0 0.6 0 0] CT
0.149 GC
2 setlinecap
1 LJ
0.833 LW
N
91 279 M
91 284.43 L
S
GR
GS
[0.6 0 0 0.6 0 0] CT
0.149 GC
2 setlinecap
1 LJ
0.833 LW
N
145.3 279 M
145.3 284.43 L
S
GR
GS
[0.6 0 0 0.6 0 0] CT
0.149 GC
2 setlinecap
1 LJ
0.833 LW
N
199.6 279 M
199.6 284.43 L
S
GR
GS
[0.6 0 0 0.6 0 0] CT
0.149 GC
2 setlinecap
1 LJ
0.833 LW
N
253.9 279 M
253.9 284.43 L
S
GR
GS
[0.6 0 0 0.6 0 0] CT
0.149 GC
2 setlinecap
1 LJ
0.833 LW
N
308.2 279 M
308.2 284.43 L
S
GR
GS
[0.6 0 0 0.6 0 0] CT
0.149 GC
2 setlinecap
1 LJ
0.833 LW
N
362.5 279 M
362.5 284.43 L
S
GR
GS
[0.6 0 0 0.6 0 0] CT
0.149 GC
2 setlinecap
1 LJ
0.833 LW
N
416.8 279 M
416.8 284.43 L
S
GR
GS
[0.6 0 0 0.6 0 0] CT
0.149 GC
2 setlinecap
1 LJ
0.833 LW
N
471.1 279 M
471.1 284.43 L
S
GR
GS
[0.6 0 0 0.6 0 0] CT
0.149 GC
2 setlinecap
1 LJ
0.833 LW
N
525.4 279 M
525.4 284.43 L
S
GR
GS
[0.6 0 0 0.6 0 0] CT
0.149 GC
2 setlinecap
1 LJ
0.833 LW
N
579.7 279 M
579.7 284.43 L
S
GR
GS
[0.6 0 0 0.6 0 0] CT
0.149 GC
2 setlinecap
1 LJ
0.833 LW
N
634 279 M
634 284.43 L
S
GR
GS
[0.6 0 0 0.6 54.6 210.39999] CT
0.149 GC
/Helvetica 16.667 F
GS
[1 0 0 1 0 0] CT
-17.5 18 moveto 
1 -1 scale
(-100) t 
GR
GR
GS
[0.6 0 0 0.6 87.18 210.39999] CT
0.149 GC
/Helvetica 16.667 F
GS
[1 0 0 1 0 0] CT
-12.5 18 moveto 
1 -1 scale
(-80) t 
GR
GR
GS
[0.6 0 0 0.6 119.76 210.39999] CT
0.149 GC
/Helvetica 16.667 F
GS
[1 0 0 1 0 0] CT
-12.5 18 moveto 
1 -1 scale
(-60) t 
GR
GR
GS
[0.6 0 0 0.6 152.34 210.39999] CT
0.149 GC
/Helvetica 16.667 F
GS
[1 0 0 1 0 0] CT
-12.5 18 moveto 
1 -1 scale
(-40) t 
GR
GR
GS
[0.6 0 0 0.6 184.92001 210.39999] CT
0.149 GC
/Helvetica 16.667 F
GS
[1 0 0 1 0 0] CT
-12.5 18 moveto 
1 -1 scale
(-20) t 
GR
GR
GS
[0.6 0 0 0.6 217.5 210.39999] CT
0.149 GC
/Helvetica 16.667 F
GS
[1 0 0 1 0 0] CT
-5 18 moveto 
1 -1 scale
(0) t 
GR
GR
GS
[0.6 0 0 0.6 250.07999 210.39999] CT
0.149 GC
/Helvetica 16.667 F
GS
[1 0 0 1 0 0] CT
-9.5 18 moveto 
1 -1 scale
(20) t 
GR
GR
GS
[0.6 0 0 0.6 282.66 210.39999] CT
0.149 GC
/Helvetica 16.667 F
GS
[1 0 0 1 0 0] CT
-9.5 18 moveto 
1 -1 scale
(40) t 
GR
GR
GS
[0.6 0 0 0.6 315.24001 210.39999] CT
0.149 GC
/Helvetica 16.667 F
GS
[1 0 0 1 0 0] CT
-9.5 18 moveto 
1 -1 scale
(60) t 
GR
GR
GS
[0.6 0 0 0.6 347.82001 210.39999] CT
0.149 GC
/Helvetica 16.667 F
GS
[1 0 0 1 0 0] CT
-9.5 18 moveto 
1 -1 scale
(80) t 
GR
GR
GS
[0.6 0 0 0.6 380.4 210.39999] CT
0.149 GC
/Helvetica 16.667 F
GS
[1 0 0 1 0 0] CT
-14.5 18 moveto 
1 -1 scale
(100) t 
GR
GR
GS
[0.6 0 0 0.6 0 0] CT
0.149 GC
2 setlinecap
1 LJ
0.833 LW
N
91 344 M
91 279 L
S
GR
GS
[0.6 0 0 0.6 0 0] CT
0.149 GC
2 setlinecap
1 LJ
0.833 LW
N
634 344 M
634 279 L
S
GR
GS
[0.6 0 0 0.6 0 0] CT
0.149 GC
2 setlinecap
1 LJ
0.833 LW
N
91 344 M
96.43 344 L
S
GR
GS
[0.6 0 0 0.6 0 0] CT
0.149 GC
2 setlinecap
1 LJ
0.833 LW
N
91 311.5 M
96.43 311.5 L
S
GR
GS
[0.6 0 0 0.6 0 0] CT
0.149 GC
2 setlinecap
1 LJ
0.833 LW
N
91 279 M
96.43 279 L
S
GR
GS
[0.6 0 0 0.6 0 0] CT
0.149 GC
2 setlinecap
1 LJ
0.833 LW
N
634 344 M
628.57 344 L
S
GR
GS
[0.6 0 0 0.6 0 0] CT
0.149 GC
2 setlinecap
1 LJ
0.833 LW
N
634 311.5 M
628.57 311.5 L
S
GR
GS
[0.6 0 0 0.6 0 0] CT
0.149 GC
2 setlinecap
1 LJ
0.833 LW
N
634 279 M
628.57 279 L
S
GR
GS
[0.6 0 0 0.6 50.59999 206.4] CT
0.149 GC
/Helvetica 16.667 F
GS
[1 0 0 1 0 0] CT
-16 7 moveto 
1 -1 scale
(-2) t 
GR
GR
GS
[0.6 0 0 0.6 50.59999 186.9] CT
0.149 GC
/Helvetica 16.667 F
GS
[1 0 0 1 0 0] CT
-10 7 moveto 
1 -1 scale
(0) t 
GR
GR
GS
[0.6 0 0 0.6 50.59999 167.4] CT
0.149 GC
/Helvetica 16.667 F
GS
[1 0 0 1 0 0] CT
-10 7 moveto 
1 -1 scale
(2) t 
GR
GR
GS
[0.6 0 0 0.6 0 0] CT
0 0.447 0.741 RC
1 LJ
0.833 LW
N
91 293.612 M
93.715 329.989 L
96.43 311.033 L
99.145 293.312 L
101.86 330.132 L
104.575 311.665 L
107.29 293.316 L
110.005 329.458 L
112.72 311.592 L
115.435 293.869 L
118.15 329.964 L
120.865 310.337 L
123.58 293.546 L
126.295 330.254 L
129.01 311.23 L
131.725 293.246 L
134.44 329.379 L
137.155 311.639 L
139.87 293.512 L
142.585 330.412 L
145.3 310.825 L
148.015 292.057 L
150.73 331.021 L
153.445 311.916 L
156.16 292.695 L
158.875 329.446 L
161.59 311.746 L
164.305 293.694 L
167.02 330.146 L
169.735 311.337 L
172.45 292.308 L
175.165 330.283 L
177.88 312.261 L
180.595 292.798 L
183.31 329.168 L
186.025 311.56 L
188.74 293.381 L
191.455 330.56 L
194.17 311.651 L
196.885 291.378 L
199.6 330.343 L
202.315 312.999 L
205.03 291.802 L
207.745 329.363 L
210.46 312.077 L
213.175 292.444 L
215.89 330.504 L
218.605 312.284 L
221.32 291.193 L
224.035 330.058 L
226.75 313.426 L
229.465 292.224 L
232.18 329.074 L
234.895 312.865 L
237.61 292.066 L
240.325 329.926 L
243.04 313.175 L
245.755 291.532 L
248.47 328.631 L
251.185 314.062 L
253.9 292.725 L
256.615 327.99 L
259.33 313.468 L
262.045 292.894 L
264.76 328.669 L
267.475 313.671 L
270.19 292.09 L
272.905 327.868 L
275.62 314.105 L
278.335 292.935 L
281.05 328.16 L
283.765 313.183 L
286.48 292.815 L
289.195 328.511 L
291.91 313.829 L
294.625 292.421 L
297.34 327.465 L
300.055 314.05 L
302.77 293.173 L
305.485 327.428 L
308.2 314.022 L
310.915 292.913 L
313.63 328.024 L
316.345 313.824 L
319.06 292.517 L
321.775 327.716 L
324.49 314.181 L
327.205 292.851 L
329.92 327.659 L
332.635 313.842 L
335.35 292.735 L
338.065 328.167 L
340.78 313.815 L
343.495 292.275 L
346.21 328.286 L
348.925 313.976 L
351.64 292.58 L
354.355 327.775 L
357.07 313.661 L
359.785 292.96 L
362.5 328.195 L
365.215 313.301 L
367.93 293.046 L
370.645 328.913 L
373.36 313.155 L
376.075 291.783 L
378.79 328.834 L
381.505 314.183 L
384.22 292.312 L
386.935 328.338 L
389.65 313.412 L
392.365 292.704 L
395.08 328.968 L
397.795 312.884 L
400.51 292.117 L
403.225 328.317 L
405.94 314.028 L
408.655 292.834 L
411.37 327.916 L
414.085 313.336 L
416.8 293.102 L
419.515 328.616 L
422.23 313.036 L
424.945 292.392 L
427.66 328.454 L
430.375 313.975 L
433.09 293.01 L
435.805 327.641 L
438.52 313.792 L
441.235 292.88 L
443.95 327.52 L
446.665 314.089 L
449.38 292.76 L
452.095 327.445 L
454.81 314.706 L
457.525 292.801 L
460.24 326.614 L
462.955 314.767 L
465.67 293.237 L
468.385 326.925 L
471.1 314.561 L
473.815 292.662 L
476.53 327.305 L
479.245 315.388 L
481.96 291.866 L
484.675 326.622 L
487.39 315.468 L
490.105 292.689 L
492.82 326.769 L
495.535 315.301 L
498.25 291.91 L
500.965 326.889 L
503.68 316.62 L
506.395 291.463 L
509.11 325.928 L
511.825 316.698 L
514.54 292.286 L
517.255 326.202 L
519.97 316.056 L
522.685 291.273 L
525.4 326.392 L
528.115 317.759 L
530.83 291.37 L
533.545 324.457 L
536.26 317.375 L
538.975 292.443 L
541.69 324.91 L
544.405 317.406 L
547.12 291.09 L
549.835 325.242 L
552.55 318.97 L
555.265 291.36 L
557.98 323.732 L
560.695 318.313 L
563.41 292.513 L
566.125 324.7 L
568.84 317.88 L
571.555 291.356 L
574.27 324.09 L
576.985 319.32 L
579.7 292.024 L
582.415 323.899 L
585.13 318 L
587.845 291.697 L
590.56 325.333 L
593.275 318.161 L
595.99 290.398 L
598.705 324.9 L
601.42 319.222 L
604.135 291.542 L
606.85 324.248 L
609.565 317.756 L
612.28 291.672 L
614.995 325.369 L
617.71 318.503 L
620.425 289.941 L
623.14 324.922 L
625.855 319.378 L
628.57 291.175 L
631.285 324.828 L
634 317.671 L
S
GR
GS
[0.6 0 0 0.6 0 0] CT
1 GC
N
91 459 M
634 459 L
634 394 L
91 394 L
cp
f
GR
GS
[0.6 0 0 0.6 0 0] CT
0.149 GC
2 setlinecap
1 LJ
0.833 LW
N
91 459 M
634 459 L
S
GR
GS
[0.6 0 0 0.6 0 0] CT
0.149 GC
2 setlinecap
1 LJ
0.833 LW
N
91 394 M
634 394 L
S
GR
GS
[0.6 0 0 0.6 0 0] CT
0.149 GC
2 setlinecap
1 LJ
0.833 LW
N
91 459 M
91 453.57 L
S
GR
GS
[0.6 0 0 0.6 0 0] CT
0.149 GC
2 setlinecap
1 LJ
0.833 LW
N
145.3 459 M
145.3 453.57 L
S
GR
GS
[0.6 0 0 0.6 0 0] CT
0.149 GC
2 setlinecap
1 LJ
0.833 LW
N
199.6 459 M
199.6 453.57 L
S
GR
GS
[0.6 0 0 0.6 0 0] CT
0.149 GC
2 setlinecap
1 LJ
0.833 LW
N
253.9 459 M
253.9 453.57 L
S
GR
GS
[0.6 0 0 0.6 0 0] CT
0.149 GC
2 setlinecap
1 LJ
0.833 LW
N
308.2 459 M
308.2 453.57 L
S
GR
GS
[0.6 0 0 0.6 0 0] CT
0.149 GC
2 setlinecap
1 LJ
0.833 LW
N
362.5 459 M
362.5 453.57 L
S
GR
GS
[0.6 0 0 0.6 0 0] CT
0.149 GC
2 setlinecap
1 LJ
0.833 LW
N
416.8 459 M
416.8 453.57 L
S
GR
GS
[0.6 0 0 0.6 0 0] CT
0.149 GC
2 setlinecap
1 LJ
0.833 LW
N
471.1 459 M
471.1 453.57 L
S
GR
GS
[0.6 0 0 0.6 0 0] CT
0.149 GC
2 setlinecap
1 LJ
0.833 LW
N
525.4 459 M
525.4 453.57 L
S
GR
GS
[0.6 0 0 0.6 0 0] CT
0.149 GC
2 setlinecap
1 LJ
0.833 LW
N
579.7 459 M
579.7 453.57 L
S
GR
GS
[0.6 0 0 0.6 0 0] CT
0.149 GC
2 setlinecap
1 LJ
0.833 LW
N
634 459 M
634 453.57 L
S
GR
GS
[0.6 0 0 0.6 0 0] CT
0.149 GC
2 setlinecap
1 LJ
0.833 LW
N
91 394 M
91 399.43 L
S
GR
GS
[0.6 0 0 0.6 0 0] CT
0.149 GC
2 setlinecap
1 LJ
0.833 LW
N
145.3 394 M
145.3 399.43 L
S
GR
GS
[0.6 0 0 0.6 0 0] CT
0.149 GC
2 setlinecap
1 LJ
0.833 LW
N
199.6 394 M
199.6 399.43 L
S
GR
GS
[0.6 0 0 0.6 0 0] CT
0.149 GC
2 setlinecap
1 LJ
0.833 LW
N
253.9 394 M
253.9 399.43 L
S
GR
GS
[0.6 0 0 0.6 0 0] CT
0.149 GC
2 setlinecap
1 LJ
0.833 LW
N
308.2 394 M
308.2 399.43 L
S
GR
GS
[0.6 0 0 0.6 0 0] CT
0.149 GC
2 setlinecap
1 LJ
0.833 LW
N
362.5 394 M
362.5 399.43 L
S
GR
GS
[0.6 0 0 0.6 0 0] CT
0.149 GC
2 setlinecap
1 LJ
0.833 LW
N
416.8 394 M
416.8 399.43 L
S
GR
GS
[0.6 0 0 0.6 0 0] CT
0.149 GC
2 setlinecap
1 LJ
0.833 LW
N
471.1 394 M
471.1 399.43 L
S
GR
GS
[0.6 0 0 0.6 0 0] CT
0.149 GC
2 setlinecap
1 LJ
0.833 LW
N
525.4 394 M
525.4 399.43 L
S
GR
GS
[0.6 0 0 0.6 0 0] CT
0.149 GC
2 setlinecap
1 LJ
0.833 LW
N
579.7 394 M
579.7 399.43 L
S
GR
GS
[0.6 0 0 0.6 0 0] CT
0.149 GC
2 setlinecap
1 LJ
0.833 LW
N
634 394 M
634 399.43 L
S
GR
GS
[0.6 0 0 0.6 54.6 279.39999] CT
0.149 GC
/Helvetica 16.667 F
GS
[1 0 0 1 0 0] CT
-17.5 18 moveto 
1 -1 scale
(-100) t 
GR
GR
GS
[0.6 0 0 0.6 87.18 279.39999] CT
0.149 GC
/Helvetica 16.667 F
GS
[1 0 0 1 0 0] CT
-12.5 18 moveto 
1 -1 scale
(-80) t 
GR
GR
GS
[0.6 0 0 0.6 119.76 279.39999] CT
0.149 GC
/Helvetica 16.667 F
GS
[1 0 0 1 0 0] CT
-12.5 18 moveto 
1 -1 scale
(-60) t 
GR
GR
GS
[0.6 0 0 0.6 152.34 279.39999] CT
0.149 GC
/Helvetica 16.667 F
GS
[1 0 0 1 0 0] CT
-12.5 18 moveto 
1 -1 scale
(-40) t 
GR
GR
GS
[0.6 0 0 0.6 184.92001 279.39999] CT
0.149 GC
/Helvetica 16.667 F
GS
[1 0 0 1 0 0] CT
-12.5 18 moveto 
1 -1 scale
(-20) t 
GR
GR
GS
[0.6 0 0 0.6 217.5 279.39999] CT
0.149 GC
/Helvetica 16.667 F
GS
[1 0 0 1 0 0] CT
-5 18 moveto 
1 -1 scale
(0) t 
GR
GR
GS
[0.6 0 0 0.6 250.07999 279.39999] CT
0.149 GC
/Helvetica 16.667 F
GS
[1 0 0 1 0 0] CT
-9.5 18 moveto 
1 -1 scale
(20) t 
GR
GR
GS
[0.6 0 0 0.6 282.66 279.39999] CT
0.149 GC
/Helvetica 16.667 F
GS
[1 0 0 1 0 0] CT
-9.5 18 moveto 
1 -1 scale
(40) t 
GR
GR
GS
[0.6 0 0 0.6 315.24001 279.39999] CT
0.149 GC
/Helvetica 16.667 F
GS
[1 0 0 1 0 0] CT
-9.5 18 moveto 
1 -1 scale
(60) t 
GR
GR
GS
[0.6 0 0 0.6 347.82001 279.39999] CT
0.149 GC
/Helvetica 16.667 F
GS
[1 0 0 1 0 0] CT
-9.5 18 moveto 
1 -1 scale
(80) t 
GR
GR
GS
[0.6 0 0 0.6 380.4 279.39999] CT
0.149 GC
/Helvetica 16.667 F
GS
[1 0 0 1 0 0] CT
-14.5 18 moveto 
1 -1 scale
(100) t 
GR
GR
GS
[0.6 0 0 0.6 0 0] CT
0.149 GC
2 setlinecap
1 LJ
0.833 LW
N
91 459 M
91 394 L
S
GR
GS
[0.6 0 0 0.6 0 0] CT
0.149 GC
2 setlinecap
1 LJ
0.833 LW
N
634 459 M
634 394 L
S
GR
GS
[0.6 0 0 0.6 0 0] CT
0.149 GC
2 setlinecap
1 LJ
0.833 LW
N
91 459 M
96.43 459 L
S
GR
GS
[0.6 0 0 0.6 0 0] CT
0.149 GC
2 setlinecap
1 LJ
0.833 LW
N
91 426.5 M
96.43 426.5 L
S
GR
GS
[0.6 0 0 0.6 0 0] CT
0.149 GC
2 setlinecap
1 LJ
0.833 LW
N
91 394 M
96.43 394 L
S
GR
GS
[0.6 0 0 0.6 0 0] CT
0.149 GC
2 setlinecap
1 LJ
0.833 LW
N
634 459 M
628.57 459 L
S
GR
GS
[0.6 0 0 0.6 0 0] CT
0.149 GC
2 setlinecap
1 LJ
0.833 LW
N
634 426.5 M
628.57 426.5 L
S
GR
GS
[0.6 0 0 0.6 0 0] CT
0.149 GC
2 setlinecap
1 LJ
0.833 LW
N
634 394 M
628.57 394 L
S
GR
GS
[0.6 0 0 0.6 50.59999 275.4] CT
0.149 GC
/Helvetica 16.667 F
GS
[1 0 0 1 0 0] CT
-16 7 moveto 
1 -1 scale
(-1) t 
GR
GR
GS
[0.6 0 0 0.6 50.59999 255.9] CT
0.149 GC
/Helvetica 16.667 F
GS
[1 0 0 1 0 0] CT
-10 7 moveto 
1 -1 scale
(0) t 
GR
GR
GS
[0.6 0 0 0.6 50.59999 236.4] CT
0.149 GC
/Helvetica 16.667 F
GS
[1 0 0 1 0 0] CT
-10 7 moveto 
1 -1 scale
(1) t 
GR
GR
GS
[0.6 0 0 0.6 0 0] CT
0 0.447 0.741 RC
1 LJ
0.833 LW
N
91 412.651 M
93.715 440.944 L
96.43 411.773 L
99.145 441.296 L
101.86 412.234 L
104.575 441.323 L
107.29 411.925 L
110.005 440.519 L
112.72 413.229 L
115.435 439.991 L
118.15 413.777 L
120.865 437.405 L
123.58 416.067 L
126.295 436.573 L
129.01 418.097 L
131.725 432.542 L
134.44 421.839 L
137.155 429.759 L
139.87 425.551 L
142.585 426.835 L
145.3 425.984 L
148.015 424.965 L
150.73 429.467 L
153.445 423.339 L
156.16 430.917 L
158.875 419.937 L
161.59 434.896 L
164.305 418.112 L
167.02 436.882 L
169.735 414.239 L
172.45 439.243 L
175.165 413.396 L
177.88 441.062 L
180.595 411.369 L
183.31 440.978 L
186.025 411.088 L
188.74 442.688 L
191.455 411.504 L
194.17 440.667 L
196.885 411.091 L
199.6 442.126 L
202.315 412.111 L
205.03 440.453 L
207.745 411.759 L
210.46 439.387 L
213.175 415.11 L
215.89 438.066 L
218.605 415.232 L
221.32 435.607 L
224.035 418.781 L
226.75 433.854 L
229.465 421.193 L
232.18 429.956 L
234.895 423.709 L
237.61 428.133 L
240.325 426.985 L
243.04 424.497 L
245.755 429.305 L
248.47 421.373 L
251.185 434 L
253.9 417.905 L
256.615 436.125 L
259.33 415.146 L
262.045 439.342 L
264.76 413.466 L
267.475 440.478 L
270.19 410.459 L
272.905 442.784 L
275.62 409.763 L
278.335 444.439 L
281.05 408.508 L
283.765 444.02 L
286.48 409.091 L
289.195 444.129 L
291.91 409.825 L
294.625 442.244 L
297.34 410.58 L
300.055 441.637 L
302.77 412.441 L
305.485 439.731 L
308.2 414.115 L
310.915 438.033 L
313.63 416.931 L
316.345 434.396 L
319.06 419.478 L
321.775 431.875 L
324.49 422.847 L
327.205 428.832 L
329.92 426.15 L
332.635 424.4 L
335.35 430.388 L
338.065 421.071 L
340.78 433.259 L
343.495 418.176 L
346.21 436.268 L
348.925 415.683 L
351.64 438.661 L
354.355 412.695 L
357.07 441.383 L
359.785 410.817 L
362.5 443.69 L
365.215 408.285 L
367.93 446.252 L
370.645 406.344 L
373.36 446.669 L
376.075 405.187 L
378.79 448.065 L
381.505 405.596 L
384.22 447.818 L
386.935 405.1 L
389.65 446.831 L
392.365 408.188 L
395.08 443.339 L
397.795 410.725 L
400.51 439.638 L
403.225 414.555 L
405.94 437.535 L
408.655 417.819 L
411.37 433.006 L
414.085 421.458 L
416.8 430.622 L
419.515 424.809 L
422.23 425.917 L
424.945 428.392 L
427.66 422.632 L
430.375 433.152 L
433.09 418.526 L
435.805 435.795 L
438.52 415.393 L
441.235 438.954 L
443.95 412.55 L
446.665 441.609 L
449.38 409.892 L
452.095 444.367 L
454.81 408.306 L
457.525 445.111 L
460.24 406.847 L
462.955 446.577 L
465.67 406.524 L
468.385 446.885 L
471.1 406.125 L
473.815 446.521 L
476.53 407.934 L
479.245 444.75 L
481.96 408.509 L
484.675 442.507 L
487.39 412.18 L
490.105 439.934 L
492.82 414.932 L
495.535 436.236 L
498.25 417.98 L
500.965 434.346 L
503.68 420.95 L
506.395 429.969 L
509.11 424.001 L
511.825 427.672 L
514.54 427.951 L
517.255 423.583 L
519.97 430.055 L
522.685 420.059 L
525.4 435.152 L
528.115 417.159 L
530.83 436.93 L
533.545 412.945 L
536.26 441.231 L
538.975 410.707 L
541.69 443.7 L
544.405 407.231 L
547.12 445.75 L
549.835 407.37 L
552.55 446.92 L
555.265 405.795 L
557.98 445.8 L
560.695 407.091 L
563.41 446.768 L
566.125 407.198 L
568.84 444.815 L
571.555 407.402 L
574.27 444.804 L
576.985 409.932 L
579.7 442.803 L
582.415 411.473 L
585.13 439.006 L
587.845 415.799 L
590.56 436.05 L
593.275 418.306 L
595.99 431.661 L
598.705 422.973 L
601.42 428.914 L
604.135 427.374 L
606.85 422.106 L
609.565 432.227 L
612.28 418.9 L
614.995 437.212 L
617.71 413.368 L
620.425 439.898 L
623.14 410.681 L
625.855 444.752 L
628.57 408.17 L
631.285 445.398 L
634 405.266 L
S
GR
%%Trailer
%%Pages: 1
%%EOF
