%!PS-Adobe-3.0 EPSF-3.0
%%BoundingBox: 34 19 388 295
%%HiResBoundingBox: 34.170 19.770 387.888 294.486
%%Creator: (MATLAB, The Mathworks, Inc. Version 9.0.0.341360 \(R2016a\). Operating System: Windows 8)
%%Title: (C:/Users/matti/Documents/Universita/anno_4/Digital Transmission/dt-homeworks/HW1/Latex/img/correlation.eps)
%%CreationDate: 2017-04-03T13:24:54
%%Pages: (atend)
%%LanguageLevel: 3
%%EndComments
%%BeginProlog
%%BeginResource: procset (Apache XML Graphics Std ProcSet) 1.2 0
%%Version: 1.2 0
%%Copyright: (Copyright 2001-2003,2010 The Apache Software Foundation. License terms: http://www.apache.org/licenses/LICENSE-2.0)
/bd{bind def}bind def
/ld{load def}bd
/GR/grestore ld
/M/moveto ld
/LJ/setlinejoin ld
/C/curveto ld
/f/fill ld
/LW/setlinewidth ld
/GC/setgray ld
/t/show ld
/N/newpath ld
/CT/concat ld
/cp/closepath ld
/S/stroke ld
/L/lineto ld
/CC/setcmykcolor ld
/A/ashow ld
/GS/gsave ld
/RC/setrgbcolor ld
/RM/rmoveto ld
/ML/setmiterlimit ld
/re {4 2 roll M
1 index 0 rlineto
0 exch rlineto
neg 0 rlineto
cp } bd
/_ctm matrix def
/_tm matrix def
/BT { _ctm currentmatrix pop matrix _tm copy pop 0 0 moveto } bd
/ET { _ctm setmatrix } bd
/iTm { _ctm setmatrix _tm concat } bd
/Tm { _tm astore pop iTm 0 0 moveto } bd
/ux 0.0 def
/uy 0.0 def
/F {
  /Tp exch def
  /Tf exch def
  Tf findfont Tp scalefont setfont
  /cf Tf def  /cs Tp def
} bd
/ULS {currentpoint /uy exch def /ux exch def} bd
/ULE {
  /Tcx currentpoint pop def
  gsave
  newpath
  cf findfont cs scalefont dup
  /FontMatrix get 0 get /Ts exch def /FontInfo get dup
  /UnderlinePosition get Ts mul /To exch def
  /UnderlineThickness get Ts mul /Tt exch def
  ux uy To add moveto  Tcx uy To add lineto
  Tt setlinewidth stroke
  grestore
} bd
/OLE {
  /Tcx currentpoint pop def
  gsave
  newpath
  cf findfont cs scalefont dup
  /FontMatrix get 0 get /Ts exch def /FontInfo get dup
  /UnderlinePosition get Ts mul /To exch def
  /UnderlineThickness get Ts mul /Tt exch def
  ux uy To add cs add moveto Tcx uy To add cs add lineto
  Tt setlinewidth stroke
  grestore
} bd
/SOE {
  /Tcx currentpoint pop def
  gsave
  newpath
  cf findfont cs scalefont dup
  /FontMatrix get 0 get /Ts exch def /FontInfo get dup
  /UnderlinePosition get Ts mul /To exch def
  /UnderlineThickness get Ts mul /Tt exch def
  ux uy To add cs 10 mul 26 idiv add moveto Tcx uy To add cs 10 mul 26 idiv add lineto
  Tt setlinewidth stroke
  grestore
} bd
/QT {
/Y22 exch store
/X22 exch store
/Y21 exch store
/X21 exch store
currentpoint
/Y21 load 2 mul add 3 div exch
/X21 load 2 mul add 3 div exch
/X21 load 2 mul /X22 load add 3 div
/Y21 load 2 mul /Y22 load add 3 div
/X22 load /Y22 load curveto
} bd
/SSPD {
dup length /d exch dict def
{
/v exch def
/k exch def
currentpagedevice k known {
/cpdv currentpagedevice k get def
v cpdv ne {
/upd false def
/nullv v type /nulltype eq def
/nullcpdv cpdv type /nulltype eq def
nullv nullcpdv or
{
/upd true def
} {
/sametype v type cpdv type eq def
sametype {
v type /arraytype eq {
/vlen v length def
/cpdvlen cpdv length def
vlen cpdvlen eq {
0 1 vlen 1 sub {
/i exch def
/obj v i get def
/cpdobj cpdv i get def
obj cpdobj ne {
/upd true def
exit
} if
} for
} {
/upd true def
} ifelse
} {
v type /dicttype eq {
v {
/dv exch def
/dk exch def
/cpddv cpdv dk get def
dv cpddv ne {
/upd true def
exit
} if
} forall
} {
/upd true def
} ifelse
} ifelse
} if
} ifelse
upd true eq {
d k v put
} if
} if
} if
} forall
d length 0 gt {
d setpagedevice
} if
} bd
%%EndResource
%%BeginResource: procset (Apache XML Graphics EPS ProcSet) 1.0 0
%%Version: 1.0 0
%%Copyright: (Copyright 2002-2003 The Apache Software Foundation. License terms: http://www.apache.org/licenses/LICENSE-2.0)
/BeginEPSF { %def
/b4_Inc_state save def         % Save state for cleanup
/dict_count countdictstack def % Count objects on dict stack
/op_count count 1 sub def      % Count objects on operand stack
userdict begin                 % Push userdict on dict stack
/showpage { } def              % Redefine showpage, { } = null proc
0 setgray 0 setlinecap         % Prepare graphics state
1 setlinewidth 0 setlinejoin
10 setmiterlimit [ ] 0 setdash newpath
/languagelevel where           % If level not equal to 1 then
{pop languagelevel             % set strokeadjust and
1 ne                           % overprint to their defaults.
{false setstrokeadjust false setoverprint
} if
} if
} bd
/EndEPSF { %def
count op_count sub {pop} repeat            % Clean up stacks
countdictstack dict_count sub {end} repeat
b4_Inc_state restore
} bd
%%EndResource
%FOPBeginFontDict
%%IncludeResource: font Courier-Bold
%%IncludeResource: font Helvetica
%%IncludeResource: font Courier-BoldOblique
%%IncludeResource: font Courier-Oblique
%%IncludeResource: font Times-Roman
%%IncludeResource: font Helvetica-BoldOblique
%%IncludeResource: font Helvetica-Bold
%%IncludeResource: font Helvetica-Oblique
%%IncludeResource: font Times-BoldItalic
%%IncludeResource: font Courier
%%IncludeResource: font Times-Italic
%%IncludeResource: font Times-Bold
%%IncludeResource: font Symbol
%%IncludeResource: font ZapfDingbats
%FOPEndFontDict
%%BeginResource: encoding WinAnsiEncoding
/WinAnsiEncoding [
/.notdef /.notdef /.notdef /.notdef /.notdef
/.notdef /.notdef /.notdef /.notdef /.notdef
/.notdef /.notdef /.notdef /.notdef /.notdef
/.notdef /.notdef /.notdef /.notdef /.notdef
/.notdef /.notdef /.notdef /.notdef /.notdef
/.notdef /.notdef /.notdef /.notdef /.notdef
/.notdef /.notdef /space /exclam /quotedbl
/numbersign /dollar /percent /ampersand /quotesingle
/parenleft /parenright /asterisk /plus /comma
/hyphen /period /slash /zero /one
/two /three /four /five /six
/seven /eight /nine /colon /semicolon
/less /equal /greater /question /at
/A /B /C /D /E
/F /G /H /I /J
/K /L /M /N /O
/P /Q /R /S /T
/U /V /W /X /Y
/Z /bracketleft /backslash /bracketright /asciicircum
/underscore /quoteleft /a /b /c
/d /e /f /g /h
/i /j /k /l /m
/n /o /p /q /r
/s /t /u /v /w
/x /y /z /braceleft /bar
/braceright /asciitilde /bullet /Euro /bullet
/quotesinglbase /florin /quotedblbase /ellipsis /dagger
/daggerdbl /circumflex /perthousand /Scaron /guilsinglleft
/OE /bullet /Zcaron /bullet /bullet
/quoteleft /quoteright /quotedblleft /quotedblright /bullet
/endash /emdash /asciitilde /trademark /scaron
/guilsinglright /oe /bullet /zcaron /Ydieresis
/space /exclamdown /cent /sterling /currency
/yen /brokenbar /section /dieresis /copyright
/ordfeminine /guillemotleft /logicalnot /sfthyphen /registered
/macron /degree /plusminus /twosuperior /threesuperior
/acute /mu /paragraph /middot /cedilla
/onesuperior /ordmasculine /guillemotright /onequarter /onehalf
/threequarters /questiondown /Agrave /Aacute /Acircumflex
/Atilde /Adieresis /Aring /AE /Ccedilla
/Egrave /Eacute /Ecircumflex /Edieresis /Igrave
/Iacute /Icircumflex /Idieresis /Eth /Ntilde
/Ograve /Oacute /Ocircumflex /Otilde /Odieresis
/multiply /Oslash /Ugrave /Uacute /Ucircumflex
/Udieresis /Yacute /Thorn /germandbls /agrave
/aacute /acircumflex /atilde /adieresis /aring
/ae /ccedilla /egrave /eacute /ecircumflex
/edieresis /igrave /iacute /icircumflex /idieresis
/eth /ntilde /ograve /oacute /ocircumflex
/otilde /odieresis /divide /oslash /ugrave
/uacute /ucircumflex /udieresis /yacute /thorn
/ydieresis
] def
%%EndResource
%FOPBeginFontReencode
/Courier-Bold findfont
dup length dict begin
  {1 index /FID ne {def} {pop pop} ifelse} forall
  /Encoding WinAnsiEncoding def
  currentdict
end
/Courier-Bold exch definefont pop
/Helvetica findfont
dup length dict begin
  {1 index /FID ne {def} {pop pop} ifelse} forall
  /Encoding WinAnsiEncoding def
  currentdict
end
/Helvetica exch definefont pop
/Courier-BoldOblique findfont
dup length dict begin
  {1 index /FID ne {def} {pop pop} ifelse} forall
  /Encoding WinAnsiEncoding def
  currentdict
end
/Courier-BoldOblique exch definefont pop
/Courier-Oblique findfont
dup length dict begin
  {1 index /FID ne {def} {pop pop} ifelse} forall
  /Encoding WinAnsiEncoding def
  currentdict
end
/Courier-Oblique exch definefont pop
/Times-Roman findfont
dup length dict begin
  {1 index /FID ne {def} {pop pop} ifelse} forall
  /Encoding WinAnsiEncoding def
  currentdict
end
/Times-Roman exch definefont pop
/Helvetica-BoldOblique findfont
dup length dict begin
  {1 index /FID ne {def} {pop pop} ifelse} forall
  /Encoding WinAnsiEncoding def
  currentdict
end
/Helvetica-BoldOblique exch definefont pop
/Helvetica-Bold findfont
dup length dict begin
  {1 index /FID ne {def} {pop pop} ifelse} forall
  /Encoding WinAnsiEncoding def
  currentdict
end
/Helvetica-Bold exch definefont pop
/Helvetica-Oblique findfont
dup length dict begin
  {1 index /FID ne {def} {pop pop} ifelse} forall
  /Encoding WinAnsiEncoding def
  currentdict
end
/Helvetica-Oblique exch definefont pop
/Times-BoldItalic findfont
dup length dict begin
  {1 index /FID ne {def} {pop pop} ifelse} forall
  /Encoding WinAnsiEncoding def
  currentdict
end
/Times-BoldItalic exch definefont pop
/Courier findfont
dup length dict begin
  {1 index /FID ne {def} {pop pop} ifelse} forall
  /Encoding WinAnsiEncoding def
  currentdict
end
/Courier exch definefont pop
/Times-Italic findfont
dup length dict begin
  {1 index /FID ne {def} {pop pop} ifelse} forall
  /Encoding WinAnsiEncoding def
  currentdict
end
/Times-Italic exch definefont pop
/Times-Bold findfont
dup length dict begin
  {1 index /FID ne {def} {pop pop} ifelse} forall
  /Encoding WinAnsiEncoding def
  currentdict
end
/Times-Bold exch definefont pop
%FOPEndFontReencode
%%EndProlog
%%Page: 1 1
%%PageBoundingBox: 0 0 420 315
%%BeginPageSetup
[1 0 0 -1 0 315] CT
%%EndPageSetup
GS
[0.6 0 0 0.6 0 0] CT
1 GC
N
0 0 700 525 re
f
GR
GS
[0.6 0 0 0.6 0 0] CT
1 GC
N
0 0 700 525 re
f
GR
GS
[0.6 0 0 0.6 0 0] CT
1 GC
N
91 467 M
634 467 L
634 39 L
91 39 L
cp
f
GR
GS
[0.6 0 0 0.6 0 0] CT
0.149 GC
2 setlinecap
1 LJ
0.833 LW
N
91 467 M
634 467 L
S
GR
GS
[0.6 0 0 0.6 0 0] CT
0.149 GC
2 setlinecap
1 LJ
0.833 LW
N
91 39 M
634 39 L
S
GR
GS
[0.6 0 0 0.6 0 0] CT
0.149 GC
2 setlinecap
1 LJ
0.833 LW
N
91 467 M
91 461.57 L
S
GR
GS
[0.6 0 0 0.6 0 0] CT
0.149 GC
2 setlinecap
1 LJ
0.833 LW
N
158.875 467 M
158.875 461.57 L
S
GR
GS
[0.6 0 0 0.6 0 0] CT
0.149 GC
2 setlinecap
1 LJ
0.833 LW
N
226.75 467 M
226.75 461.57 L
S
GR
GS
[0.6 0 0 0.6 0 0] CT
0.149 GC
2 setlinecap
1 LJ
0.833 LW
N
294.625 467 M
294.625 461.57 L
S
GR
GS
[0.6 0 0 0.6 0 0] CT
0.149 GC
2 setlinecap
1 LJ
0.833 LW
N
362.5 467 M
362.5 461.57 L
S
GR
GS
[0.6 0 0 0.6 0 0] CT
0.149 GC
2 setlinecap
1 LJ
0.833 LW
N
430.375 467 M
430.375 461.57 L
S
GR
GS
[0.6 0 0 0.6 0 0] CT
0.149 GC
2 setlinecap
1 LJ
0.833 LW
N
498.25 467 M
498.25 461.57 L
S
GR
GS
[0.6 0 0 0.6 0 0] CT
0.149 GC
2 setlinecap
1 LJ
0.833 LW
N
566.125 467 M
566.125 461.57 L
S
GR
GS
[0.6 0 0 0.6 0 0] CT
0.149 GC
2 setlinecap
1 LJ
0.833 LW
N
634 467 M
634 461.57 L
S
GR
GS
[0.6 0 0 0.6 0 0] CT
0.149 GC
2 setlinecap
1 LJ
0.833 LW
N
91 39 M
91 44.43 L
S
GR
GS
[0.6 0 0 0.6 0 0] CT
0.149 GC
2 setlinecap
1 LJ
0.833 LW
N
158.875 39 M
158.875 44.43 L
S
GR
GS
[0.6 0 0 0.6 0 0] CT
0.149 GC
2 setlinecap
1 LJ
0.833 LW
N
226.75 39 M
226.75 44.43 L
S
GR
GS
[0.6 0 0 0.6 0 0] CT
0.149 GC
2 setlinecap
1 LJ
0.833 LW
N
294.625 39 M
294.625 44.43 L
S
GR
GS
[0.6 0 0 0.6 0 0] CT
0.149 GC
2 setlinecap
1 LJ
0.833 LW
N
362.5 39 M
362.5 44.43 L
S
GR
GS
[0.6 0 0 0.6 0 0] CT
0.149 GC
2 setlinecap
1 LJ
0.833 LW
N
430.375 39 M
430.375 44.43 L
S
GR
GS
[0.6 0 0 0.6 0 0] CT
0.149 GC
2 setlinecap
1 LJ
0.833 LW
N
498.25 39 M
498.25 44.43 L
S
GR
GS
[0.6 0 0 0.6 0 0] CT
0.149 GC
2 setlinecap
1 LJ
0.833 LW
N
566.125 39 M
566.125 44.43 L
S
GR
GS
[0.6 0 0 0.6 0 0] CT
0.149 GC
2 setlinecap
1 LJ
0.833 LW
N
634 39 M
634 44.43 L
S
GR
GS
[0.6 0 0 0.6 54.6 284.19999] CT
0.149 GC
/Helvetica 16.667 F
GS
[1 0 0 1 0 0] CT
-17.5 18 moveto 
1 -1 scale
(-200) t 
GR
GR
GS
[0.6 0 0 0.6 95.325 284.19999] CT
0.149 GC
/Helvetica 16.667 F
GS
[1 0 0 1 0 0] CT
-17.5 18 moveto 
1 -1 scale
(-150) t 
GR
GR
GS
[0.6 0 0 0.6 136.05 284.19999] CT
0.149 GC
/Helvetica 16.667 F
GS
[1 0 0 1 0 0] CT
-17.5 18 moveto 
1 -1 scale
(-100) t 
GR
GR
GS
[0.6 0 0 0.6 176.775 284.19999] CT
0.149 GC
/Helvetica 16.667 F
GS
[1 0 0 1 0 0] CT
-12.5 18 moveto 
1 -1 scale
(-50) t 
GR
GR
GS
[0.6 0 0 0.6 217.5 284.19999] CT
0.149 GC
/Helvetica 16.667 F
GS
[1 0 0 1 0 0] CT
-5 18 moveto 
1 -1 scale
(0) t 
GR
GR
GS
[0.6 0 0 0.6 258.225 284.19999] CT
0.149 GC
/Helvetica 16.667 F
GS
[1 0 0 1 0 0] CT
-9.5 18 moveto 
1 -1 scale
(50) t 
GR
GR
GS
[0.6 0 0 0.6 298.95 284.19999] CT
0.149 GC
/Helvetica 16.667 F
GS
[1 0 0 1 0 0] CT
-14.5 18 moveto 
1 -1 scale
(100) t 
GR
GR
GS
[0.6 0 0 0.6 339.675 284.19999] CT
0.149 GC
/Helvetica 16.667 F
GS
[1 0 0 1 0 0] CT
-14.5 18 moveto 
1 -1 scale
(150) t 
GR
GR
GS
[0.6 0 0 0.6 380.4 284.19999] CT
0.149 GC
/Helvetica 16.667 F
GS
[1 0 0 1 0 0] CT
-14.5 18 moveto 
1 -1 scale
(200) t 
GR
GR
GS
[0.6 0 0 0.6 0 0] CT
0.149 GC
2 setlinecap
1 LJ
0.833 LW
N
91 467 M
91 39 L
S
GR
GS
[0.6 0 0 0.6 0 0] CT
0.149 GC
2 setlinecap
1 LJ
0.833 LW
N
634 467 M
634 39 L
S
GR
GS
[0.6 0 0 0.6 0 0] CT
0.149 GC
2 setlinecap
1 LJ
0.833 LW
N
91 467 M
96.43 467 L
S
GR
GS
[0.6 0 0 0.6 0 0] CT
0.149 GC
2 setlinecap
1 LJ
0.833 LW
N
91 424.2 M
96.43 424.2 L
S
GR
GS
[0.6 0 0 0.6 0 0] CT
0.149 GC
2 setlinecap
1 LJ
0.833 LW
N
91 381.4 M
96.43 381.4 L
S
GR
GS
[0.6 0 0 0.6 0 0] CT
0.149 GC
2 setlinecap
1 LJ
0.833 LW
N
91 338.6 M
96.43 338.6 L
S
GR
GS
[0.6 0 0 0.6 0 0] CT
0.149 GC
2 setlinecap
1 LJ
0.833 LW
N
91 295.8 M
96.43 295.8 L
S
GR
GS
[0.6 0 0 0.6 0 0] CT
0.149 GC
2 setlinecap
1 LJ
0.833 LW
N
91 253 M
96.43 253 L
S
GR
GS
[0.6 0 0 0.6 0 0] CT
0.149 GC
2 setlinecap
1 LJ
0.833 LW
N
91 210.2 M
96.43 210.2 L
S
GR
GS
[0.6 0 0 0.6 0 0] CT
0.149 GC
2 setlinecap
1 LJ
0.833 LW
N
91 167.4 M
96.43 167.4 L
S
GR
GS
[0.6 0 0 0.6 0 0] CT
0.149 GC
2 setlinecap
1 LJ
0.833 LW
N
91 124.6 M
96.43 124.6 L
S
GR
GS
[0.6 0 0 0.6 0 0] CT
0.149 GC
2 setlinecap
1 LJ
0.833 LW
N
91 81.8 M
96.43 81.8 L
S
GR
GS
[0.6 0 0 0.6 0 0] CT
0.149 GC
2 setlinecap
1 LJ
0.833 LW
N
91 39 M
96.43 39 L
S
GR
GS
[0.6 0 0 0.6 0 0] CT
0.149 GC
2 setlinecap
1 LJ
0.833 LW
N
634 467 M
628.57 467 L
S
GR
GS
[0.6 0 0 0.6 0 0] CT
0.149 GC
2 setlinecap
1 LJ
0.833 LW
N
634 424.2 M
628.57 424.2 L
S
GR
GS
[0.6 0 0 0.6 0 0] CT
0.149 GC
2 setlinecap
1 LJ
0.833 LW
N
634 381.4 M
628.57 381.4 L
S
GR
GS
[0.6 0 0 0.6 0 0] CT
0.149 GC
2 setlinecap
1 LJ
0.833 LW
N
634 338.6 M
628.57 338.6 L
S
GR
GS
[0.6 0 0 0.6 0 0] CT
0.149 GC
2 setlinecap
1 LJ
0.833 LW
N
634 295.8 M
628.57 295.8 L
S
GR
GS
[0.6 0 0 0.6 0 0] CT
0.149 GC
2 setlinecap
1 LJ
0.833 LW
N
634 253 M
628.57 253 L
S
GR
GS
[0.6 0 0 0.6 0 0] CT
0.149 GC
2 setlinecap
1 LJ
0.833 LW
N
634 210.2 M
628.57 210.2 L
S
GR
GS
[0.6 0 0 0.6 0 0] CT
0.149 GC
2 setlinecap
1 LJ
0.833 LW
N
634 167.4 M
628.57 167.4 L
S
GR
GS
[0.6 0 0 0.6 0 0] CT
0.149 GC
2 setlinecap
1 LJ
0.833 LW
N
634 124.6 M
628.57 124.6 L
S
GR
GS
[0.6 0 0 0.6 0 0] CT
0.149 GC
2 setlinecap
1 LJ
0.833 LW
N
634 81.8 M
628.57 81.8 L
S
GR
GS
[0.6 0 0 0.6 0 0] CT
0.149 GC
2 setlinecap
1 LJ
0.833 LW
N
634 39 M
628.57 39 L
S
GR
GS
[0.6 0 0 0.6 50.59999 280.2] CT
0.149 GC
/Helvetica 16.667 F
GS
[1 0 0 1 0 0] CT
-19 7 moveto 
1 -1 scale
(60) t 
GR
GR
GS
[0.6 0 0 0.6 50.59999 254.52001] CT
0.149 GC
/Helvetica 16.667 F
GS
[1 0 0 1 0 0] CT
-19 7 moveto 
1 -1 scale
(70) t 
GR
GR
GS
[0.6 0 0 0.6 50.59999 228.84] CT
0.149 GC
/Helvetica 16.667 F
GS
[1 0 0 1 0 0] CT
-19 7 moveto 
1 -1 scale
(80) t 
GR
GR
GS
[0.6 0 0 0.6 50.59999 203.16] CT
0.149 GC
/Helvetica 16.667 F
GS
[1 0 0 1 0 0] CT
-19 7 moveto 
1 -1 scale
(90) t 
GR
GR
GS
[0.6 0 0 0.6 50.59999 177.47999] CT
0.149 GC
/Helvetica 16.667 F
GS
[1 0 0 1 0 0] CT
-29 7 moveto 
1 -1 scale
(100) t 
GR
GR
GS
[0.6 0 0 0.6 50.59999 151.8] CT
0.149 GC
/Helvetica 16.667 F
GS
[1 0 0 1 0 0] CT
-29 7 moveto 
1 -1 scale
(110) t 
GR
GR
GS
[0.6 0 0 0.6 50.59999 126.12] CT
0.149 GC
/Helvetica 16.667 F
GS
[1 0 0 1 0 0] CT
-29 7 moveto 
1 -1 scale
(120) t 
GR
GR
GS
[0.6 0 0 0.6 50.59999 100.44] CT
0.149 GC
/Helvetica 16.667 F
GS
[1 0 0 1 0 0] CT
-29 7 moveto 
1 -1 scale
(130) t 
GR
GR
GS
[0.6 0 0 0.6 50.59999 74.76] CT
0.149 GC
/Helvetica 16.667 F
GS
[1 0 0 1 0 0] CT
-29 7 moveto 
1 -1 scale
(140) t 
GR
GR
GS
[0.6 0 0 0.6 50.59999 49.08] CT
0.149 GC
/Helvetica 16.667 F
GS
[1 0 0 1 0 0] CT
-29 7 moveto 
1 -1 scale
(150) t 
GR
GR
GS
[0.6 0 0 0.6 50.59999 23.4] CT
0.149 GC
/Helvetica 16.667 F
GS
[1 0 0 1 0 0] CT
-29 7 moveto 
1 -1 scale
(160) t 
GR
GR
GS
[0.6 0 0 0.6 0 0] CT
0 0.447 0.741 RC
1 LJ
0.833 LW
N
91 315.79 M
92.357 301.845 L
93.715 304.382 L
95.073 284.82 L
96.43 273.173 L
97.787 265.695 L
99.145 261.126 L
100.503 259.535 L
101.86 272.392 L
103.217 271.66 L
104.575 264.934 L
105.933 258.702 L
107.29 244.005 L
108.647 247.989 L
110.005 253.115 L
111.363 261.157 L
112.72 255.985 L
114.077 243.667 L
115.435 255.741 L
116.793 244.273 L
118.15 247.198 L
119.507 249.207 L
120.865 244.84 L
122.223 257.3 L
123.58 245.183 L
124.938 264.731 L
126.295 268.588 L
127.652 260.051 L
129.01 278.294 L
130.367 251.494 L
131.725 255.593 L
133.083 261.71 L
134.44 267.287 L
135.798 281.811 L
137.155 285.971 L
138.512 294.707 L
139.87 306.247 L
141.227 291.103 L
142.585 297.494 L
143.943 294.828 L
145.3 301.62 L
146.658 310.518 L
148.015 328.845 L
149.372 334.381 L
150.73 328.435 L
152.087 341.641 L
153.445 339.678 L
154.803 345.995 L
156.16 341.6 L
157.518 355.712 L
158.875 363.485 L
160.232 381.483 L
161.59 376.621 L
162.947 374.959 L
164.305 376.79 L
165.663 384.224 L
167.02 390.58 L
168.378 375.348 L
169.735 391.624 L
171.092 396.23 L
172.45 415.221 L
173.807 412.997 L
175.165 414.514 L
176.523 403.593 L
177.88 403.719 L
179.238 394.666 L
180.595 397.224 L
181.952 398.522 L
183.31 400.286 L
184.667 410.638 L
186.025 400.457 L
187.383 400.614 L
188.74 389.45 L
190.098 392.38 L
191.455 391.379 L
192.813 372.676 L
194.17 370.97 L
195.527 364.966 L
196.885 378.422 L
198.242 368.445 L
199.6 364.156 L
200.958 344.927 L
202.315 344.677 L
203.673 345.786 L
205.03 327.244 L
206.387 316.263 L
207.745 330.541 L
209.102 314.983 L
210.46 320.196 L
211.818 320.913 L
213.175 302.356 L
214.533 302.509 L
215.89 290.505 L
217.247 280.088 L
218.605 273.819 L
219.962 272.162 L
221.32 267.88 L
222.678 273.535 L
224.035 263.729 L
225.393 269.143 L
226.75 253.803 L
228.107 251.799 L
229.465 233.981 L
230.822 235.068 L
232.18 242.289 L
233.538 247.634 L
234.895 255.759 L
236.253 241.743 L
237.61 243.795 L
238.967 240.354 L
240.325 235.864 L
241.682 229.902 L
243.04 228.744 L
244.398 229.591 L
245.755 254.396 L
247.113 251.118 L
248.47 253.976 L
249.827 248.711 L
251.185 253.906 L
252.542 248.566 L
253.9 243.288 L
255.258 254.279 L
256.615 263.651 L
257.973 274.009 L
259.33 264.066 L
260.688 283.77 L
262.045 269.731 L
263.402 285.8 L
264.76 284.327 L
266.117 295.466 L
267.475 306.38 L
268.832 302.516 L
270.19 313.45 L
271.547 318.867 L
272.905 326.404 L
274.263 338.889 L
275.62 333.014 L
276.978 338.411 L
278.335 346.237 L
279.693 343.183 L
281.05 366.37 L
282.408 371.196 L
283.765 374.229 L
285.122 381.438 L
286.48 380.416 L
287.837 382.973 L
289.195 381.219 L
290.552 397.115 L
291.91 401.739 L
293.267 398.333 L
294.625 406.072 L
295.983 401.327 L
297.34 415.687 L
298.698 425.109 L
300.055 409.263 L
301.413 409.98 L
302.77 392.282 L
304.128 401.579 L
305.485 406.409 L
306.842 412.413 L
308.2 422.289 L
309.557 401.897 L
310.915 404.739 L
312.272 398.044 L
313.63 385.282 L
314.987 378.53 L
316.345 375.09 L
317.703 374.579 L
319.06 374.813 L
320.418 372.754 L
321.775 364.663 L
323.133 367.83 L
324.49 348.51 L
325.848 338.443 L
327.205 327.902 L
328.563 331.856 L
329.92 322.242 L
331.277 318.437 L
332.635 317.23 L
333.992 323.013 L
335.35 297.852 L
336.707 288.749 L
338.065 276.6 L
339.422 278.471 L
340.78 280.297 L
342.138 274.546 L
343.495 279.551 L
344.853 263.534 L
346.21 260.898 L
347.568 251.819 L
348.925 236.094 L
350.283 236.811 L
351.64 241.094 L
352.997 239.418 L
354.355 245.09 L
355.712 237.858 L
357.07 253.46 L
358.427 250.543 L
359.785 233.992 L
361.142 226.594 L
362.5 53.456 L
363.858 226.594 L
365.215 233.992 L
366.573 250.543 L
367.93 253.46 L
369.288 237.858 L
370.645 245.09 L
372.003 239.418 L
373.36 241.094 L
374.717 236.811 L
376.075 236.094 L
377.432 251.819 L
378.79 260.898 L
380.147 263.534 L
381.505 279.551 L
382.862 274.546 L
384.22 280.297 L
385.578 278.471 L
386.935 276.6 L
388.293 288.749 L
389.65 297.852 L
391.008 323.013 L
392.365 317.23 L
393.723 318.437 L
395.08 322.242 L
396.438 331.856 L
397.795 327.902 L
399.152 338.443 L
400.51 348.51 L
401.867 367.83 L
403.225 364.663 L
404.582 372.754 L
405.94 374.813 L
407.297 374.579 L
408.655 375.09 L
410.013 378.53 L
411.37 385.282 L
412.728 398.044 L
414.085 404.739 L
415.443 401.897 L
416.8 422.289 L
418.158 412.413 L
419.515 406.409 L
420.872 401.579 L
422.23 392.282 L
423.587 409.98 L
424.945 409.263 L
426.302 425.109 L
427.66 415.687 L
429.017 401.327 L
430.375 406.072 L
431.733 398.333 L
433.09 401.739 L
434.448 397.115 L
435.805 381.219 L
437.163 382.973 L
438.52 380.416 L
439.878 381.438 L
441.235 374.229 L
442.592 371.196 L
443.95 366.37 L
445.307 343.183 L
446.665 346.237 L
448.022 338.411 L
449.38 333.014 L
450.737 338.889 L
452.095 326.404 L
453.453 318.867 L
454.81 313.45 L
456.168 302.516 L
457.525 306.38 L
458.883 295.466 L
460.24 284.327 L
461.598 285.8 L
462.955 269.731 L
464.313 283.77 L
465.67 264.066 L
467.027 274.009 L
468.385 263.651 L
469.742 254.279 L
471.1 243.288 L
472.457 248.566 L
473.815 253.906 L
475.172 248.711 L
476.53 253.976 L
477.888 251.118 L
479.245 254.396 L
480.603 229.591 L
481.96 228.744 L
483.318 229.902 L
484.675 235.864 L
486.033 240.354 L
487.39 243.795 L
488.747 241.743 L
490.105 255.759 L
491.462 247.634 L
492.82 242.289 L
494.177 235.068 L
495.535 233.981 L
496.892 251.799 L
498.25 253.803 L
499.608 269.143 L
500.965 263.729 L
502.323 273.535 L
503.68 267.88 L
505.038 272.162 L
506.395 273.819 L
507.753 280.088 L
509.11 290.505 L
510.467 302.509 L
511.825 302.356 L
513.182 320.913 L
514.54 320.196 L
515.898 314.983 L
517.255 330.541 L
518.612 316.263 L
519.97 327.244 L
521.328 345.786 L
522.685 344.677 L
524.042 344.927 L
525.4 364.156 L
526.758 368.445 L
528.115 378.422 L
529.472 364.966 L
530.83 370.97 L
532.188 372.676 L
533.545 391.379 L
534.903 392.38 L
536.26 389.45 L
537.617 400.614 L
538.975 400.457 L
540.333 410.638 L
541.69 400.286 L
543.047 398.522 L
544.405 397.224 L
545.763 394.666 L
547.12 403.719 L
548.477 403.593 L
549.835 414.514 L
551.193 412.997 L
552.55 415.221 L
553.907 396.23 L
555.265 391.624 L
556.622 375.348 L
557.98 390.58 L
559.338 384.224 L
560.695 376.79 L
562.052 374.959 L
563.41 376.621 L
564.768 381.483 L
566.125 363.485 L
567.482 355.712 L
568.84 341.6 L
570.198 345.995 L
571.555 339.678 L
572.912 341.641 L
574.27 328.435 L
575.628 334.381 L
576.985 328.845 L
578.343 310.518 L
579.7 301.62 L
581.057 294.828 L
582.415 297.494 L
583.773 291.103 L
585.13 306.247 L
586.487 294.707 L
587.845 285.971 L
589.203 281.811 L
590.56 267.287 L
591.917 261.71 L
593.275 255.593 L
594.633 251.494 L
595.99 278.294 L
597.347 260.051 L
598.705 268.588 L
600.063 264.731 L
601.42 245.183 L
602.778 257.3 L
604.135 244.84 L
605.492 249.207 L
606.85 247.198 L
608.208 244.273 L
609.565 255.741 L
610.922 243.667 L
612.28 255.985 L
613.638 261.157 L
614.995 253.115 L
616.352 247.989 L
617.71 244.005 L
619.068 258.702 L
620.425 264.934 L
621.782 271.66 L
623.14 272.392 L
624.497 259.535 L
625.855 261.126 L
627.213 265.695 L
628.57 273.173 L
629.927 284.82 L
631.285 304.382 L
632.643 301.845 L
634 315.79 L
S
GR
%%Trailer
%%Pages: 1
%%EOF
