%!PS-Adobe-3.0 EPSF-3.0
%%BoundingBox: 40 19 387 302
%%HiResBoundingBox: 40.164 19.770 386.736 301.884
%%Creator: (MATLAB, The Mathworks, Inc. Version 9.0.0.341360 \(R2016a\). Operating System: Windows 8)
%%Title: (C:/Users/matti/Documents/Universita/anno_4/Digital Transmission/dt-homeworks/HW1/Latex/img/DFT.eps)
%%CreationDate: 2017-04-03T13:17:38
%%Pages: (atend)
%%LanguageLevel: 3
%%EndComments
%%BeginProlog
%%BeginResource: procset (Apache XML Graphics Std ProcSet) 1.2 0
%%Version: 1.2 0
%%Copyright: (Copyright 2001-2003,2010 The Apache Software Foundation. License terms: http://www.apache.org/licenses/LICENSE-2.0)
/bd{bind def}bind def
/ld{load def}bd
/GR/grestore ld
/M/moveto ld
/LJ/setlinejoin ld
/C/curveto ld
/f/fill ld
/LW/setlinewidth ld
/GC/setgray ld
/t/show ld
/N/newpath ld
/CT/concat ld
/cp/closepath ld
/S/stroke ld
/L/lineto ld
/CC/setcmykcolor ld
/A/ashow ld
/GS/gsave ld
/RC/setrgbcolor ld
/RM/rmoveto ld
/ML/setmiterlimit ld
/re {4 2 roll M
1 index 0 rlineto
0 exch rlineto
neg 0 rlineto
cp } bd
/_ctm matrix def
/_tm matrix def
/BT { _ctm currentmatrix pop matrix _tm copy pop 0 0 moveto } bd
/ET { _ctm setmatrix } bd
/iTm { _ctm setmatrix _tm concat } bd
/Tm { _tm astore pop iTm 0 0 moveto } bd
/ux 0.0 def
/uy 0.0 def
/F {
  /Tp exch def
  /Tf exch def
  Tf findfont Tp scalefont setfont
  /cf Tf def  /cs Tp def
} bd
/ULS {currentpoint /uy exch def /ux exch def} bd
/ULE {
  /Tcx currentpoint pop def
  gsave
  newpath
  cf findfont cs scalefont dup
  /FontMatrix get 0 get /Ts exch def /FontInfo get dup
  /UnderlinePosition get Ts mul /To exch def
  /UnderlineThickness get Ts mul /Tt exch def
  ux uy To add moveto  Tcx uy To add lineto
  Tt setlinewidth stroke
  grestore
} bd
/OLE {
  /Tcx currentpoint pop def
  gsave
  newpath
  cf findfont cs scalefont dup
  /FontMatrix get 0 get /Ts exch def /FontInfo get dup
  /UnderlinePosition get Ts mul /To exch def
  /UnderlineThickness get Ts mul /Tt exch def
  ux uy To add cs add moveto Tcx uy To add cs add lineto
  Tt setlinewidth stroke
  grestore
} bd
/SOE {
  /Tcx currentpoint pop def
  gsave
  newpath
  cf findfont cs scalefont dup
  /FontMatrix get 0 get /Ts exch def /FontInfo get dup
  /UnderlinePosition get Ts mul /To exch def
  /UnderlineThickness get Ts mul /Tt exch def
  ux uy To add cs 10 mul 26 idiv add moveto Tcx uy To add cs 10 mul 26 idiv add lineto
  Tt setlinewidth stroke
  grestore
} bd
/QT {
/Y22 exch store
/X22 exch store
/Y21 exch store
/X21 exch store
currentpoint
/Y21 load 2 mul add 3 div exch
/X21 load 2 mul add 3 div exch
/X21 load 2 mul /X22 load add 3 div
/Y21 load 2 mul /Y22 load add 3 div
/X22 load /Y22 load curveto
} bd
/SSPD {
dup length /d exch dict def
{
/v exch def
/k exch def
currentpagedevice k known {
/cpdv currentpagedevice k get def
v cpdv ne {
/upd false def
/nullv v type /nulltype eq def
/nullcpdv cpdv type /nulltype eq def
nullv nullcpdv or
{
/upd true def
} {
/sametype v type cpdv type eq def
sametype {
v type /arraytype eq {
/vlen v length def
/cpdvlen cpdv length def
vlen cpdvlen eq {
0 1 vlen 1 sub {
/i exch def
/obj v i get def
/cpdobj cpdv i get def
obj cpdobj ne {
/upd true def
exit
} if
} for
} {
/upd true def
} ifelse
} {
v type /dicttype eq {
v {
/dv exch def
/dk exch def
/cpddv cpdv dk get def
dv cpddv ne {
/upd true def
exit
} if
} forall
} {
/upd true def
} ifelse
} ifelse
} if
} ifelse
upd true eq {
d k v put
} if
} if
} if
} forall
d length 0 gt {
d setpagedevice
} if
} bd
%%EndResource
%%BeginResource: procset (Apache XML Graphics EPS ProcSet) 1.0 0
%%Version: 1.0 0
%%Copyright: (Copyright 2002-2003 The Apache Software Foundation. License terms: http://www.apache.org/licenses/LICENSE-2.0)
/BeginEPSF { %def
/b4_Inc_state save def         % Save state for cleanup
/dict_count countdictstack def % Count objects on dict stack
/op_count count 1 sub def      % Count objects on operand stack
userdict begin                 % Push userdict on dict stack
/showpage { } def              % Redefine showpage, { } = null proc
0 setgray 0 setlinecap         % Prepare graphics state
1 setlinewidth 0 setlinejoin
10 setmiterlimit [ ] 0 setdash newpath
/languagelevel where           % If level not equal to 1 then
{pop languagelevel             % set strokeadjust and
1 ne                           % overprint to their defaults.
{false setstrokeadjust false setoverprint
} if
} if
} bd
/EndEPSF { %def
count op_count sub {pop} repeat            % Clean up stacks
countdictstack dict_count sub {end} repeat
b4_Inc_state restore
} bd
%%EndResource
%FOPBeginFontDict
%%IncludeResource: font Courier-Bold
%%IncludeResource: font Helvetica
%%IncludeResource: font Courier-BoldOblique
%%IncludeResource: font Courier-Oblique
%%IncludeResource: font Times-Roman
%%IncludeResource: font Helvetica-BoldOblique
%%IncludeResource: font Helvetica-Bold
%%IncludeResource: font Helvetica-Oblique
%%IncludeResource: font Times-BoldItalic
%%IncludeResource: font Courier
%%IncludeResource: font Times-Italic
%%IncludeResource: font Times-Bold
%%IncludeResource: font Symbol
%%IncludeResource: font ZapfDingbats
%FOPEndFontDict
%%BeginResource: encoding WinAnsiEncoding
/WinAnsiEncoding [
/.notdef /.notdef /.notdef /.notdef /.notdef
/.notdef /.notdef /.notdef /.notdef /.notdef
/.notdef /.notdef /.notdef /.notdef /.notdef
/.notdef /.notdef /.notdef /.notdef /.notdef
/.notdef /.notdef /.notdef /.notdef /.notdef
/.notdef /.notdef /.notdef /.notdef /.notdef
/.notdef /.notdef /space /exclam /quotedbl
/numbersign /dollar /percent /ampersand /quotesingle
/parenleft /parenright /asterisk /plus /comma
/hyphen /period /slash /zero /one
/two /three /four /five /six
/seven /eight /nine /colon /semicolon
/less /equal /greater /question /at
/A /B /C /D /E
/F /G /H /I /J
/K /L /M /N /O
/P /Q /R /S /T
/U /V /W /X /Y
/Z /bracketleft /backslash /bracketright /asciicircum
/underscore /quoteleft /a /b /c
/d /e /f /g /h
/i /j /k /l /m
/n /o /p /q /r
/s /t /u /v /w
/x /y /z /braceleft /bar
/braceright /asciitilde /bullet /Euro /bullet
/quotesinglbase /florin /quotedblbase /ellipsis /dagger
/daggerdbl /circumflex /perthousand /Scaron /guilsinglleft
/OE /bullet /Zcaron /bullet /bullet
/quoteleft /quoteright /quotedblleft /quotedblright /bullet
/endash /emdash /asciitilde /trademark /scaron
/guilsinglright /oe /bullet /zcaron /Ydieresis
/space /exclamdown /cent /sterling /currency
/yen /brokenbar /section /dieresis /copyright
/ordfeminine /guillemotleft /logicalnot /sfthyphen /registered
/macron /degree /plusminus /twosuperior /threesuperior
/acute /mu /paragraph /middot /cedilla
/onesuperior /ordmasculine /guillemotright /onequarter /onehalf
/threequarters /questiondown /Agrave /Aacute /Acircumflex
/Atilde /Adieresis /Aring /AE /Ccedilla
/Egrave /Eacute /Ecircumflex /Edieresis /Igrave
/Iacute /Icircumflex /Idieresis /Eth /Ntilde
/Ograve /Oacute /Ocircumflex /Otilde /Odieresis
/multiply /Oslash /Ugrave /Uacute /Ucircumflex
/Udieresis /Yacute /Thorn /germandbls /agrave
/aacute /acircumflex /atilde /adieresis /aring
/ae /ccedilla /egrave /eacute /ecircumflex
/edieresis /igrave /iacute /icircumflex /idieresis
/eth /ntilde /ograve /oacute /ocircumflex
/otilde /odieresis /divide /oslash /ugrave
/uacute /ucircumflex /udieresis /yacute /thorn
/ydieresis
] def
%%EndResource
%FOPBeginFontReencode
/Courier-Bold findfont
dup length dict begin
  {1 index /FID ne {def} {pop pop} ifelse} forall
  /Encoding WinAnsiEncoding def
  currentdict
end
/Courier-Bold exch definefont pop
/Helvetica findfont
dup length dict begin
  {1 index /FID ne {def} {pop pop} ifelse} forall
  /Encoding WinAnsiEncoding def
  currentdict
end
/Helvetica exch definefont pop
/Courier-BoldOblique findfont
dup length dict begin
  {1 index /FID ne {def} {pop pop} ifelse} forall
  /Encoding WinAnsiEncoding def
  currentdict
end
/Courier-BoldOblique exch definefont pop
/Courier-Oblique findfont
dup length dict begin
  {1 index /FID ne {def} {pop pop} ifelse} forall
  /Encoding WinAnsiEncoding def
  currentdict
end
/Courier-Oblique exch definefont pop
/Times-Roman findfont
dup length dict begin
  {1 index /FID ne {def} {pop pop} ifelse} forall
  /Encoding WinAnsiEncoding def
  currentdict
end
/Times-Roman exch definefont pop
/Helvetica-BoldOblique findfont
dup length dict begin
  {1 index /FID ne {def} {pop pop} ifelse} forall
  /Encoding WinAnsiEncoding def
  currentdict
end
/Helvetica-BoldOblique exch definefont pop
/Helvetica-Bold findfont
dup length dict begin
  {1 index /FID ne {def} {pop pop} ifelse} forall
  /Encoding WinAnsiEncoding def
  currentdict
end
/Helvetica-Bold exch definefont pop
/Helvetica-Oblique findfont
dup length dict begin
  {1 index /FID ne {def} {pop pop} ifelse} forall
  /Encoding WinAnsiEncoding def
  currentdict
end
/Helvetica-Oblique exch definefont pop
/Times-BoldItalic findfont
dup length dict begin
  {1 index /FID ne {def} {pop pop} ifelse} forall
  /Encoding WinAnsiEncoding def
  currentdict
end
/Times-BoldItalic exch definefont pop
/Courier findfont
dup length dict begin
  {1 index /FID ne {def} {pop pop} ifelse} forall
  /Encoding WinAnsiEncoding def
  currentdict
end
/Courier exch definefont pop
/Times-Italic findfont
dup length dict begin
  {1 index /FID ne {def} {pop pop} ifelse} forall
  /Encoding WinAnsiEncoding def
  currentdict
end
/Times-Italic exch definefont pop
/Times-Bold findfont
dup length dict begin
  {1 index /FID ne {def} {pop pop} ifelse} forall
  /Encoding WinAnsiEncoding def
  currentdict
end
/Times-Bold exch definefont pop
%FOPEndFontReencode
%%EndProlog
%%Page: 1 1
%%PageBoundingBox: 0 0 420 315
%%BeginPageSetup
[1 0 0 -1 0 315] CT
%%EndPageSetup
GS
[0.6 0 0 0.6 0 0] CT
1 GC
N
0 0 700 525 re
f
GR
GS
[0.6 0 0 0.6 0 0] CT
1 GC
N
0 0 700 525 re
f
GR
GS
[0.6 0 0 0.6 0 0] CT
1 GC
N
91 218 M
634 218 L
634 42 L
91 42 L
cp
f
GR
GS
[0.6 0 0 0.6 0 0] CT
0.149 GC
2 setlinecap
1 LJ
0.833 LW
N
91 218 M
634 218 L
S
GR
GS
[0.6 0 0 0.6 0 0] CT
0.149 GC
2 setlinecap
1 LJ
0.833 LW
N
91 42 M
634 42 L
S
GR
GS
[0.6 0 0 0.6 0 0] CT
0.149 GC
2 setlinecap
1 LJ
0.833 LW
N
91 218 M
91 212.57 L
S
GR
GS
[0.6 0 0 0.6 0 0] CT
0.149 GC
2 setlinecap
1 LJ
0.833 LW
N
199.6 218 M
199.6 212.57 L
S
GR
GS
[0.6 0 0 0.6 0 0] CT
0.149 GC
2 setlinecap
1 LJ
0.833 LW
N
308.2 218 M
308.2 212.57 L
S
GR
GS
[0.6 0 0 0.6 0 0] CT
0.149 GC
2 setlinecap
1 LJ
0.833 LW
N
416.8 218 M
416.8 212.57 L
S
GR
GS
[0.6 0 0 0.6 0 0] CT
0.149 GC
2 setlinecap
1 LJ
0.833 LW
N
525.4 218 M
525.4 212.57 L
S
GR
GS
[0.6 0 0 0.6 0 0] CT
0.149 GC
2 setlinecap
1 LJ
0.833 LW
N
634 218 M
634 212.57 L
S
GR
GS
[0.6 0 0 0.6 0 0] CT
0.149 GC
2 setlinecap
1 LJ
0.833 LW
N
91 42 M
91 47.43 L
S
GR
GS
[0.6 0 0 0.6 0 0] CT
0.149 GC
2 setlinecap
1 LJ
0.833 LW
N
199.6 42 M
199.6 47.43 L
S
GR
GS
[0.6 0 0 0.6 0 0] CT
0.149 GC
2 setlinecap
1 LJ
0.833 LW
N
308.2 42 M
308.2 47.43 L
S
GR
GS
[0.6 0 0 0.6 0 0] CT
0.149 GC
2 setlinecap
1 LJ
0.833 LW
N
416.8 42 M
416.8 47.43 L
S
GR
GS
[0.6 0 0 0.6 0 0] CT
0.149 GC
2 setlinecap
1 LJ
0.833 LW
N
525.4 42 M
525.4 47.43 L
S
GR
GS
[0.6 0 0 0.6 0 0] CT
0.149 GC
2 setlinecap
1 LJ
0.833 LW
N
634 42 M
634 47.43 L
S
GR
GS
[0.6 0 0 0.6 54.60001 134.8] CT
0.149 GC
/Helvetica 16.667 F
GS
[1 0 0 1 0 0] CT
-17 18 moveto 
1 -1 scale
(0.15) t 
GR
GR
GS
[0.6 0 0 0.6 119.76 134.8] CT
0.149 GC
/Helvetica 16.667 F
GS
[1 0 0 1 0 0] CT
-12 18 moveto 
1 -1 scale
(0.2) t 
GR
GR
GS
[0.6 0 0 0.6 184.92001 134.8] CT
0.149 GC
/Helvetica 16.667 F
GS
[1 0 0 1 0 0] CT
-17 18 moveto 
1 -1 scale
(0.25) t 
GR
GR
GS
[0.6 0 0 0.6 250.08001 134.8] CT
0.149 GC
/Helvetica 16.667 F
GS
[1 0 0 1 0 0] CT
-12 18 moveto 
1 -1 scale
(0.3) t 
GR
GR
GS
[0.6 0 0 0.6 315.23998 134.8] CT
0.149 GC
/Helvetica 16.667 F
GS
[1 0 0 1 0 0] CT
-17 18 moveto 
1 -1 scale
(0.35) t 
GR
GR
GS
[0.6 0 0 0.6 380.4 134.8] CT
0.149 GC
/Helvetica 16.667 F
GS
[1 0 0 1 0 0] CT
-12 18 moveto 
1 -1 scale
(0.4) t 
GR
GR
GS
[0.6 0 0 0.6 0 0] CT
0.149 GC
2 setlinecap
1 LJ
0.833 LW
N
91 218 M
91 42 L
S
GR
GS
[0.6 0 0 0.6 0 0] CT
0.149 GC
2 setlinecap
1 LJ
0.833 LW
N
634 218 M
634 42 L
S
GR
GS
[0.6 0 0 0.6 0 0] CT
0.149 GC
2 setlinecap
1 LJ
0.833 LW
N
91 218 M
96.43 218 L
S
GR
GS
[0.6 0 0 0.6 0 0] CT
0.149 GC
2 setlinecap
1 LJ
0.833 LW
N
91 130 M
96.43 130 L
S
GR
GS
[0.6 0 0 0.6 0 0] CT
0.149 GC
2 setlinecap
1 LJ
0.833 LW
N
91 42 M
96.43 42 L
S
GR
GS
[0.6 0 0 0.6 0 0] CT
0.149 GC
2 setlinecap
1 LJ
0.833 LW
N
634 218 M
628.57 218 L
S
GR
GS
[0.6 0 0 0.6 0 0] CT
0.149 GC
2 setlinecap
1 LJ
0.833 LW
N
634 130 M
628.57 130 L
S
GR
GS
[0.6 0 0 0.6 0 0] CT
0.149 GC
2 setlinecap
1 LJ
0.833 LW
N
634 42 M
628.57 42 L
S
GR
GS
[0.6 0 0 0.6 50.6 130.8] CT
0.149 GC
/Helvetica 16.667 F
GS
[1 0 0 1 0 0] CT
-10 7 moveto 
1 -1 scale
(0) t 
GR
GR
GS
[0.6 0 0 0.6 50.6 78] CT
0.149 GC
/Helvetica 16.667 F
GS
[1 0 0 1 0 0] CT
-10 7 moveto 
1 -1 scale
(5) t 
GR
GR
GS
[0.6 0 0 0.6 50.6 25.2] CT
0.149 GC
/Helvetica 16.667 F
GS
[1 0 0 1 0 0] CT
-19 7 moveto 
1 -1 scale
(10) t 
GR
GR
GS
[0.6 0 0 0.6 217.5002 23.55] CT
/Helvetica-Bold 18.333 F
GS
[1 0 0 1 0 0] CT
-20.5 -4 moveto 
1 -1 scale
(|X\(f\)|) t 
GR
GR
GS
[0.6 0 0 0.6 0 0] CT
0 0.447 0.741 RC
1 LJ
0.833 LW
N
90.946 217.143 M
91.053 217.096 L
91.318 216.982 L
91.583 216.867 L
91.848 216.749 L
92.114 216.623 L
92.379 216.49 L
92.644 216.351 L
92.909 216.208 L
93.174 216.064 L
93.439 215.924 L
93.704 215.795 L
93.97 215.681 L
94.235 215.587 L
94.5 215.52 L
94.765 215.485 L
95.03 215.484 L
95.295 215.523 L
95.56 215.602 L
95.825 215.725 L
96.091 215.889 L
96.356 216.094 L
96.621 216.335 L
96.886 216.606 L
97.151 216.89 L
97.416 217.155 L
97.681 217.319 L
97.947 217.261 L
98.212 216.998 L
98.477 216.636 L
98.742 216.234 L
99.007 215.82 L
99.272 215.408 L
99.537 215.009 L
99.803 214.63 L
100.068 214.279 L
100.333 213.958 L
100.598 213.673 L
100.863 213.425 L
101.128 213.217 L
101.393 213.047 L
101.658 212.916 L
101.924 212.821 L
102.189 212.758 L
102.454 212.725 L
102.719 212.714 L
102.984 212.723 L
103.249 212.743 L
103.514 212.771 L
103.78 212.8 L
104.045 212.825 L
104.31 212.844 L
104.575 212.853 L
104.84 212.852 L
105.105 212.841 L
105.37 212.821 L
105.636 212.795 L
105.901 212.766 L
106.166 212.738 L
106.431 212.713 L
106.696 212.696 L
106.961 212.689 L
107.226 212.692 L
107.492 212.709 L
107.757 212.737 L
108.022 212.777 L
108.287 212.825 L
108.552 212.88 L
108.817 212.936 L
109.082 212.991 L
109.347 213.039 L
109.613 213.076 L
109.878 213.098 L
110.143 213.102 L
110.408 213.087 L
110.673 213.052 L
110.938 212.999 L
111.203 212.933 L
111.469 212.856 L
111.734 212.775 L
111.999 212.695 L
112.264 212.622 L
112.529 212.561 L
112.794 212.517 L
113.059 212.493 L
113.325 212.492 L
113.59 212.516 L
113.855 212.565 L
114.12 212.64 L
114.385 212.737 L
114.65 212.856 L
114.915 212.993 L
115.18 213.145 L
115.446 213.307 L
115.711 213.476 L
115.976 213.647 L
116.241 213.817 L
116.506 213.98 L
116.771 214.135 L
117.036 214.277 L
117.302 214.405 L
117.567 214.514 L
117.832 214.603 L
118.097 214.668 L
118.362 214.706 L
118.627 214.713 L
118.892 214.686 L
119.158 214.623 L
119.423 214.522 L
119.688 214.384 L
119.953 214.21 L
120.218 214.005 L
120.483 213.773 L
120.748 213.52 L
121.013 213.253 L
121.279 212.976 L
121.544 212.697 L
121.809 212.422 L
122.074 212.154 L
122.339 211.9 L
122.604 211.662 L
122.869 211.443 L
123.135 211.247 L
123.4 211.074 L
123.665 210.925 L
123.93 210.8 L
124.195 210.699 L
124.46 210.621 L
124.725 210.563 L
124.991 210.525 L
125.256 210.504 L
125.521 210.496 L
125.786 210.5 L
126.051 210.512 L
126.316 210.528 L
126.581 210.546 L
126.846 210.563 L
127.112 210.574 L
127.377 210.578 L
127.642 210.573 L
127.907 210.556 L
128.172 210.526 L
128.437 210.484 L
128.702 210.43 L
128.968 210.366 L
129.233 210.295 L
129.498 210.22 L
129.763 210.145 L
130.028 210.074 L
130.293 210.011 L
130.558 209.962 L
130.824 209.929 L
131.089 209.916 L
131.354 209.927 L
131.619 209.962 L
131.884 210.024 L
132.149 210.113 L
132.414 210.228 L
132.679 210.368 L
132.945 210.531 L
133.21 210.715 L
133.475 210.915 L
133.74 211.13 L
134.005 211.353 L
134.27 211.582 L
134.535 211.812 L
134.801 212.039 L
135.066 212.259 L
135.331 212.47 L
135.596 212.668 L
135.861 212.851 L
136.126 213.02 L
136.391 213.172 L
136.657 213.309 L
136.922 213.433 L
137.187 213.543 L
137.452 213.644 L
137.717 213.738 L
137.982 213.827 L
138.247 213.915 L
138.512 214.004 L
138.778 214.096 L
139.043 214.195 L
139.308 214.301 L
139.573 214.414 L
139.838 214.537 L
140.103 214.666 L
140.368 214.801 L
140.634 214.937 L
140.899 215.072 L
141.164 215.198 L
141.429 215.309 L
141.694 215.397 L
141.959 215.455 L
142.224 215.476 L
142.49 215.456 L
142.755 215.395 L
143.02 215.296 L
143.285 215.162 L
143.55 215.002 L
143.815 214.82 L
144.08 214.623 L
144.346 214.415 L
144.611 214.199 L
144.876 213.979 L
145.141 213.754 L
145.406 213.526 L
145.671 213.295 L
145.936 213.06 L
146.201 212.821 L
146.467 212.577 L
146.732 212.33 L
146.997 212.079 L
147.262 211.827 L
147.527 211.575 L
147.792 211.326 L
148.057 211.084 L
148.323 210.852 L
148.588 210.634 L
148.853 210.434 L
149.118 210.257 L
149.383 210.104 L
149.648 209.981 L
149.913 209.888 L
150.179 209.83 L
150.444 209.805 L
150.709 209.816 L
150.974 209.861 L
151.239 209.938 L
151.504 210.045 L
151.769 210.176 L
152.034 210.328 L
152.3 210.492 L
152.565 210.663 L
152.83 210.831 L
153.095 210.989 L
153.36 211.127 L
153.625 211.238 L
153.89 211.316 L
154.156 211.357 L
154.421 211.359 L
154.686 211.326 L
154.951 211.261 L
155.216 211.172 L
155.481 211.067 L
155.746 210.956 L
156.012 210.848 L
156.277 210.752 L
156.542 210.676 L
156.807 210.627 L
157.072 210.611 L
157.337 210.632 L
157.602 210.692 L
157.867 210.793 L
158.133 210.933 L
158.398 211.111 L
158.663 211.324 L
158.928 211.567 L
159.193 211.833 L
159.458 212.116 L
159.723 212.407 L
159.989 212.695 L
160.254 212.971 L
160.519 213.224 L
160.784 213.442 L
161.049 213.616 L
161.314 213.739 L
161.579 213.806 L
161.845 213.82 L
162.11 213.784 L
162.375 213.708 L
162.64 213.602 L
162.905 213.475 L
163.17 213.34 L
163.435 213.205 L
163.7 213.078 L
163.966 212.965 L
164.231 212.871 L
164.496 212.8 L
164.761 212.754 L
165.026 212.735 L
165.291 212.743 L
165.556 212.78 L
165.822 212.843 L
166.087 212.933 L
166.352 213.049 L
166.617 213.188 L
166.882 213.348 L
167.147 213.528 L
167.412 213.724 L
167.678 213.934 L
167.943 214.154 L
168.208 214.38 L
168.473 214.607 L
168.738 214.829 L
169.003 215.038 L
169.268 215.224 L
169.533 215.379 L
169.799 215.491 L
170.064 215.552 L
170.329 215.557 L
170.594 215.508 L
170.859 215.412 L
171.124 215.28 L
171.389 215.127 L
171.655 214.966 L
171.92 214.809 L
172.185 214.667 L
172.45 214.551 L
172.715 214.469 L
172.98 214.426 L
173.245 214.429 L
173.511 214.481 L
173.776 214.584 L
174.041 214.737 L
174.306 214.937 L
174.571 215.178 L
174.836 215.448 L
175.101 215.725 L
175.367 215.977 L
175.632 216.151 L
175.897 216.185 L
176.162 216.042 L
176.427 215.734 L
176.692 215.307 L
176.957 214.807 L
177.222 214.267 L
177.488 213.709 L
177.753 213.151 L
178.018 212.606 L
178.283 212.083 L
178.548 211.59 L
178.813 211.133 L
179.078 210.716 L
179.344 210.342 L
179.609 210.012 L
179.874 209.726 L
180.139 209.483 L
180.404 209.281 L
180.669 209.117 L
180.934 208.987 L
181.2 208.886 L
181.465 208.812 L
181.73 208.758 L
181.995 208.722 L
182.26 208.7 L
182.525 208.688 L
182.79 208.684 L
183.055 208.686 L
183.321 208.694 L
183.586 208.706 L
183.851 208.723 L
184.116 208.747 L
184.381 208.78 L
184.646 208.823 L
184.911 208.879 L
185.177 208.953 L
185.442 209.048 L
185.707 209.167 L
185.972 209.316 L
186.237 209.496 L
186.502 209.714 L
186.767 209.971 L
187.033 210.27 L
187.298 210.613 L
187.563 211.002 L
187.828 211.435 L
188.093 211.911 L
188.358 212.427 L
188.623 212.978 L
188.888 213.555 L
189.154 214.148 L
189.419 214.741 L
189.684 215.305 L
189.949 215.795 L
190.214 216.133 L
190.479 216.225 L
190.744 216.042 L
191.01 215.662 L
191.275 215.185 L
191.54 214.674 L
191.805 214.164 L
192.07 213.677 L
192.335 213.225 L
192.6 212.817 L
192.866 212.457 L
193.131 212.147 L
193.396 211.889 L
193.661 211.681 L
193.926 211.52 L
194.191 211.401 L
194.456 211.319 L
194.721 211.266 L
194.987 211.236 L
195.252 211.219 L
195.517 211.206 L
195.782 211.187 L
196.047 211.153 L
196.312 211.096 L
196.577 211.009 L
196.843 210.887 L
197.108 210.728 L
197.373 210.531 L
197.638 210.299 L
197.903 210.037 L
198.168 209.751 L
198.433 209.448 L
198.699 209.138 L
198.964 208.829 L
199.229 208.529 L
199.494 208.246 L
199.759 207.987 L
200.024 207.76 L
200.289 207.57 L
200.554 207.42 L
200.82 207.314 L
201.085 207.254 L
201.35 207.239 L
201.615 207.268 L
201.88 207.34 L
202.145 207.45 L
202.41 207.593 L
202.676 207.764 L
202.941 207.955 L
203.206 208.16 L
203.471 208.369 L
203.736 208.577 L
204.001 208.774 L
204.266 208.955 L
204.532 209.113 L
204.797 209.243 L
205.062 209.344 L
205.327 209.415 L
205.592 209.457 L
205.857 209.475 L
206.122 209.473 L
206.387 209.461 L
206.653 209.445 L
206.918 209.437 L
207.183 209.446 L
207.448 209.483 L
207.713 209.557 L
207.978 209.676 L
208.243 209.847 L
208.509 210.077 L
208.774 210.367 L
209.039 210.72 L
209.304 211.131 L
209.569 211.594 L
209.834 212.099 L
210.099 212.63 L
210.365 213.165 L
210.63 213.675 L
210.895 214.127 L
211.16 214.48 L
211.425 214.703 L
211.69 214.785 L
211.955 214.746 L
212.221 214.627 L
212.486 214.474 L
212.751 214.319 L
213.016 214.168 L
213.281 213.996 L
213.546 213.74 L
213.811 213.306 L
214.076 212.592 L
214.342 211.527 L
214.607 210.079 L
214.872 208.249 L
215.137 206.053 L
215.402 203.513 L
215.667 200.654 L
215.932 197.503 L
216.198 194.092 L
216.463 190.455 L
216.728 186.63 L
216.993 182.658 L
217.258 178.584 L
217.523 174.456 L
217.788 170.324 L
218.054 166.237 L
218.319 162.249 L
218.584 158.409 L
218.849 154.77 L
219.114 151.379 L
219.379 148.282 L
219.644 145.521 L
219.909 143.135 L
220.175 141.156 L
220.44 139.612 L
220.705 138.524 L
220.97 137.909 L
221.235 137.774 L
221.5 138.123 L
221.765 138.95 L
222.031 140.244 L
222.296 141.988 L
222.561 144.158 L
222.826 146.726 L
223.091 149.658 L
223.356 152.915 L
223.621 156.455 L
223.887 160.234 L
224.152 164.204 L
224.417 168.317 L
224.682 172.523 L
224.947 176.774 L
225.212 181.021 L
225.477 185.217 L
225.742 189.32 L
226.008 193.286 L
226.273 197.077 L
226.538 200.66 L
226.803 204.002 L
227.068 207.073 L
227.333 209.845 L
227.598 212.281 L
227.864 214.307 L
228.129 215.706 L
228.394 215.986 L
228.659 215.342 L
228.924 214.543 L
229.189 213.875 L
229.454 213.404 L
229.72 213.135 L
229.985 213.056 L
230.25 213.145 L
230.515 213.377 L
230.78 213.725 L
231.045 214.158 L
231.31 214.65 L
231.575 215.172 L
231.841 215.699 L
232.106 216.208 L
232.371 216.678 L
232.636 217.095 L
232.901 217.449 L
233.166 217.728 L
233.431 217.868 L
233.697 217.76 L
233.962 217.602 L
234.227 217.438 L
234.492 217.267 L
234.757 217.094 L
235.022 216.933 L
235.287 216.807 L
235.553 216.733 L
235.818 216.717 L
236.083 216.714 L
236.348 216.575 L
236.613 216.087 L
236.878 215.144 L
237.143 213.739 L
237.408 211.87 L
237.674 209.52 L
237.939 206.666 L
238.204 203.285 L
238.469 199.36 L
238.734 194.881 L
238.999 189.847 L
239.264 184.264 L
239.53 178.152 L
239.795 171.537 L
240.06 164.459 L
240.325 156.966 L
240.59 149.119 L
240.855 140.985 L
241.12 132.643 L
241.386 124.177 L
241.651 115.678 L
241.916 107.243 L
242.181 98.97 L
242.446 90.961 L
242.711 83.316 L
242.976 76.134 L
243.242 69.51 L
243.507 63.534 L
243.772 58.288 L
244.037 53.844 L
244.302 50.266 L
244.567 47.606 L
244.832 45.901 L
245.097 45.179 L
245.363 45.449 L
245.628 46.711 L
245.893 48.946 L
246.158 52.126 L
246.423 56.205 L
246.688 61.129 L
246.953 66.83 L
247.219 73.229 L
247.484 80.242 L
247.749 87.775 L
248.014 95.73 L
248.279 104.005 L
248.544 112.498 L
248.809 121.105 L
249.075 129.724 L
249.34 138.26 L
249.605 146.619 L
249.87 154.716 L
250.135 162.473 L
250.4 169.819 L
250.665 176.694 L
250.93 183.045 L
251.196 188.829 L
251.461 194.006 L
251.726 198.544 L
251.991 202.411 L
252.256 205.575 L
252.521 208.002 L
252.786 209.684 L
253.052 210.676 L
253.317 211.138 L
253.582 211.291 L
253.847 211.333 L
254.112 211.39 L
254.377 211.527 L
254.642 211.763 L
254.908 212.096 L
255.173 212.508 L
255.438 212.977 L
255.703 213.478 L
255.968 213.986 L
256.233 214.478 L
256.498 214.93 L
256.763 215.318 L
257.029 215.618 L
257.294 215.805 L
257.559 215.864 L
257.824 215.798 L
258.089 215.629 L
258.354 215.385 L
258.619 215.095 L
258.885 214.781 L
259.15 214.461 L
259.415 214.149 L
259.68 213.855 L
259.945 213.592 L
260.21 213.365 L
260.475 213.183 L
260.741 213.049 L
261.006 212.965 L
261.271 212.931 L
261.536 212.947 L
261.801 213.007 L
262.066 213.107 L
262.331 213.24 L
262.596 213.397 L
262.862 213.57 L
263.127 213.749 L
263.392 213.925 L
263.657 214.089 L
263.922 214.233 L
264.187 214.351 L
264.452 214.437 L
264.718 214.488 L
264.983 214.501 L
265.248 214.476 L
265.513 214.416 L
265.778 214.322 L
266.043 214.199 L
266.308 214.055 L
266.574 213.895 L
266.839 213.729 L
267.104 213.565 L
267.369 213.413 L
267.634 213.282 L
267.899 213.183 L
268.164 213.122 L
268.43 213.109 L
268.695 213.15 L
268.96 213.25 L
269.225 213.411 L
269.49 213.637 L
269.755 213.925 L
270.02 214.274 L
270.285 214.676 L
270.551 215.123 L
270.816 215.596 L
271.081 216.066 L
271.346 216.466 L
271.611 216.671 L
271.876 216.55 L
272.141 216.146 L
272.407 215.591 L
272.672 214.969 L
272.937 214.32 L
273.202 213.668 L
273.467 213.026 L
273.732 212.402 L
273.997 211.803 L
274.263 211.234 L
274.528 210.7 L
274.793 210.202 L
275.058 209.743 L
275.323 209.325 L
275.588 208.949 L
275.853 208.618 L
276.118 208.332 L
276.384 208.093 L
276.649 207.902 L
276.914 207.762 L
277.179 207.672 L
277.444 207.635 L
277.709 207.652 L
277.974 207.723 L
278.24 207.848 L
278.505 208.026 L
278.77 208.257 L
279.035 208.539 L
279.3 208.87 L
279.565 209.248 L
279.83 209.668 L
280.096 210.126 L
280.361 210.62 L
280.626 211.144 L
280.891 211.693 L
281.156 212.261 L
281.421 212.845 L
281.686 213.438 L
281.951 214.034 L
282.217 214.627 L
282.482 215.209 L
282.747 215.772 L
283.012 216.301 L
283.277 216.77 L
283.542 217.116 L
283.807 217.215 L
284.073 217.035 L
284.338 216.724 L
284.603 216.384 L
284.868 216.055 L
285.133 215.749 L
285.398 215.473 L
285.663 215.228 L
285.929 215.012 L
286.194 214.822 L
286.459 214.651 L
286.724 214.495 L
286.989 214.347 L
287.254 214.201 L
287.519 214.053 L
287.784 213.898 L
288.05 213.737 L
288.315 213.57 L
288.58 213.401 L
288.845 213.235 L
289.11 213.079 L
289.375 212.941 L
289.64 212.829 L
289.906 212.749 L
290.171 212.71 L
290.436 212.716 L
290.701 212.772 L
290.966 212.882 L
291.231 213.046 L
291.496 213.265 L
291.762 213.536 L
292.027 213.857 L
292.292 214.222 L
292.557 214.625 L
292.822 215.057 L
293.087 215.51 L
293.352 215.972 L
293.617 216.428 L
293.883 216.854 L
294.148 217.201 L
294.413 217.359 L
294.678 217.247 L
294.943 216.992 L
295.208 216.714 L
295.473 216.459 L
295.739 216.247 L
296.004 216.088 L
296.269 215.985 L
296.534 215.943 L
296.799 215.96 L
297.064 216.037 L
297.329 216.17 L
297.595 216.356 L
297.86 216.589 L
298.125 216.865 L
298.39 217.174 L
298.655 217.502 L
298.92 217.762 L
299.185 217.598 L
299.451 217.226 L
299.716 216.821 L
299.981 216.408 L
300.246 215.994 L
300.511 215.587 L
300.776 215.189 L
301.041 214.804 L
301.306 214.435 L
301.572 214.082 L
301.837 213.748 L
302.102 213.433 L
302.367 213.135 L
302.632 212.856 L
302.897 212.594 L
303.162 212.348 L
303.428 212.116 L
303.693 211.898 L
303.958 211.691 L
304.223 211.495 L
304.488 211.309 L
304.753 211.132 L
305.018 210.963 L
305.284 210.801 L
305.549 210.648 L
305.814 210.504 L
306.079 210.369 L
306.344 210.244 L
306.609 210.131 L
306.874 210.031 L
307.139 209.946 L
307.405 209.877 L
307.67 209.825 L
307.935 209.793 L
308.2 209.78 L
308.465 209.787 L
308.73 209.816 L
308.995 209.865 L
309.261 209.936 L
309.526 210.026 L
309.791 210.135 L
310.056 210.262 L
310.321 210.405 L
310.586 210.561 L
310.851 210.73 L
311.117 210.91 L
311.382 211.097 L
311.647 211.289 L
311.912 211.486 L
312.177 211.685 L
312.442 211.884 L
312.707 212.082 L
312.972 212.277 L
313.238 212.469 L
313.503 212.657 L
313.768 212.84 L
314.033 213.018 L
314.298 213.191 L
314.563 213.361 L
314.828 213.527 L
315.094 213.692 L
315.359 213.855 L
315.624 214.02 L
315.889 214.187 L
316.154 214.359 L
316.419 214.537 L
316.684 214.724 L
316.95 214.92 L
317.215 215.126 L
317.48 215.344 L
317.745 215.574 L
318.01 215.815 L
318.275 216.065 L
318.54 216.322 L
318.805 216.577 L
319.071 216.819 L
319.336 217.021 L
319.601 217.136 L
319.866 217.112 L
320.131 216.948 L
320.396 216.687 L
320.661 216.369 L
320.927 216.02 L
321.192 215.653 L
321.457 215.276 L
321.722 214.894 L
321.987 214.514 L
322.252 214.138 L
322.517 213.771 L
322.783 213.417 L
323.048 213.079 L
323.313 212.761 L
323.578 212.465 L
323.843 212.196 L
324.108 211.955 L
324.373 211.744 L
324.638 211.565 L
324.904 211.42 L
325.169 211.307 L
325.434 211.227 L
325.699 211.178 L
325.964 211.157 L
326.229 211.161 L
326.494 211.186 L
326.76 211.226 L
327.025 211.276 L
327.29 211.329 L
327.555 211.379 L
327.82 211.42 L
328.085 211.447 L
328.35 211.454 L
328.616 211.439 L
328.881 211.4 L
329.146 211.337 L
329.411 211.253 L
329.676 211.15 L
329.941 211.033 L
330.206 210.906 L
330.471 210.775 L
330.737 210.645 L
331.002 210.521 L
331.267 210.406 L
331.532 210.304 L
331.797 210.218 L
332.062 210.151 L
332.327 210.103 L
332.593 210.076 L
332.858 210.07 L
333.123 210.085 L
333.388 210.122 L
333.653 210.178 L
333.918 210.255 L
334.183 210.35 L
334.449 210.463 L
334.714 210.592 L
334.979 210.737 L
335.244 210.898 L
335.509 211.071 L
335.774 211.258 L
336.039 211.457 L
336.305 211.668 L
336.57 211.888 L
336.835 212.119 L
337.1 212.358 L
337.365 212.606 L
337.63 212.861 L
337.895 213.122 L
338.16 213.389 L
338.426 213.661 L
338.691 213.937 L
338.956 214.215 L
339.221 214.496 L
339.486 214.778 L
339.751 215.061 L
340.016 215.343 L
340.282 215.623 L
340.547 215.902 L
340.812 216.177 L
341.077 216.45 L
341.342 216.718 L
341.607 216.98 L
341.872 217.235 L
342.138 217.473 L
342.403 217.662 L
342.668 217.692 L
342.933 217.53 L
343.198 217.295 L
343.463 217.035 L
343.728 216.76 L
343.993 216.475 L
344.259 216.178 L
344.524 215.87 L
344.789 215.551 L
345.054 215.22 L
345.319 214.879 L
345.584 214.529 L
345.849 214.17 L
346.115 213.804 L
346.38 213.435 L
346.645 213.065 L
346.91 212.696 L
347.175 212.333 L
347.44 211.98 L
347.705 211.64 L
347.971 211.317 L
348.236 211.015 L
348.501 210.738 L
348.766 210.488 L
349.031 210.27 L
349.296 210.086 L
349.561 209.938 L
349.826 209.826 L
350.092 209.752 L
350.357 209.715 L
350.622 209.714 L
350.887 209.747 L
351.152 209.811 L
351.417 209.902 L
351.682 210.015 L
351.948 210.146 L
352.213 210.287 L
352.478 210.433 L
352.743 210.576 L
353.008 210.711 L
353.273 210.831 L
353.538 210.931 L
353.804 211.007 L
354.069 211.057 L
354.334 211.08 L
354.599 211.077 L
354.864 211.049 L
355.129 211.002 L
355.394 210.939 L
355.659 210.866 L
355.925 210.788 L
356.19 210.711 L
356.455 210.638 L
356.72 210.576 L
356.985 210.527 L
357.25 210.495 L
357.515 210.484 L
357.781 210.495 L
358.046 210.532 L
358.311 210.594 L
358.576 210.684 L
358.841 210.801 L
359.106 210.946 L
359.371 211.119 L
359.637 211.319 L
359.902 211.544 L
360.167 211.794 L
360.432 212.065 L
360.697 212.356 L
360.962 212.664 L
361.227 212.985 L
361.492 213.318 L
361.758 213.658 L
362.023 214.001 L
362.288 214.345 L
362.553 214.686 L
362.818 215.021 L
363.083 215.345 L
363.348 215.653 L
363.614 215.942 L
363.879 216.203 L
364.144 216.427 L
364.409 216.599 L
364.674 216.703 L
364.939 216.728 L
365.204 216.673 L
365.47 216.551 L
365.735 216.38 L
366 216.178 L
366.265 215.959 L
366.53 215.732 L
366.795 215.504 L
367.06 215.282 L
367.326 215.069 L
367.591 214.87 L
367.856 214.687 L
368.121 214.523 L
368.386 214.379 L
368.651 214.257 L
368.916 214.155 L
369.181 214.073 L
369.447 214.009 L
369.712 213.96 L
369.977 213.925 L
370.242 213.899 L
370.507 213.878 L
370.772 213.859 L
371.037 213.841 L
371.303 213.82 L
371.568 213.796 L
371.833 213.769 L
372.098 213.741 L
372.363 213.715 L
372.628 213.693 L
372.893 213.68 L
373.159 213.678 L
373.424 213.692 L
373.689 213.723 L
373.954 213.773 L
374.219 213.843 L
374.484 213.93 L
374.749 214.034 L
375.014 214.149 L
375.28 214.269 L
375.545 214.389 L
375.81 214.498 L
376.075 214.59 L
376.34 214.655 L
376.605 214.688 L
376.87 214.685 L
377.136 214.646 L
377.401 214.575 L
377.666 214.479 L
377.931 214.366 L
378.196 214.246 L
378.461 214.127 L
378.726 214.016 L
378.992 213.922 L
379.257 213.848 L
379.522 213.798 L
379.787 213.775 L
380.052 213.779 L
380.317 213.81 L
380.582 213.866 L
380.847 213.944 L
381.113 214.041 L
381.378 214.151 L
381.643 214.271 L
381.908 214.394 L
382.173 214.515 L
382.438 214.631 L
382.703 214.737 L
382.969 214.83 L
383.234 214.91 L
383.499 214.977 L
383.764 215.032 L
384.029 215.078 L
384.294 215.117 L
384.559 215.15 L
384.825 215.179 L
385.09 215.2 L
385.355 215.212 L
385.62 215.208 L
385.885 215.179 L
386.15 215.117 L
386.415 215.014 L
386.68 214.862 L
386.946 214.659 L
387.211 214.403 L
387.476 214.1 L
387.741 213.754 L
388.006 213.374 L
388.271 212.969 L
388.536 212.547 L
388.802 212.116 L
389.067 211.686 L
389.332 211.265 L
389.597 210.859 L
389.862 210.476 L
390.127 210.122 L
390.392 209.802 L
390.658 209.522 L
390.923 209.285 L
391.188 209.094 L
391.453 208.951 L
391.718 208.858 L
391.983 208.815 L
392.248 208.82 L
392.513 208.874 L
392.779 208.973 L
393.044 209.115 L
393.309 209.295 L
393.574 209.51 L
393.839 209.755 L
394.104 210.025 L
394.369 210.315 L
394.635 210.619 L
394.9 210.931 L
395.165 211.248 L
395.43 211.563 L
395.695 211.872 L
395.96 212.172 L
396.225 212.458 L
396.491 212.727 L
396.756 212.977 L
397.021 213.206 L
397.286 213.412 L
397.551 213.595 L
397.816 213.754 L
398.081 213.889 L
398.346 214 L
398.612 214.087 L
398.877 214.152 L
399.142 214.195 L
399.407 214.218 L
399.672 214.224 L
399.937 214.214 L
400.202 214.192 L
400.468 214.162 L
400.733 214.125 L
400.998 214.086 L
401.263 214.047 L
401.528 214.012 L
401.793 213.982 L
402.058 213.96 L
402.324 213.946 L
402.589 213.942 L
402.854 213.947 L
403.119 213.961 L
403.384 213.983 L
403.649 214.01 L
403.914 214.043 L
404.18 214.077 L
404.445 214.111 L
404.71 214.142 L
404.975 214.168 L
405.24 214.185 L
405.505 214.193 L
405.77 214.188 L
406.035 214.168 L
406.301 214.133 L
406.566 214.079 L
406.831 214.005 L
407.096 213.909 L
407.361 213.791 L
407.626 213.648 L
407.891 213.481 L
408.157 213.289 L
408.422 213.074 L
408.687 212.836 L
408.952 212.579 L
409.217 212.306 L
409.482 212.02 L
409.747 211.726 L
410.013 211.429 L
410.278 211.135 L
410.543 210.849 L
410.808 210.576 L
411.073 210.321 L
411.338 210.09 L
411.603 209.888 L
411.868 209.717 L
412.134 209.581 L
412.399 209.483 L
412.664 209.424 L
412.929 209.405 L
413.194 209.426 L
413.459 209.486 L
413.724 209.581 L
413.99 209.71 L
414.255 209.868 L
414.52 210.051 L
414.785 210.252 L
415.05 210.467 L
415.315 210.688 L
415.58 210.91 L
415.846 211.127 L
416.111 211.332 L
416.376 211.521 L
416.641 211.691 L
416.906 211.839 L
417.171 211.964 L
417.436 212.067 L
417.701 212.148 L
417.967 212.211 L
418.232 212.257 L
418.497 212.29 L
418.762 212.312 L
419.027 212.323 L
419.292 212.325 L
419.557 212.317 L
419.823 212.298 L
420.088 212.264 L
420.353 212.214 L
420.618 212.144 L
420.883 212.053 L
421.148 211.938 L
421.413 211.798 L
421.679 211.635 L
421.944 211.451 L
422.209 211.249 L
422.474 211.034 L
422.739 210.811 L
423.004 210.586 L
423.269 210.366 L
423.534 210.156 L
423.8 209.963 L
424.065 209.793 L
424.33 209.651 L
424.595 209.541 L
424.86 209.467 L
425.125 209.433 L
425.39 209.441 L
425.656 209.493 L
425.921 209.59 L
426.186 209.732 L
426.451 209.919 L
426.716 210.148 L
426.981 210.418 L
427.246 210.726 L
427.512 211.067 L
427.777 211.437 L
428.042 211.828 L
428.307 212.234 L
428.572 212.643 L
428.837 213.044 L
429.102 213.421 L
429.367 213.755 L
429.633 214.023 L
429.898 214.204 L
430.163 214.277 L
430.428 214.231 L
430.693 214.07 L
430.958 213.809 L
431.223 213.468 L
431.489 213.068 L
431.754 212.629 L
432.019 212.165 L
432.284 211.688 L
432.549 211.209 L
432.814 210.733 L
433.079 210.266 L
433.345 209.812 L
433.61 209.375 L
433.875 208.955 L
434.14 208.556 L
434.405 208.177 L
434.67 207.82 L
434.935 207.484 L
435.201 207.171 L
435.466 206.88 L
435.731 206.611 L
435.996 206.365 L
436.261 206.142 L
436.526 205.943 L
436.791 205.769 L
437.056 205.621 L
437.322 205.501 L
437.587 205.411 L
437.852 205.353 L
438.117 205.329 L
438.382 205.343 L
438.647 205.396 L
438.912 205.491 L
439.178 205.631 L
439.443 205.817 L
439.708 206.052 L
439.973 206.335 L
440.238 206.669 L
440.503 207.052 L
440.768 207.484 L
441.034 207.962 L
441.299 208.485 L
441.564 209.047 L
441.829 209.643 L
442.094 210.266 L
442.359 210.909 L
442.624 211.559 L
442.889 212.202 L
443.155 212.822 L
443.42 213.393 L
443.685 213.886 L
443.95 214.266 L
444.215 214.497 L
444.48 214.557 L
444.745 214.454 L
445.011 214.218 L
445.276 213.896 L
445.541 213.526 L
445.806 213.143 L
446.071 212.769 L
446.336 212.422 L
446.601 212.113 L
446.867 211.851 L
447.132 211.64 L
447.397 211.484 L
447.662 211.383 L
447.927 211.337 L
448.192 211.344 L
448.457 211.401 L
448.722 211.504 L
448.988 211.648 L
449.253 211.828 L
449.518 212.038 L
449.783 212.27 L
450.048 212.519 L
450.313 212.778 L
450.578 213.039 L
450.844 213.297 L
451.109 213.546 L
451.374 213.78 L
451.639 213.994 L
451.904 214.184 L
452.169 214.346 L
452.434 214.479 L
452.7 214.581 L
452.965 214.651 L
453.23 214.69 L
453.495 214.699 L
453.76 214.68 L
454.025 214.636 L
454.29 214.572 L
454.555 214.491 L
454.821 214.399 L
455.086 214.301 L
455.351 214.202 L
455.616 214.11 L
455.881 214.028 L
456.146 213.963 L
456.411 213.919 L
456.677 213.902 L
456.942 213.916 L
457.207 213.964 L
457.472 214.047 L
457.737 214.169 L
458.002 214.329 L
458.267 214.527 L
458.533 214.762 L
458.798 215.031 L
459.063 215.33 L
459.328 215.655 L
459.593 216 L
459.858 216.356 L
460.123 216.712 L
460.388 217.049 L
460.654 217.324 L
460.919 217.438 L
461.184 217.324 L
461.449 217.082 L
461.714 216.81 L
461.979 216.544 L
462.244 216.301 L
462.51 216.088 L
462.775 215.909 L
463.04 215.763 L
463.305 215.647 L
463.57 215.559 L
463.835 215.489 L
464.1 215.428 L
464.366 215.364 L
464.631 215.286 L
464.896 215.18 L
465.161 215.037 L
465.426 214.853 L
465.691 214.628 L
465.956 214.365 L
466.221 214.073 L
466.487 213.761 L
466.752 213.438 L
467.017 213.116 L
467.282 212.804 L
467.547 212.511 L
467.812 212.246 L
468.077 212.016 L
468.343 211.826 L
468.608 211.682 L
468.873 211.587 L
469.138 211.544 L
469.403 211.554 L
469.668 211.618 L
469.933 211.734 L
470.199 211.9 L
470.464 212.114 L
470.729 212.372 L
470.994 212.67 L
471.259 213.002 L
471.524 213.362 L
471.789 213.746 L
472.055 214.145 L
472.32 214.555 L
472.585 214.968 L
472.85 215.379 L
473.115 215.78 L
473.38 216.165 L
473.645 216.527 L
473.91 216.859 L
474.176 217.147 L
474.441 217.372 L
474.706 217.495 L
474.971 217.494 L
475.236 217.405 L
475.501 217.287 L
475.766 217.171 L
476.032 217.07 L
476.297 216.985 L
476.562 216.917 L
476.827 216.863 L
477.092 216.82 L
477.357 216.782 L
477.622 216.746 L
477.888 216.709 L
478.153 216.669 L
478.418 216.623 L
478.683 216.572 L
478.948 216.516 L
479.213 216.457 L
479.478 216.393 L
479.743 216.324 L
480.009 216.246 L
480.274 216.152 L
480.539 216.034 L
480.804 215.88 L
481.069 215.678 L
481.334 215.414 L
481.599 215.08 L
481.865 214.668 L
482.13 214.177 L
482.395 213.604 L
482.66 212.952 L
482.925 212.224 L
483.19 211.424 L
483.455 210.559 L
483.721 209.635 L
483.986 208.662 L
484.251 207.647 L
484.516 206.601 L
484.781 205.535 L
485.046 204.462 L
485.311 203.393 L
485.576 202.341 L
485.842 201.321 L
486.107 200.345 L
486.372 199.426 L
486.637 198.578 L
486.902 197.813 L
487.167 197.141 L
487.432 196.574 L
487.698 196.12 L
487.963 195.786 L
488.228 195.58 L
488.493 195.504 L
488.758 195.562 L
489.023 195.753 L
489.288 196.076 L
489.554 196.527 L
489.819 197.101 L
490.084 197.791 L
490.349 198.588 L
490.614 199.481 L
490.879 200.459 L
491.144 201.509 L
491.409 202.617 L
491.675 203.769 L
491.94 204.951 L
492.205 206.147 L
492.47 207.343 L
492.735 208.524 L
493 209.677 L
493.265 210.786 L
493.531 211.839 L
493.796 212.821 L
494.061 213.716 L
494.326 214.506 L
494.591 215.165 L
494.856 215.664 L
495.121 215.969 L
495.387 216.078 L
495.652 216.03 L
495.917 215.897 L
496.182 215.737 L
496.447 215.588 L
496.712 215.471 L
496.977 215.395 L
497.242 215.363 L
497.508 215.373 L
497.773 215.421 L
498.038 215.502 L
498.303 215.604 L
498.568 215.717 L
498.833 215.822 L
499.098 215.9 L
499.364 215.928 L
499.629 215.887 L
499.894 215.766 L
500.159 215.564 L
500.424 215.294 L
500.689 214.969 L
500.954 214.605 L
501.22 214.215 L
501.485 213.812 L
501.75 213.405 L
502.015 213.003 L
502.28 212.614 L
502.545 212.244 L
502.81 211.9 L
503.076 211.587 L
503.341 211.308 L
503.606 211.069 L
503.871 210.872 L
504.136 210.72 L
504.401 210.615 L
504.666 210.558 L
504.931 210.55 L
505.197 210.592 L
505.462 210.682 L
505.727 210.821 L
505.992 211.005 L
506.257 211.234 L
506.522 211.503 L
506.787 211.809 L
507.053 212.147 L
507.318 212.51 L
507.583 212.89 L
507.848 213.277 L
508.113 213.659 L
508.378 214.019 L
508.643 214.337 L
508.909 214.592 L
509.174 214.762 L
509.439 214.828 L
509.704 214.787 L
509.969 214.648 L
510.234 214.43 L
510.499 214.159 L
510.764 213.856 L
511.03 213.539 L
511.295 213.224 L
511.56 212.919 L
511.825 212.632 L
512.09 212.367 L
512.355 212.127 L
512.62 211.91 L
512.886 211.718 L
513.151 211.546 L
513.416 211.393 L
513.681 211.256 L
513.946 211.131 L
514.211 211.017 L
514.476 210.911 L
514.742 210.812 L
515.007 210.722 L
515.272 210.641 L
515.537 210.571 L
515.802 210.516 L
516.067 210.478 L
516.332 210.462 L
516.597 210.472 L
516.863 210.509 L
517.128 210.577 L
517.393 210.678 L
517.658 210.813 L
517.923 210.982 L
518.188 211.183 L
518.453 211.415 L
518.719 211.675 L
518.984 211.958 L
519.249 212.259 L
519.514 212.574 L
519.779 212.894 L
520.044 213.214 L
520.309 213.525 L
520.575 213.821 L
520.84 214.093 L
521.105 214.334 L
521.37 214.539 L
521.635 214.704 L
521.9 214.828 L
522.165 214.912 L
522.43 214.96 L
522.696 214.981 L
522.961 214.981 L
523.226 214.968 L
523.491 214.95 L
523.756 214.933 L
524.021 214.922 L
524.286 214.921 L
524.552 214.931 L
524.817 214.953 L
525.082 214.988 L
525.347 215.032 L
525.612 215.084 L
525.877 215.14 L
526.142 215.193 L
526.408 215.238 L
526.673 215.267 L
526.938 215.274 L
527.203 215.253 L
527.468 215.197 L
527.733 215.105 L
527.998 214.975 L
528.263 214.809 L
528.529 214.61 L
528.794 214.382 L
529.059 214.13 L
529.324 213.856 L
529.589 213.567 L
529.854 213.264 L
530.119 212.952 L
530.385 212.633 L
530.65 212.311 L
530.915 211.988 L
531.18 211.669 L
531.445 211.356 L
531.71 211.053 L
531.975 210.764 L
532.241 210.494 L
532.506 210.248 L
532.771 210.029 L
533.036 209.842 L
533.301 209.692 L
533.566 209.583 L
533.831 209.519 L
534.096 209.503 L
534.362 209.536 L
534.627 209.621 L
534.892 209.758 L
535.157 209.946 L
535.422 210.182 L
535.687 210.463 L
535.952 210.785 L
536.218 211.139 L
536.483 211.518 L
536.748 211.911 L
537.013 212.305 L
537.278 212.684 L
537.543 213.029 L
537.808 213.321 L
538.074 213.539 L
538.339 213.666 L
538.604 213.693 L
538.869 213.618 L
539.134 213.453 L
539.399 213.215 L
539.664 212.924 L
539.93 212.597 L
540.195 212.253 L
540.46 211.903 L
540.725 211.558 L
540.99 211.227 L
541.255 210.914 L
541.52 210.625 L
541.785 210.362 L
542.051 210.128 L
542.316 209.924 L
542.581 209.753 L
542.846 209.613 L
543.111 209.507 L
543.376 209.436 L
543.641 209.398 L
543.907 209.396 L
544.172 209.429 L
544.437 209.497 L
544.702 209.602 L
544.967 209.744 L
545.232 209.921 L
545.497 210.135 L
545.763 210.384 L
546.028 210.669 L
546.293 210.989 L
546.558 211.342 L
546.823 211.727 L
547.088 212.142 L
547.353 212.586 L
547.618 213.056 L
547.884 213.548 L
548.149 214.056 L
548.414 214.574 L
548.679 215.089 L
548.944 215.581 L
549.209 216.012 L
549.474 216.313 L
549.74 216.391 L
550.005 216.207 L
550.27 215.822 L
550.535 215.323 L
550.8 214.767 L
551.065 214.186 L
551.33 213.599 L
551.596 213.02 L
551.861 212.457 L
552.126 211.919 L
552.391 211.412 L
552.656 210.943 L
552.921 210.516 L
553.186 210.138 L
553.451 209.812 L
553.717 209.542 L
553.982 209.332 L
554.247 209.183 L
554.512 209.099 L
554.777 209.08 L
555.042 209.128 L
555.307 209.241 L
555.573 209.42 L
555.838 209.664 L
556.103 209.97 L
556.368 210.336 L
556.633 210.759 L
556.898 211.235 L
557.163 211.761 L
557.429 212.332 L
557.694 212.943 L
557.959 213.59 L
558.224 214.266 L
558.489 214.968 L
558.754 215.688 L
559.019 216.422 L
559.284 217.165 L
559.55 217.91 L
559.815 217.346 L
560.08 216.61 L
560.345 215.885 L
560.61 215.177 L
560.875 214.49 L
561.14 213.827 L
561.406 213.191 L
561.671 212.587 L
561.936 212.016 L
562.201 211.481 L
562.466 210.983 L
562.731 210.525 L
562.996 210.107 L
563.262 209.73 L
563.527 209.394 L
563.792 209.1 L
564.057 208.847 L
564.322 208.634 L
564.587 208.461 L
564.852 208.327 L
565.117 208.229 L
565.383 208.168 L
565.648 208.14 L
565.913 208.145 L
566.178 208.18 L
566.443 208.243 L
566.708 208.332 L
566.973 208.445 L
567.239 208.581 L
567.504 208.737 L
567.769 208.91 L
568.034 209.1 L
568.299 209.304 L
568.564 209.521 L
568.829 209.749 L
569.095 209.986 L
569.36 210.23 L
569.625 210.481 L
569.89 210.737 L
570.155 210.996 L
570.42 211.257 L
570.685 211.518 L
570.951 211.779 L
571.216 212.038 L
571.481 212.295 L
571.746 212.547 L
572.011 212.795 L
572.276 213.037 L
572.541 213.273 L
572.806 213.503 L
573.072 213.726 L
573.337 213.944 L
573.602 214.155 L
573.867 214.36 L
574.132 214.559 L
574.397 214.754 L
574.662 214.943 L
574.928 215.127 L
575.193 215.306 L
575.458 215.479 L
575.723 215.646 L
575.988 215.807 L
576.253 215.96 L
576.518 216.106 L
576.784 216.245 L
577.049 216.376 L
577.314 216.5 L
577.579 216.619 L
577.844 216.735 L
578.109 216.85 L
578.374 216.966 L
578.639 217.086 L
578.905 217.214 L
579.17 217.35 L
579.435 217.497 L
579.7 217.65 L
579.965 217.798 L
580.23 217.843 L
580.495 217.701 L
580.761 217.5 L
581.026 217.28 L
581.291 217.049 L
581.556 216.813 L
581.821 216.575 L
582.086 216.338 L
582.351 216.108 L
582.617 215.887 L
582.882 215.68 L
583.147 215.49 L
583.412 215.32 L
583.677 215.172 L
583.942 215.05 L
584.207 214.954 L
584.472 214.886 L
584.738 214.844 L
585.003 214.828 L
585.268 214.834 L
585.533 214.859 L
585.798 214.895 L
586.063 214.936 L
586.328 214.971 L
586.594 214.988 L
586.859 214.976 L
587.124 214.924 L
587.389 214.824 L
587.654 214.67 L
587.919 214.465 L
588.184 214.211 L
588.45 213.918 L
588.715 213.593 L
588.98 213.247 L
589.245 212.89 L
589.51 212.53 L
589.775 212.177 L
590.04 211.838 L
590.305 211.521 L
590.571 211.233 L
590.836 210.98 L
591.101 210.768 L
591.366 210.602 L
591.631 210.485 L
591.896 210.422 L
592.161 210.415 L
592.427 210.464 L
592.692 210.57 L
592.957 210.733 L
593.222 210.949 L
593.487 211.214 L
593.752 211.524 L
594.017 211.869 L
594.283 212.238 L
594.548 212.617 L
594.813 212.986 L
595.078 213.322 L
595.343 213.596 L
595.608 213.775 L
595.873 213.834 L
596.138 213.757 L
596.404 213.546 L
596.669 213.22 L
596.934 212.804 L
597.199 212.328 L
597.464 211.815 L
597.729 211.287 L
597.994 210.76 L
598.26 210.248 L
598.525 209.762 L
598.79 209.309 L
599.055 208.898 L
599.32 208.532 L
599.585 208.215 L
599.85 207.951 L
600.116 207.74 L
600.381 207.582 L
600.646 207.478 L
600.911 207.427 L
601.176 207.425 L
601.441 207.471 L
601.706 207.562 L
601.971 207.693 L
602.237 207.86 L
602.502 208.06 L
602.767 208.288 L
603.032 208.537 L
603.297 208.804 L
603.562 209.083 L
603.827 209.369 L
604.093 209.656 L
604.358 209.94 L
604.623 210.215 L
604.888 210.477 L
605.153 210.721 L
605.418 210.945 L
605.683 211.143 L
605.949 211.315 L
606.214 211.457 L
606.479 211.57 L
606.744 211.653 L
607.009 211.708 L
607.274 211.734 L
607.539 211.736 L
607.805 211.716 L
608.07 211.676 L
608.335 211.62 L
608.6 211.552 L
608.865 211.474 L
609.13 211.391 L
609.395 211.305 L
609.66 211.219 L
609.926 211.137 L
610.191 211.061 L
610.456 210.994 L
610.721 210.937 L
610.986 210.894 L
611.251 210.867 L
611.516 210.856 L
611.782 210.865 L
612.047 210.894 L
612.312 210.945 L
612.577 211.019 L
612.842 211.117 L
613.107 211.239 L
613.372 211.387 L
613.638 211.561 L
613.903 211.76 L
614.168 211.984 L
614.433 212.234 L
614.698 212.507 L
614.963 212.802 L
615.228 213.119 L
615.493 213.454 L
615.759 213.804 L
616.024 214.165 L
616.289 214.532 L
616.554 214.899 L
616.819 215.256 L
617.084 215.591 L
617.349 215.887 L
617.615 216.123 L
617.88 216.276 L
618.145 216.328 L
618.41 216.281 L
618.675 216.156 L
618.94 215.983 L
619.205 215.79 L
619.471 215.597 L
619.736 215.419 L
620.001 215.268 L
620.266 215.149 L
620.531 215.067 L
620.796 215.023 L
621.061 215.018 L
621.326 215.049 L
621.592 215.109 L
621.857 215.189 L
622.122 215.278 L
622.387 215.356 L
622.652 215.405 L
622.917 215.403 L
623.182 215.333 L
623.448 215.186 L
623.713 214.964 L
623.978 214.678 L
624.243 214.343 L
624.508 213.977 L
624.773 213.596 L
625.038 213.213 L
625.304 212.843 L
625.569 212.496 L
625.834 212.182 L
626.099 211.91 L
626.364 211.686 L
626.629 211.516 L
626.894 211.406 L
627.159 211.357 L
627.425 211.372 L
627.69 211.451 L
627.955 211.594 L
628.22 211.799 L
628.485 212.062 L
628.75 212.379 L
629.015 212.744 L
629.281 213.149 L
629.546 213.586 L
629.811 214.045 L
630.076 214.51 L
630.341 214.964 L
630.606 215.383 L
630.871 215.731 L
631.137 215.966 L
631.402 216.048 L
631.667 215.968 L
631.932 215.759 L
632.197 215.472 L
632.462 215.149 L
632.727 214.82 L
632.992 214.506 L
633.258 214.22 L
633.523 213.969 L
633.788 213.76 L
634.053 213.596 L
634.054 213.596 L
S
GR
GS
[0.6 0 0 0.6 0 0] CT
1 GC
N
91 467 M
634 467 L
634 291 L
91 291 L
cp
f
GR
GS
[0.6 0 0 0.6 0 0] CT
0.149 GC
2 setlinecap
1 LJ
0.833 LW
N
91 467 M
634 467 L
S
GR
GS
[0.6 0 0 0.6 0 0] CT
0.149 GC
2 setlinecap
1 LJ
0.833 LW
N
91 291 M
634 291 L
S
GR
GS
[0.6 0 0 0.6 0 0] CT
0.149 GC
2 setlinecap
1 LJ
0.833 LW
N
91 467 M
91 461.57 L
S
GR
GS
[0.6 0 0 0.6 0 0] CT
0.149 GC
2 setlinecap
1 LJ
0.833 LW
N
199.6 467 M
199.6 461.57 L
S
GR
GS
[0.6 0 0 0.6 0 0] CT
0.149 GC
2 setlinecap
1 LJ
0.833 LW
N
308.2 467 M
308.2 461.57 L
S
GR
GS
[0.6 0 0 0.6 0 0] CT
0.149 GC
2 setlinecap
1 LJ
0.833 LW
N
416.8 467 M
416.8 461.57 L
S
GR
GS
[0.6 0 0 0.6 0 0] CT
0.149 GC
2 setlinecap
1 LJ
0.833 LW
N
525.4 467 M
525.4 461.57 L
S
GR
GS
[0.6 0 0 0.6 0 0] CT
0.149 GC
2 setlinecap
1 LJ
0.833 LW
N
634 467 M
634 461.57 L
S
GR
GS
[0.6 0 0 0.6 0 0] CT
0.149 GC
2 setlinecap
1 LJ
0.833 LW
N
91 291 M
91 296.43 L
S
GR
GS
[0.6 0 0 0.6 0 0] CT
0.149 GC
2 setlinecap
1 LJ
0.833 LW
N
199.6 291 M
199.6 296.43 L
S
GR
GS
[0.6 0 0 0.6 0 0] CT
0.149 GC
2 setlinecap
1 LJ
0.833 LW
N
308.2 291 M
308.2 296.43 L
S
GR
GS
[0.6 0 0 0.6 0 0] CT
0.149 GC
2 setlinecap
1 LJ
0.833 LW
N
416.8 291 M
416.8 296.43 L
S
GR
GS
[0.6 0 0 0.6 0 0] CT
0.149 GC
2 setlinecap
1 LJ
0.833 LW
N
525.4 291 M
525.4 296.43 L
S
GR
GS
[0.6 0 0 0.6 0 0] CT
0.149 GC
2 setlinecap
1 LJ
0.833 LW
N
634 291 M
634 296.43 L
S
GR
GS
[0.6 0 0 0.6 54.60001 284.19999] CT
0.149 GC
/Helvetica 16.667 F
GS
[1 0 0 1 0 0] CT
-17 18 moveto 
1 -1 scale
(0.15) t 
GR
GR
GS
[0.6 0 0 0.6 119.76 284.19999] CT
0.149 GC
/Helvetica 16.667 F
GS
[1 0 0 1 0 0] CT
-12 18 moveto 
1 -1 scale
(0.2) t 
GR
GR
GS
[0.6 0 0 0.6 184.92001 284.19999] CT
0.149 GC
/Helvetica 16.667 F
GS
[1 0 0 1 0 0] CT
-17 18 moveto 
1 -1 scale
(0.25) t 
GR
GR
GS
[0.6 0 0 0.6 250.08001 284.19999] CT
0.149 GC
/Helvetica 16.667 F
GS
[1 0 0 1 0 0] CT
-12 18 moveto 
1 -1 scale
(0.3) t 
GR
GR
GS
[0.6 0 0 0.6 315.23998 284.19999] CT
0.149 GC
/Helvetica 16.667 F
GS
[1 0 0 1 0 0] CT
-17 18 moveto 
1 -1 scale
(0.35) t 
GR
GR
GS
[0.6 0 0 0.6 380.4 284.19999] CT
0.149 GC
/Helvetica 16.667 F
GS
[1 0 0 1 0 0] CT
-12 18 moveto 
1 -1 scale
(0.4) t 
GR
GR
GS
[0.6 0 0 0.6 0 0] CT
0.149 GC
2 setlinecap
1 LJ
0.833 LW
N
91 467 M
91 291 L
S
GR
GS
[0.6 0 0 0.6 0 0] CT
0.149 GC
2 setlinecap
1 LJ
0.833 LW
N
634 467 M
634 291 L
S
GR
GS
[0.6 0 0 0.6 0 0] CT
0.149 GC
2 setlinecap
1 LJ
0.833 LW
N
91 467 M
96.43 467 L
S
GR
GS
[0.6 0 0 0.6 0 0] CT
0.149 GC
2 setlinecap
1 LJ
0.833 LW
N
91 423 M
96.43 423 L
S
GR
GS
[0.6 0 0 0.6 0 0] CT
0.149 GC
2 setlinecap
1 LJ
0.833 LW
N
91 379 M
96.43 379 L
S
GR
GS
[0.6 0 0 0.6 0 0] CT
0.149 GC
2 setlinecap
1 LJ
0.833 LW
N
91 335 M
96.43 335 L
S
GR
GS
[0.6 0 0 0.6 0 0] CT
0.149 GC
2 setlinecap
1 LJ
0.833 LW
N
91 291 M
96.43 291 L
S
GR
GS
[0.6 0 0 0.6 0 0] CT
0.149 GC
2 setlinecap
1 LJ
0.833 LW
N
634 467 M
628.57 467 L
S
GR
GS
[0.6 0 0 0.6 0 0] CT
0.149 GC
2 setlinecap
1 LJ
0.833 LW
N
634 423 M
628.57 423 L
S
GR
GS
[0.6 0 0 0.6 0 0] CT
0.149 GC
2 setlinecap
1 LJ
0.833 LW
N
634 379 M
628.57 379 L
S
GR
GS
[0.6 0 0 0.6 0 0] CT
0.149 GC
2 setlinecap
1 LJ
0.833 LW
N
634 335 M
628.57 335 L
S
GR
GS
[0.6 0 0 0.6 0 0] CT
0.149 GC
2 setlinecap
1 LJ
0.833 LW
N
634 291 M
628.57 291 L
S
GR
GS
[0.6 0 0 0.6 50.6 280.2] CT
0.149 GC
/Helvetica 16.667 F
GS
[1 0 0 1 0 0] CT
-16 7 moveto 
1 -1 scale
(-4) t 
GR
GR
GS
[0.6 0 0 0.6 50.6 253.8] CT
0.149 GC
/Helvetica 16.667 F
GS
[1 0 0 1 0 0] CT
-16 7 moveto 
1 -1 scale
(-2) t 
GR
GR
GS
[0.6 0 0 0.6 50.6 227.4] CT
0.149 GC
/Helvetica 16.667 F
GS
[1 0 0 1 0 0] CT
-10 7 moveto 
1 -1 scale
(0) t 
GR
GR
GS
[0.6 0 0 0.6 50.6 201] CT
0.149 GC
/Helvetica 16.667 F
GS
[1 0 0 1 0 0] CT
-10 7 moveto 
1 -1 scale
(2) t 
GR
GR
GS
[0.6 0 0 0.6 50.6 174.6] CT
0.149 GC
/Helvetica 16.667 F
GS
[1 0 0 1 0 0] CT
-10 7 moveto 
1 -1 scale
(4) t 
GR
GR
GS
[0.6 0 0 0.6 217.5002 172.95] CT
/Helvetica-Bold 18.333 F
GS
[1 0 0 1 0 0] CT
-62.5 -4 moveto 
1 -1 scale
(arg\( X\(f\) \) [rad]) t 
GR
GR
GS
[0.6 0 0 0.6 0 0] CT
0 0.447 0.741 RC
1 LJ
0.833 LW
N
90.946 423.258 M
91.053 423.645 L
91.318 424.692 L
91.583 425.807 L
91.848 427.003 L
92.114 428.317 L
92.379 429.784 L
92.644 431.432 L
92.909 433.277 L
93.174 435.319 L
93.439 437.55 L
93.704 439.953 L
93.97 442.51 L
94.235 445.196 L
94.5 447.988 L
94.765 312.631 L
95.03 315.561 L
95.295 318.518 L
95.56 321.47 L
95.825 324.372 L
96.091 327.167 L
96.356 329.759 L
96.621 331.992 L
96.886 333.565 L
97.151 333.853 L
97.416 331.494 L
97.681 324.429 L
97.947 314.926 L
98.212 447.828 L
98.477 446.613 L
98.742 447.503 L
99.007 311.209 L
99.272 313.709 L
99.537 316.534 L
99.803 319.555 L
100.068 322.697 L
100.333 325.91 L
100.598 329.161 L
100.863 332.424 L
101.128 335.68 L
101.393 338.913 L
101.658 342.108 L
101.924 345.253 L
102.189 348.338 L
102.454 351.354 L
102.719 354.294 L
102.984 357.153 L
103.249 359.931 L
103.514 362.632 L
103.78 365.262 L
104.045 367.833 L
104.31 370.363 L
104.575 372.868 L
104.84 375.369 L
105.105 377.884 L
105.37 380.43 L
105.636 383.019 L
105.901 385.658 L
106.166 388.348 L
106.431 391.087 L
106.696 393.868 L
106.961 396.681 L
107.226 399.512 L
107.492 402.347 L
107.757 405.172 L
108.022 407.97 L
108.287 410.729 L
108.552 413.435 L
108.817 416.08 L
109.082 418.66 L
109.347 421.176 L
109.613 423.638 L
109.878 426.061 L
110.143 428.469 L
110.408 430.887 L
110.673 433.348 L
110.938 435.878 L
111.203 438.503 L
111.469 441.243 L
111.734 444.11 L
111.999 447.112 L
112.264 312.021 L
112.529 315.295 L
112.794 318.699 L
113.059 322.227 L
113.325 325.872 L
113.59 329.627 L
113.855 333.485 L
114.12 337.437 L
114.385 341.476 L
114.65 345.594 L
114.915 349.783 L
115.18 354.032 L
115.446 358.329 L
115.711 362.658 L
115.976 367.003 L
116.241 371.34 L
116.506 375.643 L
116.771 379.883 L
117.036 384.027 L
117.302 388.041 L
117.567 391.893 L
117.832 395.557 L
118.097 399.013 L
118.362 402.258 L
118.627 405.303 L
118.892 408.176 L
119.158 410.923 L
119.423 413.595 L
119.688 416.247 L
119.953 418.928 L
120.218 421.674 L
120.483 424.507 L
120.748 427.439 L
121.013 430.471 L
121.279 433.601 L
121.544 436.819 L
121.809 440.117 L
122.074 443.486 L
122.339 446.918 L
122.604 312.175 L
122.869 315.712 L
123.135 319.296 L
123.4 322.923 L
123.665 326.594 L
123.93 330.309 L
124.195 334.069 L
124.46 337.877 L
124.725 341.739 L
124.991 345.657 L
125.256 349.637 L
125.521 353.685 L
125.786 357.806 L
126.051 362.003 L
126.316 366.281 L
126.581 370.642 L
126.846 375.086 L
127.112 379.61 L
127.377 384.21 L
127.642 388.878 L
127.907 393.606 L
128.172 398.382 L
128.437 403.193 L
128.702 408.026 L
128.968 412.868 L
129.233 417.707 L
129.498 422.533 L
129.763 427.337 L
130.028 432.114 L
130.293 436.86 L
130.558 441.571 L
130.824 446.25 L
131.089 312.665 L
131.354 317.28 L
131.619 321.868 L
131.884 326.433 L
132.149 330.978 L
132.414 335.509 L
132.679 340.03 L
132.945 344.545 L
133.21 349.059 L
133.475 353.577 L
133.74 358.103 L
134.005 362.64 L
134.27 367.19 L
134.535 371.756 L
134.801 376.337 L
135.066 380.931 L
135.331 385.535 L
135.596 390.143 L
135.861 394.747 L
136.126 399.337 L
136.391 403.901 L
136.657 408.428 L
136.922 412.906 L
137.187 417.321 L
137.452 421.665 L
137.717 425.926 L
137.982 430.098 L
138.247 434.175 L
138.512 438.149 L
138.778 442.017 L
139.043 445.77 L
139.308 311.173 L
139.573 314.674 L
139.838 318.032 L
140.103 321.23 L
140.368 324.249 L
140.634 327.067 L
140.899 329.66 L
141.164 332.011 L
141.429 334.11 L
141.694 335.971 L
141.959 337.639 L
142.224 339.193 L
142.49 340.742 L
142.755 342.407 L
143.02 344.29 L
143.285 346.464 L
143.55 348.966 L
143.815 351.798 L
144.08 354.948 L
144.346 358.388 L
144.611 362.087 L
144.876 366.016 L
145.141 370.143 L
145.406 374.44 L
145.671 378.88 L
145.936 383.436 L
146.201 388.086 L
146.467 392.806 L
146.732 397.577 L
146.997 402.382 L
147.262 407.204 L
147.527 412.032 L
147.792 416.857 L
148.057 421.672 L
148.323 426.473 L
148.588 431.259 L
148.853 436.03 L
149.118 440.791 L
149.383 445.544 L
149.648 312.067 L
149.913 316.826 L
150.179 321.599 L
150.444 326.397 L
150.709 331.229 L
150.974 336.107 L
151.239 341.042 L
151.504 346.048 L
151.769 351.137 L
152.034 356.321 L
152.3 361.613 L
152.565 367.022 L
152.83 372.552 L
153.095 378.204 L
153.36 383.968 L
153.625 389.828 L
153.89 395.757 L
154.156 401.72 L
154.421 407.678 L
154.686 413.588 L
154.951 419.415 L
155.216 425.13 L
155.481 430.709 L
155.746 436.142 L
156.012 441.423 L
156.277 446.552 L
156.542 313.302 L
156.807 318.138 L
157.072 322.837 L
157.337 327.401 L
157.602 331.835 L
157.867 336.139 L
158.133 340.311 L
158.398 344.347 L
158.663 348.239 L
158.928 351.978 L
159.193 355.549 L
159.458 358.934 L
159.723 362.116 L
159.989 365.076 L
160.254 367.797 L
160.519 370.271 L
160.784 372.507 L
161.049 374.534 L
161.314 376.405 L
161.579 378.2 L
161.845 380.007 L
162.11 381.911 L
162.375 383.977 L
162.64 386.245 L
162.905 388.73 L
163.17 391.43 L
163.435 394.328 L
163.7 397.403 L
163.966 400.632 L
164.231 403.993 L
164.496 407.466 L
164.761 411.035 L
165.026 414.685 L
165.291 418.407 L
165.556 422.192 L
165.822 426.037 L
166.087 429.939 L
166.352 433.901 L
166.617 437.928 L
166.882 442.028 L
167.147 446.216 L
167.412 312.277 L
167.678 316.695 L
167.943 321.27 L
168.208 326.036 L
168.473 331.038 L
168.738 336.322 L
169.003 341.941 L
169.268 347.936 L
169.533 354.325 L
169.799 361.081 L
170.064 368.11 L
170.329 375.255 L
170.594 382.337 L
170.859 389.202 L
171.124 395.76 L
171.389 401.984 L
171.655 407.895 L
171.92 413.538 L
172.185 418.964 L
172.45 424.227 L
172.715 429.375 L
172.98 434.455 L
173.245 439.51 L
173.511 444.589 L
173.776 311.514 L
174.041 316.811 L
174.306 322.338 L
174.571 328.222 L
174.836 334.649 L
175.101 341.892 L
175.367 350.297 L
175.632 360.118 L
175.897 371.043 L
176.162 381.921 L
176.427 391.626 L
176.692 399.87 L
176.957 406.916 L
177.222 413.105 L
177.488 418.702 L
177.753 423.883 L
178.018 428.765 L
178.283 433.425 L
178.548 437.914 L
178.813 442.269 L
179.078 446.515 L
179.344 312.44 L
179.609 316.519 L
179.874 320.534 L
180.139 324.492 L
180.404 328.403 L
180.669 332.273 L
180.934 336.11 L
181.2 339.922 L
181.465 343.715 L
181.73 347.496 L
181.995 351.275 L
182.26 355.057 L
182.525 358.852 L
182.79 362.665 L
183.055 366.502 L
183.321 370.369 L
183.586 374.269 L
183.851 378.204 L
184.116 382.174 L
184.381 386.179 L
184.646 390.215 L
184.911 394.277 L
185.177 398.361 L
185.442 402.46 L
185.707 406.567 L
185.972 410.673 L
186.237 414.77 L
186.502 418.849 L
186.767 422.901 L
187.033 426.912 L
187.298 430.872 L
187.563 434.765 L
187.828 438.57 L
188.093 442.261 L
188.358 445.802 L
188.623 310.909 L
188.888 313.958 L
189.154 316.586 L
189.419 318.569 L
189.684 319.53 L
189.949 318.87 L
190.214 315.982 L
190.479 311.352 L
190.744 445.506 L
191.01 443.61 L
191.275 443.704 L
191.54 445.116 L
191.805 447.352 L
192.07 311.883 L
192.335 314.997 L
192.6 318.36 L
192.866 321.913 L
193.131 325.616 L
193.396 329.448 L
193.661 333.397 L
193.926 337.456 L
194.191 341.625 L
194.456 345.905 L
194.721 350.298 L
194.987 354.809 L
195.252 359.439 L
195.517 364.185 L
195.782 369.041 L
196.047 373.996 L
196.312 379.031 L
196.577 384.121 L
196.843 389.237 L
197.108 394.349 L
197.373 399.429 L
197.638 404.452 L
197.903 409.399 L
198.168 414.26 L
198.433 419.028 L
198.699 423.705 L
198.964 428.294 L
199.229 432.802 L
199.494 437.239 L
199.759 441.614 L
200.024 445.937 L
200.289 311.989 L
200.554 316.24 L
200.82 320.468 L
201.085 324.684 L
201.35 328.896 L
201.615 333.114 L
201.88 337.346 L
202.145 341.601 L
202.41 345.888 L
202.676 350.215 L
202.941 354.59 L
203.206 359.018 L
203.471 363.507 L
203.736 368.058 L
204.001 372.673 L
204.266 377.348 L
204.532 382.077 L
204.797 386.851 L
205.062 391.655 L
205.327 396.474 L
205.592 401.293 L
205.857 406.095 L
206.122 410.868 L
206.387 415.602 L
206.653 420.293 L
206.918 424.939 L
207.183 429.543 L
207.448 434.112 L
207.713 438.655 L
207.978 443.185 L
208.243 447.717 L
208.509 314.04 L
208.774 318.637 L
209.039 323.304 L
209.304 328.078 L
209.569 333.003 L
209.834 338.14 L
210.099 343.565 L
210.365 349.378 L
210.63 355.694 L
210.895 362.614 L
211.16 370.148 L
211.425 378.109 L
211.69 386.062 L
211.955 393.478 L
212.221 399.965 L
212.486 405.347 L
212.751 409.577 L
213.016 412.642 L
213.281 414.544 L
213.546 415.375 L
213.811 415.44 L
214.076 415.275 L
214.342 415.426 L
214.607 416.201 L
214.872 417.651 L
215.137 419.685 L
215.402 422.18 L
215.667 425.024 L
215.932 428.132 L
216.198 431.437 L
216.463 434.894 L
216.728 438.468 L
216.993 442.134 L
217.258 445.875 L
217.523 311.445 L
217.788 315.296 L
218.054 319.188 L
218.319 323.116 L
218.584 327.075 L
218.849 331.061 L
219.114 335.072 L
219.379 339.104 L
219.644 343.156 L
219.909 347.227 L
220.175 351.316 L
220.44 355.421 L
220.705 359.542 L
220.97 363.678 L
221.235 367.829 L
221.5 371.994 L
221.765 376.175 L
222.031 380.37 L
222.296 384.579 L
222.561 388.803 L
222.826 393.043 L
223.091 397.298 L
223.356 401.57 L
223.621 405.859 L
223.887 410.166 L
224.152 414.493 L
224.417 418.843 L
224.682 423.217 L
224.947 427.619 L
225.212 432.054 L
225.477 436.53 L
225.742 441.055 L
226.008 445.645 L
226.273 312.092 L
226.538 316.891 L
226.803 321.873 L
227.068 327.146 L
227.333 332.929 L
227.598 339.712 L
227.864 348.773 L
228.129 363.488 L
228.394 384.888 L
228.659 400.696 L
228.924 410.223 L
229.189 417.161 L
229.454 422.973 L
229.72 428.211 L
229.985 433.111 L
230.25 437.788 L
230.515 442.3 L
230.78 446.679 L
231.045 312.71 L
231.31 316.856 L
231.575 320.888 L
231.841 324.804 L
232.106 328.607 L
232.371 332.334 L
232.636 336.124 L
232.901 340.508 L
233.166 348.015 L
233.431 372.908 L
233.697 394.71 L
233.962 400.189 L
234.227 402.647 L
234.492 404.716 L
234.757 407.212 L
235.022 410.464 L
235.287 414.683 L
235.553 420.175 L
235.818 427.54 L
236.083 437.748 L
236.348 312.809 L
236.613 326.291 L
236.878 337.012 L
237.143 345.185 L
237.408 351.833 L
237.674 357.621 L
237.939 362.907 L
238.204 367.886 L
238.469 372.667 L
238.734 377.314 L
238.999 381.869 L
239.264 386.356 L
239.53 390.794 L
239.795 395.194 L
240.06 399.565 L
240.325 403.913 L
240.59 408.243 L
240.855 412.558 L
241.12 416.86 L
241.386 421.151 L
241.651 425.434 L
241.916 429.709 L
242.181 433.978 L
242.446 438.241 L
242.711 442.499 L
242.976 446.753 L
243.242 312.773 L
243.507 317.021 L
243.772 321.266 L
244.037 325.509 L
244.302 329.75 L
244.567 333.991 L
244.832 338.231 L
245.097 342.471 L
245.363 346.712 L
245.628 350.953 L
245.893 355.197 L
246.158 359.444 L
246.423 363.694 L
246.688 367.948 L
246.953 372.209 L
247.219 376.477 L
247.484 380.753 L
247.749 385.04 L
248.014 389.341 L
248.279 393.658 L
248.544 397.995 L
248.809 402.356 L
249.075 406.746 L
249.34 411.175 L
249.605 415.649 L
249.87 420.182 L
250.135 424.79 L
250.4 429.495 L
250.665 434.325 L
250.93 439.323 L
251.196 444.546 L
251.461 311.847 L
251.726 317.804 L
251.991 324.349 L
252.256 331.681 L
252.521 339.978 L
252.786 349.218 L
253.052 358.963 L
253.317 368.443 L
253.582 377.057 L
253.847 384.644 L
254.112 391.341 L
254.377 397.357 L
254.642 402.882 L
254.908 408.065 L
255.173 413.026 L
255.438 417.868 L
255.703 422.691 L
255.968 427.609 L
256.233 432.754 L
256.498 438.292 L
256.763 444.402 L
257.029 312.991 L
257.294 320.481 L
257.559 328.304 L
257.824 335.914 L
258.089 342.877 L
258.354 349.06 L
258.619 354.552 L
258.885 359.515 L
259.15 364.106 L
259.415 368.446 L
259.68 372.624 L
259.945 376.701 L
260.21 380.719 L
260.475 384.708 L
260.741 388.687 L
261.006 392.671 L
261.271 396.669 L
261.536 400.69 L
261.801 404.737 L
262.066 408.814 L
262.331 412.926 L
262.596 417.072 L
262.862 421.253 L
263.127 425.467 L
263.392 429.708 L
263.657 433.968 L
263.922 438.235 L
264.187 442.492 L
264.452 446.721 L
264.718 312.673 L
264.983 316.795 L
265.248 320.848 L
265.513 324.829 L
265.778 328.744 L
266.043 332.606 L
266.308 336.428 L
266.574 340.225 L
266.839 344.012 L
267.104 347.799 L
267.369 351.597 L
267.634 355.412 L
267.899 359.252 L
268.164 363.123 L
268.43 367.031 L
268.695 370.984 L
268.96 374.993 L
269.225 379.074 L
269.49 383.25 L
269.755 387.558 L
270.02 392.056 L
270.285 396.842 L
270.551 402.089 L
270.816 408.12 L
271.081 415.565 L
271.346 425.57 L
271.611 439.101 L
271.876 315.402 L
272.141 326.828 L
272.407 335.087 L
272.672 341.476 L
272.937 346.828 L
273.202 351.573 L
273.467 355.938 L
273.732 360.05 L
273.997 363.986 L
274.263 367.797 L
274.528 371.515 L
274.793 375.166 L
275.058 378.77 L
275.323 382.341 L
275.588 385.893 L
275.853 389.436 L
276.118 392.981 L
276.384 396.535 L
276.649 400.105 L
276.914 403.697 L
277.179 407.317 L
277.444 410.968 L
277.709 414.652 L
277.974 418.372 L
278.24 422.128 L
278.505 425.919 L
278.77 429.745 L
279.035 433.604 L
279.3 437.491 L
279.565 441.402 L
279.83 445.333 L
280.096 311.045 L
280.361 314.99 L
280.626 318.927 L
280.891 322.842 L
281.156 326.718 L
281.421 330.531 L
281.686 334.248 L
281.951 337.822 L
282.217 341.178 L
282.482 344.193 L
282.747 346.64 L
283.012 348.059 L
283.277 347.433 L
283.542 342.699 L
283.807 333.216 L
284.073 325.736 L
284.338 323.198 L
284.603 323.418 L
284.868 324.907 L
285.133 326.994 L
285.398 329.362 L
285.663 331.846 L
285.929 334.351 L
286.194 336.824 L
286.459 339.235 L
286.724 341.572 L
286.989 343.838 L
287.254 346.05 L
287.519 348.233 L
287.784 350.418 L
288.05 352.638 L
288.315 354.923 L
288.58 357.299 L
288.845 359.78 L
289.11 362.377 L
289.375 365.091 L
289.64 367.918 L
289.906 370.851 L
290.171 373.879 L
290.436 376.991 L
290.701 380.173 L
290.966 383.412 L
291.231 386.694 L
291.496 390.003 L
291.762 393.32 L
292.027 396.625 L
292.292 399.89 L
292.557 403.073 L
292.822 406.116 L
293.087 408.917 L
293.352 411.294 L
293.617 412.874 L
293.883 412.817 L
294.148 409.172 L
294.413 399.767 L
294.678 390.51 L
294.943 387.052 L
295.208 387.149 L
295.473 388.889 L
295.739 391.455 L
296.004 394.487 L
296.269 397.812 L
296.534 401.339 L
296.799 405.021 L
297.064 408.839 L
297.329 412.791 L
297.595 416.903 L
297.86 421.241 L
298.125 425.97 L
298.39 431.55 L
298.655 439.753 L
298.92 323.285 L
299.185 354.581 L
299.451 365.245 L
299.716 371.488 L
299.981 376.562 L
300.246 381.182 L
300.511 385.587 L
300.776 389.879 L
301.041 394.11 L
301.306 398.309 L
301.572 402.494 L
301.837 406.679 L
302.102 410.871 L
302.367 415.079 L
302.632 419.306 L
302.897 423.558 L
303.162 427.836 L
303.428 432.144 L
303.693 436.482 L
303.958 440.85 L
304.223 445.248 L
304.488 311.444 L
304.753 315.897 L
305.018 320.374 L
305.284 324.871 L
305.549 329.386 L
305.814 333.914 L
306.079 338.453 L
306.344 342.999 L
306.609 347.548 L
306.874 352.098 L
307.139 356.646 L
307.405 361.189 L
307.67 365.726 L
307.935 370.254 L
308.2 374.773 L
308.465 379.281 L
308.73 383.776 L
308.995 388.257 L
309.261 392.722 L
309.526 397.17 L
309.791 401.599 L
310.056 406.006 L
310.321 410.389 L
310.586 414.745 L
310.851 419.07 L
311.117 423.36 L
311.382 427.612 L
311.647 431.821 L
311.912 435.983 L
312.177 440.094 L
312.442 444.148 L
312.707 309.914 L
312.972 313.848 L
313.238 317.719 L
313.503 321.526 L
313.768 325.27 L
314.033 328.954 L
314.298 332.581 L
314.563 336.158 L
314.828 339.691 L
315.094 343.189 L
315.359 346.661 L
315.624 350.119 L
315.889 353.573 L
316.154 357.036 L
316.419 360.522 L
316.684 364.045 L
316.95 367.625 L
317.215 371.284 L
317.48 375.052 L
317.745 378.971 L
318.01 383.105 L
318.275 387.549 L
318.54 392.466 L
318.805 398.128 L
319.071 405.004 L
319.336 413.811 L
319.601 425.059 L
319.866 437.523 L
320.131 310.298 L
320.396 318.9 L
320.661 325.699 L
320.927 331.387 L
321.192 336.407 L
321.457 341.017 L
321.722 345.369 L
321.987 349.558 L
322.252 353.645 L
322.517 357.669 L
322.783 361.662 L
323.048 365.643 L
323.313 369.631 L
323.578 373.639 L
323.843 377.677 L
324.108 381.756 L
324.373 385.884 L
324.638 390.069 L
324.904 394.319 L
325.169 398.641 L
325.434 403.043 L
325.699 407.532 L
325.964 412.115 L
326.229 416.797 L
326.494 421.584 L
326.76 426.48 L
327.025 431.486 L
327.29 436.599 L
327.555 441.814 L
327.82 447.117 L
328.085 314.264 L
328.35 319.692 L
328.616 325.147 L
328.881 330.6 L
329.146 336.026 L
329.411 341.399 L
329.676 346.7 L
329.941 351.913 L
330.206 357.027 L
330.471 362.039 L
330.737 366.947 L
331.002 371.753 L
331.267 376.462 L
331.532 381.08 L
331.797 385.614 L
332.062 390.072 L
332.327 394.462 L
332.593 398.792 L
332.858 403.069 L
333.123 407.301 L
333.388 411.496 L
333.653 415.66 L
333.918 419.8 L
334.183 423.923 L
334.449 428.036 L
334.714 432.144 L
334.979 436.253 L
335.244 440.368 L
335.509 444.496 L
335.774 310.41 L
336.039 314.575 L
336.305 318.764 L
336.57 322.983 L
336.835 327.234 L
337.1 331.52 L
337.365 335.845 L
337.63 340.211 L
337.895 344.621 L
338.16 349.077 L
338.426 353.584 L
338.691 358.143 L
338.956 362.759 L
339.221 367.437 L
339.486 372.181 L
339.751 377 L
340.016 381.903 L
340.282 386.905 L
340.547 392.025 L
340.812 397.295 L
341.077 402.769 L
341.342 408.542 L
341.607 414.805 L
341.872 421.993 L
342.138 431.292 L
342.403 446.308 L
342.668 331.886 L
342.933 349.661 L
343.198 360.095 L
343.463 367.802 L
343.728 374.397 L
343.993 380.439 L
344.259 386.159 L
344.524 391.667 L
344.789 397.018 L
345.054 402.243 L
345.319 407.362 L
345.584 412.385 L
345.849 417.322 L
346.115 422.177 L
346.38 426.957 L
346.645 431.665 L
346.91 436.305 L
347.175 440.88 L
347.44 445.392 L
347.705 311.615 L
347.971 316.01 L
348.236 320.349 L
348.501 324.632 L
348.766 328.861 L
349.031 333.036 L
349.296 337.155 L
349.561 341.219 L
349.826 345.224 L
350.092 349.169 L
350.357 353.051 L
350.622 356.866 L
350.887 360.61 L
351.152 364.279 L
351.417 367.869 L
351.682 371.375 L
351.948 374.793 L
352.213 378.122 L
352.478 381.362 L
352.743 384.515 L
353.008 387.588 L
353.273 390.592 L
353.538 393.543 L
353.804 396.462 L
354.069 399.371 L
354.334 402.296 L
354.599 405.262 L
354.864 408.291 L
355.129 411.4 L
355.394 414.605 L
355.659 417.912 L
355.925 421.325 L
356.19 424.843 L
356.455 428.462 L
356.72 432.177 L
356.985 435.978 L
357.25 439.856 L
357.515 443.803 L
357.781 447.809 L
358.046 313.635 L
358.311 317.731 L
358.576 321.86 L
358.841 326.013 L
359.106 330.185 L
359.371 334.368 L
359.637 338.558 L
359.902 342.751 L
360.167 346.943 L
360.432 351.133 L
360.697 355.32 L
360.962 359.506 L
361.227 363.695 L
361.492 367.893 L
361.758 372.112 L
362.023 376.365 L
362.288 380.677 L
362.553 385.077 L
362.818 389.61 L
363.083 394.339 L
363.348 399.35 L
363.614 404.762 L
363.879 410.734 L
364.144 417.45 L
364.409 425.058 L
364.674 433.519 L
364.939 442.443 L
365.204 312.951 L
365.47 320.991 L
365.735 328.178 L
366 334.617 L
366.265 340.486 L
366.53 345.956 L
366.795 351.157 L
367.06 356.189 L
367.326 361.121 L
367.591 366.007 L
367.856 370.884 L
368.121 375.785 L
368.386 380.731 L
368.651 385.742 L
368.916 390.833 L
369.181 396.016 L
369.447 401.301 L
369.712 406.693 L
369.977 412.195 L
370.242 417.804 L
370.507 423.513 L
370.772 429.311 L
371.037 435.182 L
371.303 441.106 L
371.568 447.062 L
371.833 314.799 L
372.098 320.759 L
372.363 326.697 L
372.628 332.605 L
372.893 338.478 L
373.159 344.32 L
373.424 350.139 L
373.689 355.947 L
373.954 361.762 L
374.219 367.606 L
374.484 373.501 L
374.749 379.474 L
375.014 385.554 L
375.28 391.764 L
375.545 398.126 L
375.81 404.649 L
376.075 411.324 L
376.34 418.119 L
376.605 424.977 L
376.87 431.821 L
377.136 438.564 L
377.401 445.129 L
377.666 313.229 L
377.931 319.289 L
378.196 325.069 L
378.461 330.572 L
378.726 335.813 L
378.992 340.81 L
379.257 345.58 L
379.522 350.142 L
379.787 354.508 L
380.052 358.691 L
380.317 362.698 L
380.582 366.536 L
380.847 370.209 L
381.113 373.719 L
381.378 377.073 L
381.643 380.275 L
381.908 383.337 L
382.173 386.275 L
382.438 389.115 L
382.703 391.892 L
382.969 394.651 L
383.234 397.443 L
383.499 400.327 L
383.764 403.361 L
384.029 406.599 L
384.294 410.091 L
384.559 413.881 L
384.825 418.004 L
385.09 422.49 L
385.355 427.353 L
385.62 432.591 L
385.885 438.179 L
386.15 444.058 L
386.415 311.909 L
386.68 318.082 L
386.946 324.238 L
387.211 330.288 L
387.476 336.172 L
387.741 341.863 L
388.006 347.361 L
388.271 352.679 L
388.536 357.838 L
388.802 362.864 L
389.067 367.78 L
389.332 372.608 L
389.597 377.368 L
389.862 382.078 L
390.127 386.751 L
390.392 391.4 L
390.658 396.038 L
390.923 400.673 L
391.188 405.316 L
391.453 409.973 L
391.718 414.653 L
391.983 419.364 L
392.248 424.111 L
392.513 428.903 L
392.779 433.745 L
393.044 438.645 L
393.309 443.61 L
393.574 310.417 L
393.839 315.532 L
394.104 320.734 L
394.369 326.028 L
394.635 331.422 L
394.9 336.922 L
395.165 342.534 L
395.43 348.264 L
395.695 354.115 L
395.96 360.09 L
396.225 366.191 L
396.491 372.417 L
396.756 378.765 L
397.021 385.229 L
397.286 391.803 L
397.551 398.475 L
397.816 405.233 L
398.081 412.062 L
398.346 418.942 L
398.612 425.854 L
398.877 432.775 L
399.142 439.681 L
399.407 446.551 L
399.672 315.131 L
399.937 321.864 L
400.202 328.504 L
400.468 335.041 L
400.733 341.469 L
400.998 347.785 L
401.263 353.992 L
401.528 360.093 L
401.793 366.096 L
402.058 372.007 L
402.324 377.835 L
402.589 383.589 L
402.854 389.275 L
403.119 394.9 L
403.384 400.47 L
403.649 405.986 L
403.914 411.451 L
404.18 416.86 L
404.445 422.211 L
404.71 427.495 L
404.975 432.702 L
405.24 437.822 L
405.505 442.841 L
405.77 447.747 L
406.035 314.3 L
406.301 318.951 L
406.566 323.469 L
406.831 327.854 L
407.096 332.115 L
407.361 336.264 L
407.626 340.317 L
407.891 344.296 L
408.157 348.221 L
408.422 352.114 L
408.687 355.994 L
408.952 359.879 L
409.217 363.783 L
409.482 367.716 L
409.747 371.687 L
410.013 375.7 L
410.278 379.76 L
410.543 383.868 L
410.808 388.025 L
411.073 392.232 L
411.338 396.489 L
411.603 400.796 L
411.868 405.154 L
412.134 409.562 L
412.399 414.022 L
412.664 418.535 L
412.929 423.104 L
413.194 427.729 L
413.459 432.415 L
413.724 437.164 L
413.99 441.979 L
414.255 446.864 L
414.52 313.592 L
414.785 318.625 L
415.05 323.734 L
415.315 328.918 L
415.58 334.175 L
415.846 339.495 L
416.111 344.869 L
416.376 350.278 L
416.641 355.703 L
416.906 361.115 L
417.171 366.488 L
417.436 371.79 L
417.701 376.992 L
417.967 382.066 L
418.232 386.989 L
418.497 391.743 L
418.762 396.314 L
419.027 400.693 L
419.292 404.878 L
419.557 408.87 L
419.823 412.677 L
420.088 416.31 L
420.353 419.789 L
420.618 423.135 L
420.883 426.376 L
421.148 429.541 L
421.413 432.66 L
421.679 435.764 L
421.944 438.878 L
422.209 442.024 L
422.474 445.22 L
422.739 310.246 L
423.004 313.571 L
423.269 316.968 L
423.534 320.438 L
423.8 323.982 L
424.065 327.596 L
424.33 331.278 L
424.595 335.027 L
424.86 338.84 L
425.125 342.716 L
425.39 346.655 L
425.656 350.657 L
425.921 354.726 L
426.186 358.863 L
426.451 363.076 L
426.716 367.372 L
426.981 371.763 L
427.246 376.262 L
427.512 380.889 L
427.777 385.668 L
428.042 390.632 L
428.307 395.821 L
428.572 401.286 L
428.837 407.089 L
429.102 413.297 L
429.367 419.973 L
429.633 427.148 L
429.898 434.779 L
430.163 442.722 L
430.428 312.507 L
430.693 320.337 L
430.958 327.794 L
431.223 334.8 L
431.489 341.362 L
431.754 347.535 L
432.019 353.387 L
432.284 358.984 L
432.549 364.381 L
432.814 369.623 L
433.079 374.747 L
433.345 379.781 L
433.61 384.746 L
433.875 389.66 L
434.14 394.536 L
434.405 399.382 L
434.67 404.207 L
434.935 409.016 L
435.201 413.813 L
435.466 418.598 L
435.731 423.374 L
435.996 428.14 L
436.261 432.895 L
436.526 437.638 L
436.791 442.367 L
437.056 447.079 L
437.322 313.541 L
437.587 318.212 L
437.852 322.858 L
438.117 327.477 L
438.382 332.065 L
438.647 336.62 L
438.912 341.138 L
439.178 345.617 L
439.443 350.053 L
439.708 354.443 L
439.973 358.782 L
440.238 363.066 L
440.503 367.287 L
440.768 371.439 L
441.034 375.51 L
441.299 379.488 L
441.564 383.355 L
441.829 387.09 L
442.094 390.66 L
442.359 394.023 L
442.624 397.124 L
442.889 399.884 L
443.155 402.203 L
443.42 403.957 L
443.685 405.02 L
443.95 405.33 L
444.215 404.997 L
444.48 404.385 L
444.745 403.995 L
445.011 404.213 L
445.276 405.173 L
445.541 406.826 L
445.806 409.047 L
446.071 411.711 L
446.336 414.714 L
446.601 417.976 L
446.867 421.436 L
447.132 425.052 L
447.397 428.79 L
447.662 432.626 L
447.927 436.542 L
448.192 440.523 L
448.457 444.557 L
448.722 310.407 L
448.988 314.525 L
449.253 318.674 L
449.518 322.851 L
449.783 327.051 L
450.048 331.269 L
450.313 335.504 L
450.578 339.752 L
450.844 344.01 L
451.109 348.275 L
451.374 352.546 L
451.639 356.819 L
451.904 361.093 L
452.169 365.367 L
452.434 369.64 L
452.7 373.913 L
452.965 378.186 L
453.23 382.462 L
453.495 386.742 L
453.76 391.028 L
454.025 395.323 L
454.29 399.628 L
454.555 403.943 L
454.821 408.268 L
455.086 412.605 L
455.351 416.951 L
455.616 421.307 L
455.881 425.673 L
456.146 430.047 L
456.411 434.43 L
456.677 438.823 L
456.942 443.226 L
457.207 447.642 L
457.472 313.842 L
457.737 318.292 L
458.002 322.767 L
458.267 327.276 L
458.533 331.834 L
458.798 336.46 L
459.063 341.189 L
459.328 346.076 L
459.593 351.217 L
459.858 356.797 L
460.123 363.194 L
460.388 371.274 L
460.654 383.003 L
460.919 400.266 L
461.184 416.915 L
461.449 427.873 L
461.714 435.361 L
461.979 441.177 L
462.244 446.089 L
462.51 312.199 L
462.775 316.115 L
463.04 319.677 L
463.305 322.909 L
463.57 325.819 L
463.835 328.404 L
464.1 330.671 L
464.366 332.641 L
464.631 334.367 L
464.896 335.932 L
465.161 337.445 L
465.426 339.022 L
465.691 340.759 L
465.956 342.721 L
466.221 344.935 L
466.487 347.404 L
466.752 350.111 L
467.017 353.03 L
467.282 356.134 L
467.547 359.395 L
467.812 362.788 L
468.077 366.293 L
468.343 369.891 L
468.608 373.565 L
468.873 377.304 L
469.138 381.095 L
469.403 384.929 L
469.668 388.798 L
469.933 392.693 L
470.199 396.609 L
470.464 400.539 L
470.729 404.476 L
470.994 408.414 L
471.259 412.346 L
471.524 416.263 L
471.789 420.157 L
472.055 424.013 L
472.32 427.814 L
472.585 431.536 L
472.85 435.142 L
473.115 438.572 L
473.38 441.729 L
473.645 444.444 L
473.91 446.399 L
474.176 446.98 L
474.441 445.083 L
474.706 439.791 L
474.971 433.51 L
475.236 430.25 L
475.501 430.181 L
475.766 432.065 L
476.032 435.084 L
476.297 438.818 L
476.562 443.044 L
476.827 447.634 L
477.092 314.267 L
477.357 319.331 L
477.622 324.517 L
477.888 329.743 L
478.153 334.919 L
478.418 339.953 L
478.683 344.764 L
478.948 349.278 L
479.213 353.437 L
479.478 357.196 L
479.743 360.522 L
480.009 363.402 L
480.274 365.846 L
480.539 367.897 L
480.804 369.642 L
481.069 371.207 L
481.334 372.735 L
481.599 374.357 L
481.865 376.169 L
482.13 378.221 L
482.395 380.527 L
482.66 383.077 L
482.925 385.845 L
483.19 388.803 L
483.455 391.925 L
483.721 395.185 L
483.986 398.562 L
484.251 402.037 L
484.516 405.595 L
484.781 409.225 L
485.046 412.916 L
485.311 416.659 L
485.576 420.449 L
485.842 424.277 L
486.107 428.141 L
486.372 432.035 L
486.637 435.957 L
486.902 439.902 L
487.167 443.869 L
487.432 447.855 L
487.698 313.627 L
487.963 317.644 L
488.228 321.674 L
488.493 325.714 L
488.758 329.764 L
489.023 333.822 L
489.288 337.885 L
489.554 341.951 L
489.819 346.019 L
490.084 350.086 L
490.349 354.149 L
490.614 358.205 L
490.879 362.25 L
491.144 366.278 L
491.409 370.285 L
491.675 374.261 L
491.94 378.197 L
492.205 382.08 L
492.47 385.893 L
492.735 389.611 L
493 393.201 L
493.265 396.615 L
493.531 399.786 L
493.796 402.612 L
494.061 404.94 L
494.326 406.545 L
494.591 407.128 L
494.856 406.402 L
495.121 404.427 L
495.387 402.001 L
495.652 400.279 L
495.917 399.839 L
496.182 400.59 L
496.447 402.21 L
496.712 404.398 L
496.977 406.93 L
497.242 409.638 L
497.508 412.39 L
497.773 415.071 L
498.038 417.573 L
498.303 419.781 L
498.568 421.58 L
498.833 422.866 L
499.098 423.586 L
499.364 423.806 L
499.629 423.75 L
499.894 423.758 L
500.159 424.137 L
500.424 425.054 L
500.689 426.529 L
500.954 428.496 L
501.22 430.864 L
501.485 433.542 L
501.75 436.458 L
502.015 439.553 L
502.28 442.782 L
502.545 446.113 L
502.81 311.29 L
503.076 314.756 L
503.341 318.266 L
503.606 321.812 L
503.871 325.387 L
504.136 328.987 L
504.401 332.612 L
504.666 336.262 L
504.931 339.938 L
505.197 343.646 L
505.462 347.392 L
505.727 351.182 L
505.992 355.029 L
506.257 358.944 L
506.522 362.946 L
506.787 367.056 L
507.053 371.302 L
507.318 375.719 L
507.583 380.353 L
507.848 385.26 L
508.113 390.51 L
508.378 396.181 L
508.643 402.341 L
508.909 409.019 L
509.174 416.151 L
509.439 423.544 L
509.704 430.903 L
509.969 437.939 L
510.234 444.47 L
510.499 312.21 L
510.764 317.652 L
511.03 322.634 L
511.295 327.23 L
511.56 331.504 L
511.825 335.51 L
512.09 339.29 L
512.355 342.876 L
512.62 346.294 L
512.886 349.567 L
513.151 352.714 L
513.416 355.753 L
513.681 358.702 L
513.946 361.578 L
514.211 364.4 L
514.476 367.185 L
514.742 369.952 L
515.007 372.717 L
515.272 375.495 L
515.537 378.299 L
515.802 381.138 L
516.067 384.02 L
516.332 386.95 L
516.597 389.928 L
516.863 392.953 L
517.128 396.024 L
517.393 399.133 L
517.658 402.276 L
517.923 405.442 L
518.188 408.622 L
518.453 411.803 L
518.719 414.974 L
518.984 418.117 L
519.249 421.216 L
519.514 424.251 L
519.779 427.202 L
520.044 430.047 L
520.309 432.763 L
520.575 435.334 L
520.84 437.747 L
521.105 440.004 L
521.37 442.124 L
521.635 444.15 L
521.9 446.144 L
522.165 309.955 L
522.43 312.12 L
522.696 314.477 L
522.961 317.072 L
523.226 319.933 L
523.491 323.067 L
523.756 326.469 L
524.021 330.129 L
524.286 334.035 L
524.552 338.174 L
524.817 342.541 L
525.082 347.13 L
525.347 351.942 L
525.612 356.979 L
525.877 362.246 L
526.142 367.745 L
526.408 373.468 L
526.673 379.397 L
526.938 385.492 L
527.203 391.693 L
527.468 397.923 L
527.733 404.097 L
527.998 410.136 L
528.263 415.98 L
528.529 421.592 L
528.794 426.957 L
529.059 432.079 L
529.324 436.973 L
529.589 441.663 L
529.854 446.171 L
530.119 312.295 L
530.385 316.518 L
530.65 320.634 L
530.915 324.663 L
531.18 328.624 L
531.445 332.535 L
531.71 336.41 L
531.975 340.263 L
532.241 344.104 L
532.506 347.946 L
532.771 351.795 L
533.036 355.661 L
533.301 359.55 L
533.566 363.469 L
533.831 367.426 L
534.096 371.425 L
534.362 375.475 L
534.627 379.584 L
534.892 383.76 L
535.157 388.015 L
535.422 392.362 L
535.687 396.818 L
535.952 401.404 L
536.218 406.145 L
536.483 411.073 L
536.748 416.227 L
537.013 421.65 L
537.278 427.388 L
537.543 433.481 L
537.808 439.947 L
538.074 446.756 L
538.339 315.587 L
538.604 322.743 L
538.869 329.808 L
539.134 336.617 L
539.399 343.071 L
539.664 349.134 L
539.93 354.822 L
540.195 360.173 L
540.46 365.236 L
540.725 370.059 L
540.99 374.683 L
541.255 379.146 L
541.52 383.478 L
541.785 387.704 L
542.051 391.845 L
542.316 395.92 L
542.581 399.944 L
542.846 403.93 L
543.111 407.889 L
543.376 411.83 L
543.641 415.761 L
543.907 419.688 L
544.172 423.618 L
544.437 427.553 L
544.702 431.496 L
544.967 435.449 L
545.232 439.411 L
545.497 443.381 L
545.763 447.355 L
546.028 313.099 L
546.293 317.065 L
546.558 321.014 L
546.823 324.933 L
547.088 328.801 L
547.353 332.595 L
547.618 336.277 L
547.884 339.793 L
548.149 343.06 L
548.414 345.945 L
548.679 348.227 L
548.944 349.53 L
549.209 349.249 L
549.474 346.721 L
549.74 342.322 L
550.005 338.378 L
550.27 336.657 L
550.535 336.996 L
550.8 338.692 L
551.065 341.222 L
551.33 344.273 L
551.596 347.662 L
551.861 351.278 L
552.126 355.052 L
552.391 358.939 L
552.656 362.908 L
552.921 366.939 L
553.186 371.016 L
553.451 375.13 L
553.717 379.273 L
553.982 383.438 L
554.247 387.623 L
554.512 391.823 L
554.777 396.037 L
555.042 400.264 L
555.307 404.502 L
555.573 408.751 L
555.838 413.011 L
556.103 417.282 L
556.368 421.563 L
556.633 425.857 L
556.898 430.162 L
557.163 434.48 L
557.429 438.812 L
557.694 443.158 L
557.959 447.521 L
558.224 313.671 L
558.489 318.073 L
558.754 322.501 L
559.019 326.973 L
559.284 331.558 L
559.55 338.647 L
559.815 408.875 L
560.08 413.581 L
560.345 418.156 L
560.61 422.718 L
560.875 427.286 L
561.14 431.867 L
561.406 436.465 L
561.671 441.08 L
561.936 445.714 L
562.201 312.135 L
562.466 316.805 L
562.731 321.492 L
562.996 326.196 L
563.262 330.917 L
563.527 335.654 L
563.792 340.404 L
564.057 345.169 L
564.322 349.945 L
564.587 354.732 L
564.852 359.528 L
565.117 364.331 L
565.383 369.14 L
565.648 373.95 L
565.913 378.761 L
566.178 383.57 L
566.443 388.373 L
566.708 393.167 L
566.973 397.948 L
567.239 402.714 L
567.504 407.458 L
567.769 412.178 L
568.034 416.868 L
568.299 421.524 L
568.564 426.14 L
568.829 430.712 L
569.095 435.234 L
569.36 439.701 L
569.625 444.108 L
569.89 310.219 L
570.155 314.492 L
570.42 318.69 L
570.685 322.81 L
570.951 326.85 L
571.216 330.806 L
571.481 334.677 L
571.746 338.461 L
572.011 342.159 L
572.276 345.771 L
572.541 349.3 L
572.806 352.746 L
573.072 356.113 L
573.337 359.403 L
573.602 362.62 L
573.867 365.766 L
574.132 368.843 L
574.397 371.851 L
574.662 374.791 L
574.928 377.662 L
575.193 380.462 L
575.458 383.189 L
575.723 385.841 L
575.988 388.417 L
576.253 390.921 L
576.518 393.358 L
576.784 395.741 L
577.049 398.09 L
577.314 400.43 L
577.579 402.794 L
577.844 405.224 L
578.109 407.763 L
578.374 410.463 L
578.639 413.384 L
578.905 416.61 L
579.17 420.288 L
579.435 424.738 L
579.7 430.887 L
579.965 442.549 L
580.23 331.987 L
580.495 350.956 L
580.761 359.384 L
581.026 365.223 L
581.291 370.235 L
581.556 374.93 L
581.821 379.504 L
582.086 384.046 L
582.351 388.602 L
582.617 393.199 L
582.882 397.855 L
583.147 402.583 L
583.412 407.395 L
583.677 412.302 L
583.942 417.317 L
584.207 422.452 L
584.472 427.723 L
584.738 433.151 L
585.003 438.757 L
585.268 444.566 L
585.533 312.376 L
585.798 318.676 L
586.063 325.261 L
586.328 332.144 L
586.594 339.315 L
586.859 346.734 L
587.124 354.322 L
587.389 361.97 L
587.654 369.56 L
587.919 376.99 L
588.184 384.189 L
588.45 391.126 L
588.715 397.798 L
588.98 404.222 L
589.245 410.426 L
589.51 416.44 L
589.775 422.292 L
590.04 428.009 L
590.305 433.614 L
590.571 439.128 L
590.836 444.57 L
591.101 311.723 L
591.366 317.065 L
591.631 322.377 L
591.896 327.674 L
592.161 332.97 L
592.427 338.278 L
592.692 343.617 L
592.957 349.004 L
593.222 354.463 L
593.487 360.023 L
593.752 365.717 L
594.017 371.592 L
594.283 377.701 L
594.548 384.111 L
594.813 390.897 L
595.078 398.13 L
595.343 405.849 L
595.608 414.016 L
595.873 422.475 L
596.138 430.963 L
596.404 439.195 L
596.669 446.972 L
596.934 315.985 L
597.199 322.71 L
597.464 328.98 L
597.729 334.87 L
597.994 340.449 L
598.26 345.776 L
598.525 350.895 L
598.79 355.845 L
599.055 360.652 L
599.32 365.34 L
599.585 369.924 L
599.85 374.419 L
600.116 378.835 L
600.381 383.18 L
600.646 387.461 L
600.911 391.683 L
601.176 395.849 L
601.441 399.963 L
601.706 404.027 L
601.971 408.041 L
602.237 412.007 L
602.502 415.924 L
602.767 419.792 L
603.032 423.61 L
603.297 427.377 L
603.562 431.091 L
603.827 434.752 L
604.093 438.358 L
604.358 441.909 L
604.623 445.405 L
604.888 310.618 L
605.153 314.012 L
605.418 317.363 L
605.683 320.68 L
605.949 323.975 L
606.214 327.261 L
606.479 330.554 L
606.744 333.871 L
607.009 337.228 L
607.274 340.642 L
607.539 344.125 L
607.805 347.689 L
608.07 351.341 L
608.335 355.086 L
608.6 358.923 L
608.865 362.853 L
609.13 366.871 L
609.395 370.973 L
609.66 375.153 L
609.926 379.404 L
610.191 383.72 L
610.456 388.093 L
610.721 392.516 L
610.986 396.982 L
611.251 401.485 L
611.516 406.018 L
611.782 410.575 L
612.047 415.15 L
612.312 419.736 L
612.577 424.328 L
612.842 428.918 L
613.107 433.5 L
613.372 438.068 L
613.638 442.613 L
613.903 447.126 L
614.168 313.369 L
614.433 317.789 L
614.698 322.144 L
614.963 326.418 L
615.228 330.59 L
615.493 334.635 L
615.759 338.521 L
616.024 342.201 L
616.289 345.616 L
616.554 348.682 L
616.819 351.284 L
617.084 353.27 L
617.349 354.46 L
617.615 354.709 L
617.88 354.054 L
618.145 352.889 L
618.41 351.876 L
618.675 351.552 L
618.94 352.083 L
619.205 353.372 L
619.471 355.234 L
619.736 357.496 L
620.001 360.016 L
620.266 362.684 L
620.531 365.411 L
620.796 368.123 L
621.061 370.747 L
621.326 373.214 L
621.592 375.448 L
621.857 377.372 L
622.122 378.911 L
622.387 380.009 L
622.652 380.667 L
622.917 380.975 L
623.182 381.13 L
623.448 381.386 L
623.713 381.966 L
623.978 382.997 L
624.243 384.506 L
624.508 386.458 L
624.773 388.79 L
625.038 391.437 L
625.304 394.34 L
625.569 397.45 L
625.834 400.728 L
626.099 404.146 L
626.364 407.681 L
626.629 411.314 L
626.894 415.035 L
627.159 418.834 L
627.425 422.707 L
627.69 426.652 L
627.955 430.671 L
628.22 434.769 L
628.485 438.956 L
628.75 443.249 L
629.015 447.671 L
629.281 314.029 L
629.546 318.836 L
629.811 323.942 L
630.076 329.464 L
630.341 335.579 L
630.606 342.528 L
630.871 350.584 L
631.137 359.855 L
631.402 369.922 L
631.667 379.789 L
631.932 388.603 L
632.197 396.155 L
632.462 402.642 L
632.727 408.336 L
632.992 413.456 L
633.258 418.156 L
633.523 422.536 L
633.788 426.663 L
634.053 430.58 L
634.054 430.598 L
S
GR
%%Trailer
%%Pages: 1
%%EOF
