%!PS-Adobe-3.0 EPSF-3.0
%%BoundingBox: 13 4 381 308
%%HiResBoundingBox: 13.758 4.992 380.354 307.806
%%Creator: (MATLAB, The Mathworks, Inc. Version 9.1.0.441655 \(R2016b\). Operating System: Windows 8)
%%Title: C:/Users/Matteo/Documents/dt-homeworks/HW1/Latex/img/predictionError.eps
%%CreationDate: 2017-04-03T20:02:28
%%Pages: (atend)
%%LanguageLevel: 3
%%EndComments
%%BeginProlog
%%BeginResource: procset (Apache XML Graphics Std ProcSet) 1.2 0
%%Version: 1.2 0
%%Copyright: (Copyright 2001-2003,2010 The Apache Software Foundation. License terms: http://www.apache.org/licenses/LICENSE-2.0)
/bd{bind def}bind def
/ld{load def}bd
/GR/grestore ld
/M/moveto ld
/LJ/setlinejoin ld
/C/curveto ld
/f/fill ld
/LW/setlinewidth ld
/GC/setgray ld
/t/show ld
/N/newpath ld
/CT/concat ld
/cp/closepath ld
/S/stroke ld
/L/lineto ld
/CC/setcmykcolor ld
/A/ashow ld
/GS/gsave ld
/RC/setrgbcolor ld
/RM/rmoveto ld
/ML/setmiterlimit ld
/re {4 2 roll M
1 index 0 rlineto
0 exch rlineto
neg 0 rlineto
cp } bd
/_ctm matrix def
/_tm matrix def
/BT { _ctm currentmatrix pop matrix _tm copy pop 0 0 moveto } bd
/ET { _ctm setmatrix } bd
/iTm { _ctm setmatrix _tm concat } bd
/Tm { _tm astore pop iTm 0 0 moveto } bd
/ux 0.0 def
/uy 0.0 def
/F {
  /Tp exch def
  /Tf exch def
  Tf findfont Tp scalefont setfont
  /cf Tf def  /cs Tp def
} bd
/ULS {currentpoint /uy exch def /ux exch def} bd
/ULE {
  /Tcx currentpoint pop def
  gsave
  newpath
  cf findfont cs scalefont dup
  /FontMatrix get 0 get /Ts exch def /FontInfo get dup
  /UnderlinePosition get Ts mul /To exch def
  /UnderlineThickness get Ts mul /Tt exch def
  ux uy To add moveto  Tcx uy To add lineto
  Tt setlinewidth stroke
  grestore
} bd
/OLE {
  /Tcx currentpoint pop def
  gsave
  newpath
  cf findfont cs scalefont dup
  /FontMatrix get 0 get /Ts exch def /FontInfo get dup
  /UnderlinePosition get Ts mul /To exch def
  /UnderlineThickness get Ts mul /Tt exch def
  ux uy To add cs add moveto Tcx uy To add cs add lineto
  Tt setlinewidth stroke
  grestore
} bd
/SOE {
  /Tcx currentpoint pop def
  gsave
  newpath
  cf findfont cs scalefont dup
  /FontMatrix get 0 get /Ts exch def /FontInfo get dup
  /UnderlinePosition get Ts mul /To exch def
  /UnderlineThickness get Ts mul /Tt exch def
  ux uy To add cs 10 mul 26 idiv add moveto Tcx uy To add cs 10 mul 26 idiv add lineto
  Tt setlinewidth stroke
  grestore
} bd
/QT {
/Y22 exch store
/X22 exch store
/Y21 exch store
/X21 exch store
currentpoint
/Y21 load 2 mul add 3 div exch
/X21 load 2 mul add 3 div exch
/X21 load 2 mul /X22 load add 3 div
/Y21 load 2 mul /Y22 load add 3 div
/X22 load /Y22 load curveto
} bd
/SSPD {
dup length /d exch dict def
{
/v exch def
/k exch def
currentpagedevice k known {
/cpdv currentpagedevice k get def
v cpdv ne {
/upd false def
/nullv v type /nulltype eq def
/nullcpdv cpdv type /nulltype eq def
nullv nullcpdv or
{
/upd true def
} {
/sametype v type cpdv type eq def
sametype {
v type /arraytype eq {
/vlen v length def
/cpdvlen cpdv length def
vlen cpdvlen eq {
0 1 vlen 1 sub {
/i exch def
/obj v i get def
/cpdobj cpdv i get def
obj cpdobj ne {
/upd true def
exit
} if
} for
} {
/upd true def
} ifelse
} {
v type /dicttype eq {
v {
/dv exch def
/dk exch def
/cpddv cpdv dk get def
dv cpddv ne {
/upd true def
exit
} if
} forall
} {
/upd true def
} ifelse
} ifelse
} if
} ifelse
upd true eq {
d k v put
} if
} if
} if
} forall
d length 0 gt {
d setpagedevice
} if
} bd
/RE { % /NewFontName [NewEncodingArray] /FontName RE -
  findfont dup length dict begin
  {
    1 index /FID ne
    {def} {pop pop} ifelse
  } forall
  /Encoding exch def
  /FontName 1 index def
  currentdict definefont pop
  end
} bind def
%%EndResource
%%BeginResource: procset (Apache XML Graphics EPS ProcSet) 1.0 0
%%Version: 1.0 0
%%Copyright: (Copyright 2002-2003 The Apache Software Foundation. License terms: http://www.apache.org/licenses/LICENSE-2.0)
/BeginEPSF { %def
/b4_Inc_state save def         % Save state for cleanup
/dict_count countdictstack def % Count objects on dict stack
/op_count count 1 sub def      % Count objects on operand stack
userdict begin                 % Push userdict on dict stack
/showpage { } def              % Redefine showpage, { } = null proc
0 setgray 0 setlinecap         % Prepare graphics state
1 setlinewidth 0 setlinejoin
10 setmiterlimit [ ] 0 setdash newpath
/languagelevel where           % If level not equal to 1 then
{pop languagelevel             % set strokeadjust and
1 ne                           % overprint to their defaults.
{false setstrokeadjust false setoverprint
} if
} if
} bd
/EndEPSF { %def
count op_count sub {pop} repeat            % Clean up stacks
countdictstack dict_count sub {end} repeat
b4_Inc_state restore
} bd
%%EndResource
%FOPBeginFontDict
%%IncludeResource: font Courier-Bold
%%IncludeResource: font Helvetica
%%IncludeResource: font Courier-BoldOblique
%%IncludeResource: font Courier-Oblique
%%IncludeResource: font Times-Roman
%%IncludeResource: font Helvetica-BoldOblique
%%IncludeResource: font Helvetica-Bold
%%IncludeResource: font Helvetica-Oblique
%%IncludeResource: font Times-BoldItalic
%%IncludeResource: font Courier
%%IncludeResource: font Times-Italic
%%IncludeResource: font Times-Bold
%%IncludeResource: font Symbol
%%IncludeResource: font ZapfDingbats
%FOPEndFontDict
%%BeginResource: encoding WinAnsiEncoding
/WinAnsiEncoding [
/.notdef /.notdef /.notdef /.notdef /.notdef
/.notdef /.notdef /.notdef /.notdef /.notdef
/.notdef /.notdef /.notdef /.notdef /.notdef
/.notdef /.notdef /.notdef /.notdef /.notdef
/.notdef /.notdef /.notdef /.notdef /.notdef
/.notdef /.notdef /.notdef /.notdef /.notdef
/.notdef /.notdef /space /exclam /quotedbl
/numbersign /dollar /percent /ampersand /quotesingle
/parenleft /parenright /asterisk /plus /comma
/hyphen /period /slash /zero /one
/two /three /four /five /six
/seven /eight /nine /colon /semicolon
/less /equal /greater /question /at
/A /B /C /D /E
/F /G /H /I /J
/K /L /M /N /O
/P /Q /R /S /T
/U /V /W /X /Y
/Z /bracketleft /backslash /bracketright /asciicircum
/underscore /quoteleft /a /b /c
/d /e /f /g /h
/i /j /k /l /m
/n /o /p /q /r
/s /t /u /v /w
/x /y /z /braceleft /bar
/braceright /asciitilde /bullet /Euro /bullet
/quotesinglbase /florin /quotedblbase /ellipsis /dagger
/daggerdbl /circumflex /perthousand /Scaron /guilsinglleft
/OE /bullet /Zcaron /bullet /bullet
/quoteleft /quoteright /quotedblleft /quotedblright /bullet
/endash /emdash /asciitilde /trademark /scaron
/guilsinglright /oe /bullet /zcaron /Ydieresis
/space /exclamdown /cent /sterling /currency
/yen /brokenbar /section /dieresis /copyright
/ordfeminine /guillemotleft /logicalnot /sfthyphen /registered
/macron /degree /plusminus /twosuperior /threesuperior
/acute /mu /paragraph /middot /cedilla
/onesuperior /ordmasculine /guillemotright /onequarter /onehalf
/threequarters /questiondown /Agrave /Aacute /Acircumflex
/Atilde /Adieresis /Aring /AE /Ccedilla
/Egrave /Eacute /Ecircumflex /Edieresis /Igrave
/Iacute /Icircumflex /Idieresis /Eth /Ntilde
/Ograve /Oacute /Ocircumflex /Otilde /Odieresis
/multiply /Oslash /Ugrave /Uacute /Ucircumflex
/Udieresis /Yacute /Thorn /germandbls /agrave
/aacute /acircumflex /atilde /adieresis /aring
/ae /ccedilla /egrave /eacute /ecircumflex
/edieresis /igrave /iacute /icircumflex /idieresis
/eth /ntilde /ograve /oacute /ocircumflex
/otilde /odieresis /divide /oslash /ugrave
/uacute /ucircumflex /udieresis /yacute /thorn
/ydieresis
] def
%%EndResource
%FOPBeginFontReencode
/Courier-Bold findfont
dup length dict begin
  {1 index /FID ne {def} {pop pop} ifelse} forall
  /Encoding WinAnsiEncoding def
  currentdict
end
/Courier-Bold exch definefont pop
/Helvetica findfont
dup length dict begin
  {1 index /FID ne {def} {pop pop} ifelse} forall
  /Encoding WinAnsiEncoding def
  currentdict
end
/Helvetica exch definefont pop
/Courier-BoldOblique findfont
dup length dict begin
  {1 index /FID ne {def} {pop pop} ifelse} forall
  /Encoding WinAnsiEncoding def
  currentdict
end
/Courier-BoldOblique exch definefont pop
/Courier-Oblique findfont
dup length dict begin
  {1 index /FID ne {def} {pop pop} ifelse} forall
  /Encoding WinAnsiEncoding def
  currentdict
end
/Courier-Oblique exch definefont pop
/Times-Roman findfont
dup length dict begin
  {1 index /FID ne {def} {pop pop} ifelse} forall
  /Encoding WinAnsiEncoding def
  currentdict
end
/Times-Roman exch definefont pop
/Helvetica-BoldOblique findfont
dup length dict begin
  {1 index /FID ne {def} {pop pop} ifelse} forall
  /Encoding WinAnsiEncoding def
  currentdict
end
/Helvetica-BoldOblique exch definefont pop
/Helvetica-Bold findfont
dup length dict begin
  {1 index /FID ne {def} {pop pop} ifelse} forall
  /Encoding WinAnsiEncoding def
  currentdict
end
/Helvetica-Bold exch definefont pop
/Helvetica-Oblique findfont
dup length dict begin
  {1 index /FID ne {def} {pop pop} ifelse} forall
  /Encoding WinAnsiEncoding def
  currentdict
end
/Helvetica-Oblique exch definefont pop
/Times-BoldItalic findfont
dup length dict begin
  {1 index /FID ne {def} {pop pop} ifelse} forall
  /Encoding WinAnsiEncoding def
  currentdict
end
/Times-BoldItalic exch definefont pop
/Courier findfont
dup length dict begin
  {1 index /FID ne {def} {pop pop} ifelse} forall
  /Encoding WinAnsiEncoding def
  currentdict
end
/Courier exch definefont pop
/Times-Italic findfont
dup length dict begin
  {1 index /FID ne {def} {pop pop} ifelse} forall
  /Encoding WinAnsiEncoding def
  currentdict
end
/Times-Italic exch definefont pop
/Times-Bold findfont
dup length dict begin
  {1 index /FID ne {def} {pop pop} ifelse} forall
  /Encoding WinAnsiEncoding def
  currentdict
end
/Times-Bold exch definefont pop
%FOPEndFontReencode
%%EndProlog
%%Page: 1 1
%%PageBoundingBox: 0 0 420 315
%%BeginPageSetup
[1 0 0 -1 0 315] CT
%%EndPageSetup
GS
[0.5 0 0 0.5 0 0] CT
1 GC
N
0 0 840 630 re
f
GR
GS
[0.5 0 0 0.5 0 0] CT
1 GC
N
0 0 840 630 re
f
GR
GS
[0.5 0 0 0.5 0 0] CT
1 GC
N
109 561 M
760 561 L
760 47 L
109 47 L
cp
f
GR
GS
[0.5 0 0 0.5 0 0] CT
0.873 GC
1 LJ
N
109 561 M
109 47 L
S
GR
GS
[0.5 0 0 0.5 0 0] CT
0.873 GC
1 LJ
N
174.23 561 M
174.23 47 L
S
GR
GS
[0.5 0 0 0.5 0 0] CT
0.873 GC
1 LJ
N
239.461 561 M
239.461 47 L
S
GR
GS
[0.5 0 0 0.5 0 0] CT
0.873 GC
1 LJ
N
304.691 561 M
304.691 47 L
S
GR
GS
[0.5 0 0 0.5 0 0] CT
0.873 GC
1 LJ
N
369.922 561 M
369.922 47 L
S
GR
GS
[0.5 0 0 0.5 0 0] CT
0.873 GC
1 LJ
N
435.152 561 M
435.152 47 L
S
GR
GS
[0.5 0 0 0.5 0 0] CT
0.873 GC
1 LJ
N
500.383 561 M
500.383 47 L
S
GR
GS
[0.5 0 0 0.5 0 0] CT
0.873 GC
1 LJ
N
565.613 561 M
565.613 47 L
S
GR
GS
[0.5 0 0 0.5 0 0] CT
0.873 GC
1 LJ
N
630.844 561 M
630.844 47 L
S
GR
GS
[0.5 0 0 0.5 0 0] CT
0.873 GC
1 LJ
N
696.074 561 M
696.074 47 L
S
GR
GS
[0.5 0 0 0.5 0 0] CT
0.873 GC
1 LJ
N
760 561 M
109 561 L
S
GR
GS
[0.5 0 0 0.5 0 0] CT
0.873 GC
1 LJ
N
760 509.6 M
109 509.6 L
S
GR
GS
[0.5 0 0 0.5 0 0] CT
0.873 GC
1 LJ
N
760 458.2 M
109 458.2 L
S
GR
GS
[0.5 0 0 0.5 0 0] CT
0.873 GC
1 LJ
N
760 406.8 M
109 406.8 L
S
GR
GS
[0.5 0 0 0.5 0 0] CT
0.873 GC
1 LJ
N
760 355.4 M
109 355.4 L
S
GR
GS
[0.5 0 0 0.5 0 0] CT
0.873 GC
1 LJ
N
760 304 M
109 304 L
S
GR
GS
[0.5 0 0 0.5 0 0] CT
0.873 GC
1 LJ
N
760 252.6 M
109 252.6 L
S
GR
GS
[0.5 0 0 0.5 0 0] CT
0.873 GC
1 LJ
N
760 201.2 M
109 201.2 L
S
GR
GS
[0.5 0 0 0.5 0 0] CT
0.873 GC
1 LJ
N
760 149.8 M
109 149.8 L
S
GR
GS
[0.5 0 0 0.5 0 0] CT
0.873 GC
1 LJ
N
760 98.4 M
109 98.4 L
S
GR
GS
[0.5 0 0 0.5 0 0] CT
0.873 GC
1 LJ
N
760 47 M
109 47 L
S
GR
GS
[0.5 0 0 0.5 0 0] CT
0.149 GC
2 setlinecap
1 LJ
N
109 561 M
760 561 L
S
GR
GS
[0.5 0 0 0.5 0 0] CT
0.149 GC
2 setlinecap
1 LJ
N
109 47 M
760 47 L
S
GR
GS
[0.5 0 0 0.5 0 0] CT
0.149 GC
2 setlinecap
1 LJ
N
109 561 M
109 554.49 L
S
GR
GS
[0.5 0 0 0.5 0 0] CT
0.149 GC
2 setlinecap
1 LJ
N
174.23 561 M
174.23 554.49 L
S
GR
GS
[0.5 0 0 0.5 0 0] CT
0.149 GC
2 setlinecap
1 LJ
N
239.461 561 M
239.461 554.49 L
S
GR
GS
[0.5 0 0 0.5 0 0] CT
0.149 GC
2 setlinecap
1 LJ
N
304.691 561 M
304.691 554.49 L
S
GR
GS
[0.5 0 0 0.5 0 0] CT
0.149 GC
2 setlinecap
1 LJ
N
369.922 561 M
369.922 554.49 L
S
GR
GS
[0.5 0 0 0.5 0 0] CT
0.149 GC
2 setlinecap
1 LJ
N
435.152 561 M
435.152 554.49 L
S
GR
GS
[0.5 0 0 0.5 0 0] CT
0.149 GC
2 setlinecap
1 LJ
N
500.383 561 M
500.383 554.49 L
S
GR
GS
[0.5 0 0 0.5 0 0] CT
0.149 GC
2 setlinecap
1 LJ
N
565.613 561 M
565.613 554.49 L
S
GR
GS
[0.5 0 0 0.5 0 0] CT
0.149 GC
2 setlinecap
1 LJ
N
630.844 561 M
630.844 554.49 L
S
GR
GS
[0.5 0 0 0.5 0 0] CT
0.149 GC
2 setlinecap
1 LJ
N
696.074 561 M
696.074 554.49 L
S
GR
GS
[0.5 0 0 0.5 0 0] CT
0.149 GC
2 setlinecap
1 LJ
N
109 47 M
109 53.51 L
S
GR
GS
[0.5 0 0 0.5 0 0] CT
0.149 GC
2 setlinecap
1 LJ
N
174.23 47 M
174.23 53.51 L
S
GR
GS
[0.5 0 0 0.5 0 0] CT
0.149 GC
2 setlinecap
1 LJ
N
239.461 47 M
239.461 53.51 L
S
GR
GS
[0.5 0 0 0.5 0 0] CT
0.149 GC
2 setlinecap
1 LJ
N
304.691 47 M
304.691 53.51 L
S
GR
GS
[0.5 0 0 0.5 0 0] CT
0.149 GC
2 setlinecap
1 LJ
N
369.922 47 M
369.922 53.51 L
S
GR
GS
[0.5 0 0 0.5 0 0] CT
0.149 GC
2 setlinecap
1 LJ
N
435.152 47 M
435.152 53.51 L
S
GR
GS
[0.5 0 0 0.5 0 0] CT
0.149 GC
2 setlinecap
1 LJ
N
500.383 47 M
500.383 53.51 L
S
GR
GS
[0.5 0 0 0.5 0 0] CT
0.149 GC
2 setlinecap
1 LJ
N
565.613 47 M
565.613 53.51 L
S
GR
GS
[0.5 0 0 0.5 0 0] CT
0.149 GC
2 setlinecap
1 LJ
N
630.844 47 M
630.844 53.51 L
S
GR
GS
[0.5 0 0 0.5 0 0] CT
0.149 GC
2 setlinecap
1 LJ
N
696.074 47 M
696.074 53.51 L
S
GR
GS
[0.5 0 0 0.5 54.5 284.5] CT
0.149 GC
/Helvetica 20 F
GS
[1 0 0 1 0 0] CT
-6 21 moveto 
1 -1 scale
(0) t 
GR
GR
GS
[0.5 0 0 0.5 87.11523 284.5] CT
0.149 GC
/Helvetica 20 F
GS
[1 0 0 1 0 0] CT
-11.5 21 moveto 
1 -1 scale
(50) t 
GR
GR
GS
[0.5 0 0 0.5 119.73046 284.5] CT
0.149 GC
/Helvetica 20 F
GS
[1 0 0 1 0 0] CT
-17 21 moveto 
1 -1 scale
(100) t 
GR
GR
GS
[0.5 0 0 0.5 152.34569 284.5] CT
0.149 GC
/Helvetica 20 F
GS
[1 0 0 1 0 0] CT
-17 21 moveto 
1 -1 scale
(150) t 
GR
GR
GS
[0.5 0 0 0.5 184.96092 284.5] CT
0.149 GC
/Helvetica 20 F
GS
[1 0 0 1 0 0] CT
-17 21 moveto 
1 -1 scale
(200) t 
GR
GR
GS
[0.5 0 0 0.5 217.57616 284.5] CT
0.149 GC
/Helvetica 20 F
GS
[1 0 0 1 0 0] CT
-17 21 moveto 
1 -1 scale
(250) t 
GR
GR
GS
[0.5 0 0 0.5 250.19138 284.5] CT
0.149 GC
/Helvetica 20 F
GS
[1 0 0 1 0 0] CT
-17 21 moveto 
1 -1 scale
(300) t 
GR
GR
GS
[0.5 0 0 0.5 282.80661 284.5] CT
0.149 GC
/Helvetica 20 F
GS
[1 0 0 1 0 0] CT
-17 21 moveto 
1 -1 scale
(350) t 
GR
GR
GS
[0.5 0 0 0.5 315.42184 284.5] CT
0.149 GC
/Helvetica 20 F
GS
[1 0 0 1 0 0] CT
-17 21 moveto 
1 -1 scale
(400) t 
GR
GR
GS
[0.5 0 0 0.5 348.03708 284.5] CT
0.149 GC
/Helvetica 20 F
GS
[1 0 0 1 0 0] CT
-17 21 moveto 
1 -1 scale
(450) t 
GR
GR
GS
[0.5 0 0 0.5 217.25015 298.5] CT
0.149 GC
/Helvetica 22 F
GS
[1 0 0 1 0 0] CT
-5.5 23 moveto 
1 -1 scale
(k) t 
GR
GR
GS
[0.5 0 0 0.5 0 0] CT
0.149 GC
2 setlinecap
1 LJ
N
109 561 M
109 47 L
S
GR
GS
[0.5 0 0 0.5 0 0] CT
0.149 GC
2 setlinecap
1 LJ
N
760 561 M
760 47 L
S
GR
GS
[0.5 0 0 0.5 0 0] CT
0.149 GC
2 setlinecap
1 LJ
N
109 561 M
115.51 561 L
S
GR
GS
[0.5 0 0 0.5 0 0] CT
0.149 GC
2 setlinecap
1 LJ
N
109 509.6 M
115.51 509.6 L
S
GR
GS
[0.5 0 0 0.5 0 0] CT
0.149 GC
2 setlinecap
1 LJ
N
109 458.2 M
115.51 458.2 L
S
GR
GS
[0.5 0 0 0.5 0 0] CT
0.149 GC
2 setlinecap
1 LJ
N
109 406.8 M
115.51 406.8 L
S
GR
GS
[0.5 0 0 0.5 0 0] CT
0.149 GC
2 setlinecap
1 LJ
N
109 355.4 M
115.51 355.4 L
S
GR
GS
[0.5 0 0 0.5 0 0] CT
0.149 GC
2 setlinecap
1 LJ
N
109 304 M
115.51 304 L
S
GR
GS
[0.5 0 0 0.5 0 0] CT
0.149 GC
2 setlinecap
1 LJ
N
109 252.6 M
115.51 252.6 L
S
GR
GS
[0.5 0 0 0.5 0 0] CT
0.149 GC
2 setlinecap
1 LJ
N
109 201.2 M
115.51 201.2 L
S
GR
GS
[0.5 0 0 0.5 0 0] CT
0.149 GC
2 setlinecap
1 LJ
N
109 149.8 M
115.51 149.8 L
S
GR
GS
[0.5 0 0 0.5 0 0] CT
0.149 GC
2 setlinecap
1 LJ
N
109 98.4 M
115.51 98.4 L
S
GR
GS
[0.5 0 0 0.5 0 0] CT
0.149 GC
2 setlinecap
1 LJ
N
109 47 M
115.51 47 L
S
GR
GS
[0.5 0 0 0.5 0 0] CT
0.149 GC
2 setlinecap
1 LJ
N
760 561 M
753.49 561 L
S
GR
GS
[0.5 0 0 0.5 0 0] CT
0.149 GC
2 setlinecap
1 LJ
N
760 509.6 M
753.49 509.6 L
S
GR
GS
[0.5 0 0 0.5 0 0] CT
0.149 GC
2 setlinecap
1 LJ
N
760 458.2 M
753.49 458.2 L
S
GR
GS
[0.5 0 0 0.5 0 0] CT
0.149 GC
2 setlinecap
1 LJ
N
760 406.8 M
753.49 406.8 L
S
GR
GS
[0.5 0 0 0.5 0 0] CT
0.149 GC
2 setlinecap
1 LJ
N
760 355.4 M
753.49 355.4 L
S
GR
GS
[0.5 0 0 0.5 0 0] CT
0.149 GC
2 setlinecap
1 LJ
N
760 304 M
753.49 304 L
S
GR
GS
[0.5 0 0 0.5 0 0] CT
0.149 GC
2 setlinecap
1 LJ
N
760 252.6 M
753.49 252.6 L
S
GR
GS
[0.5 0 0 0.5 0 0] CT
0.149 GC
2 setlinecap
1 LJ
N
760 201.2 M
753.49 201.2 L
S
GR
GS
[0.5 0 0 0.5 0 0] CT
0.149 GC
2 setlinecap
1 LJ
N
760 149.8 M
753.49 149.8 L
S
GR
GS
[0.5 0 0 0.5 0 0] CT
0.149 GC
2 setlinecap
1 LJ
N
760 98.4 M
753.49 98.4 L
S
GR
GS
[0.5 0 0 0.5 0 0] CT
0.149 GC
2 setlinecap
1 LJ
N
760 47 M
753.49 47 L
S
GR
GS
[0.5 0 0 0.5 50.5 280.5] CT
0.149 GC
/Helvetica 20 F
GS
[1 0 0 1 0 0] CT
-29 8 moveto 
1 -1 scale
(-20) t 
GR
GR
GS
[0.5 0 0 0.5 50.5 254.8] CT
0.149 GC
/Helvetica 20 F
GS
[1 0 0 1 0 0] CT
-29 8 moveto 
1 -1 scale
(-15) t 
GR
GR
GS
[0.5 0 0 0.5 50.5 229.10001] CT
0.149 GC
/Helvetica 20 F
GS
[1 0 0 1 0 0] CT
-29 8 moveto 
1 -1 scale
(-10) t 
GR
GR
GS
[0.5 0 0 0.5 50.5 203.39999] CT
0.149 GC
/Helvetica 20 F
GS
[1 0 0 1 0 0] CT
-18 8 moveto 
1 -1 scale
(-5) t 
GR
GR
GS
[0.5 0 0 0.5 50.5 177.7] CT
0.149 GC
/Helvetica 20 F
GS
[1 0 0 1 0 0] CT
-12 8 moveto 
1 -1 scale
(0) t 
GR
GR
GS
[0.5 0 0 0.5 50.5 152] CT
0.149 GC
/Helvetica 20 F
GS
[1 0 0 1 0 0] CT
-12 8 moveto 
1 -1 scale
(5) t 
GR
GR
GS
[0.5 0 0 0.5 50.5 126.3] CT
0.149 GC
/Helvetica 20 F
GS
[1 0 0 1 0 0] CT
-23 8 moveto 
1 -1 scale
(10) t 
GR
GR
GS
[0.5 0 0 0.5 50.5 100.6] CT
0.149 GC
/Helvetica 20 F
GS
[1 0 0 1 0 0] CT
-23 8 moveto 
1 -1 scale
(15) t 
GR
GR
GS
[0.5 0 0 0.5 50.5 74.9] CT
0.149 GC
/Helvetica 20 F
GS
[1 0 0 1 0 0] CT
-23 8 moveto 
1 -1 scale
(20) t 
GR
GR
GS
[0.5 0 0 0.5 50.5 49.2] CT
0.149 GC
/Helvetica 20 F
GS
[1 0 0 1 0 0] CT
-23 8 moveto 
1 -1 scale
(25) t 
GR
GR
GS
[0.5 0 0 0.5 50.5 23.5] CT
0.149 GC
/Helvetica 20 F
GS
[1 0 0 1 0 0] CT
-23 8 moveto 
1 -1 scale
(30) t 
GR
GR
GS
[0 -0.5 0.5 0 25.5 172] CT
0.149 GC
/Helvetica 22 F
GS
[1 0 0 1 0 0] CT
0 0 moveto 
1 -1 scale
(|f) t 
GR
GR
GS
[0 -0.5 0.5 0 31 166] CT
0.149 GC
/Helvetica 17.6 F
GS
[1 0 0 1 0 0] CT
0 0 moveto 
1 -1 scale
(N) t 
GR
GR
GS
[0 -0.5 0.5 0 25.5 159.5] CT
0.149 GC
/Helvetica 22 F
GS
[1 0 0 1 0 0] CT
0 0 moveto 
1 -1 scale
(\(k\)|) t 
GR
GR
GS
[0 -0.5 0.5 0 31 143.5] CT
0.149 GC
/Helvetica 17.6 F
GS
[1 0 0 1 0 0] CT
0 0 moveto 
1 -1 scale
(dB) t 
GR
GR
GS
[0 -0.5 0.5 0 20 143.5] CT
0.149 GC
/Helvetica 17.6 F
GS
[1 0 0 1 0 0] CT
0 0 moveto 
1 -1 scale
(2) t 
GR
GR
GS
[0.5 0 0 0.5 217.25021 21.625] CT
/Helvetica-Bold 30 F
GS
[1 0 0 1 0 0] CT
-114.5 -7 moveto 
1 -1 scale
(Prediction Error) t 
GR
GR
GS
[0.5 0 0 0.5 0 0] CT
0.851 0.325 0.098 RC
1 LJ
N
110.305 126.383 M
111.609 123.24 L
112.914 157.847 L
114.218 104.52 L
115.523 95.998 L
116.828 97.737 L
118.132 126.021 L
119.437 133.059 L
120.741 222.911 L
122.046 212.028 L
123.351 132.429 L
124.655 113.641 L
125.96 249.657 L
127.265 136.073 L
128.569 204.829 L
129.874 187.358 L
131.178 207.736 L
132.483 228.428 L
133.788 286.064 L
135.092 145.191 L
136.397 192.551 L
137.701 139.014 L
139.006 222.35 L
140.311 306.156 L
141.615 234.558 L
142.92 168.615 L
144.224 240.685 L
145.529 144.657 L
146.834 168.164 L
148.138 168.008 L
149.443 165.142 L
150.747 260.324 L
152.052 209.898 L
153.357 171.199 L
154.661 138.788 L
155.966 272.058 L
157.271 250.005 L
158.575 232.972 L
159.88 240.157 L
161.184 193.299 L
162.489 198.771 L
163.794 152.604 L
165.098 434.401 L
166.403 250.614 L
167.707 150.137 L
169.012 181.741 L
170.317 180.311 L
171.621 181.331 L
172.926 223.429 L
174.23 392.23 L
175.535 121.3 L
176.84 269.544 L
178.144 268.108 L
179.449 228.595 L
180.754 167.591 L
182.058 391.279 L
183.363 277.635 L
184.667 172.945 L
185.972 134.612 L
187.277 297.777 L
188.581 192.656 L
189.886 117.25 L
191.19 178.461 L
192.495 287.943 L
193.8 134.803 L
195.104 173.115 L
196.409 197.727 L
197.713 351.686 L
199.018 237.4 L
200.323 256.959 L
201.627 133.642 L
202.932 204.181 L
204.236 302.484 L
205.541 243.606 L
206.846 264.741 L
208.15 180.425 L
209.455 133.053 L
210.76 219.411 L
212.064 168.666 L
213.369 138.157 L
214.673 161.342 L
215.978 248.672 L
217.283 218.237 L
218.587 137.817 L
219.892 207.752 L
221.196 280.624 L
222.501 281.071 L
223.806 274.413 L
225.11 158.145 L
226.415 171.045 L
227.719 206.744 L
229.024 255.895 L
230.329 260.515 L
231.633 160.749 L
232.938 214.031 L
234.242 138.995 L
235.547 320.029 L
236.852 205.11 L
238.156 236.727 L
239.461 236.642 L
240.766 173.883 L
242.07 182.897 L
243.375 125.946 L
244.679 177.716 L
245.984 151.924 L
247.289 109.644 L
248.593 173.148 L
249.898 212.973 L
251.202 358.927 L
252.507 227.354 L
253.812 170.344 L
255.116 153.469 L
256.421 193.234 L
257.725 175.017 L
259.03 270.098 L
260.335 338.809 L
261.639 133.101 L
262.944 147.577 L
264.249 162.467 L
265.553 197.905 L
266.858 178.125 L
268.162 182.12 L
269.467 157.148 L
270.772 193.523 L
272.076 158.942 L
273.381 152.958 L
274.685 240.693 L
275.99 306.301 L
277.295 199.319 L
278.599 271.869 L
279.904 277.89 L
281.208 174.549 L
282.513 146.116 L
283.818 152.982 L
285.122 166.767 L
286.427 190.887 L
287.731 176.166 L
289.036 180.058 L
290.341 187.813 L
291.645 262.748 L
292.95 229.009 L
294.255 223.834 L
295.559 178.298 L
296.864 156.009 L
298.168 213.165 L
299.473 178.665 L
300.778 335.106 L
302.082 234.7 L
303.387 168.592 L
304.691 189.068 L
305.996 173.616 L
307.301 183.844 L
308.605 140.103 L
309.91 254.94 L
311.214 199.23 L
312.519 414.47 L
313.824 302.482 L
315.128 205.79 L
316.433 215.16 L
317.737 108.89 L
319.042 269.743 L
320.347 159.863 L
321.651 173.287 L
322.956 122.894 L
324.261 203.771 L
325.565 196.825 L
326.87 252.443 L
328.174 188.113 L
329.479 201.483 L
330.784 165.954 L
332.088 162.5 L
333.393 268.111 L
334.697 190.602 L
336.002 279.064 L
337.307 155.593 L
338.611 253.553 L
339.916 171.56 L
341.22 171.403 L
342.525 213.493 L
343.83 198.274 L
345.134 156.291 L
346.439 186.309 L
347.743 168.835 L
349.048 206.866 L
350.353 122.224 L
351.657 306.073 L
352.962 308.746 L
354.267 168.659 L
355.571 169.048 L
356.876 207.473 L
358.18 197.829 L
359.485 165.394 L
360.79 290.139 L
362.094 151.78 L
363.399 230.277 L
364.703 293.013 L
366.008 193.389 L
367.313 147.521 L
368.617 188.823 L
369.922 294.747 L
371.226 165.024 L
372.531 222.638 L
373.836 124.588 L
375.14 174.941 L
376.445 153.232 L
377.75 166.445 L
379.054 317.107 L
380.359 277.849 L
381.663 200.145 L
382.968 174.648 L
384.273 114.987 L
385.577 202.573 L
386.882 152.835 L
388.186 217.846 L
389.491 166.671 L
390.796 202.311 L
392.1 295.975 L
393.405 269.314 L
394.709 149.988 L
396.014 165.146 L
397.319 291.92 L
398.623 291.302 L
399.928 217.865 L
401.232 285.139 L
402.537 311.486 L
403.842 173.533 L
405.146 149.675 L
406.451 269.236 L
407.756 266.043 L
409.06 164.019 L
410.365 199.927 L
411.669 182.323 L
412.974 138.795 L
414.279 202.93 L
415.583 241.531 L
416.888 211.987 L
418.192 218.442 L
419.497 326.585 L
420.802 279.085 L
422.106 108.055 L
423.411 195.665 L
424.715 193.685 L
426.02 217.389 L
427.325 160.072 L
428.629 162.071 L
429.934 152.56 L
431.238 220.114 L
432.543 223.621 L
433.848 232.998 L
435.152 158.036 L
436.457 155.052 L
437.762 114.832 L
439.066 164.217 L
440.371 133.845 L
441.675 178.503 L
442.98 187.999 L
444.285 177.66 L
445.589 225.957 L
446.894 204.727 L
448.198 172.649 L
449.503 152.466 L
450.808 218.789 L
452.112 266.427 L
453.417 143.8 L
454.721 212.304 L
456.026 157.213 L
457.331 227.545 L
458.635 234.206 L
459.94 220.41 L
461.244 182.327 L
462.549 198.22 L
463.854 189.285 L
465.158 214.542 L
466.463 372.51 L
467.768 168.047 L
469.072 214.985 L
470.377 225.549 L
471.681 175.286 L
472.986 127.356 L
474.291 155.857 L
475.595 120.629 L
476.9 258.499 L
478.204 155.313 L
479.509 206.825 L
480.814 218.062 L
482.118 256.699 L
483.423 161.456 L
484.727 201.746 L
486.032 219.094 L
487.337 223.026 L
488.641 202.818 L
489.946 302.278 L
491.25 178.282 L
492.555 157.528 L
493.86 154.819 L
495.164 175.638 L
496.469 139.739 L
497.774 222.748 L
499.078 192.167 L
500.383 178.258 L
501.687 196.444 L
502.992 178.78 L
504.297 264.308 L
505.601 173.041 L
506.906 183.326 L
508.21 171.326 L
509.515 192.34 L
510.82 269.789 L
512.124 210.035 L
513.429 236.236 L
514.733 265.552 L
516.038 299.523 L
517.343 255.688 L
518.647 208.92 L
519.952 145.419 L
521.257 243.776 L
522.561 211.651 L
523.866 222.037 L
525.17 238.559 L
526.475 360.918 L
527.78 259.59 L
529.084 142.72 L
530.389 154.682 L
531.693 220.577 L
532.998 116.57 L
534.303 173.89 L
535.607 217.265 L
536.912 365.322 L
538.216 209.665 L
539.521 191.065 L
540.826 274.81 L
542.13 249.385 L
543.435 393.91 L
544.74 182.545 L
546.044 250.237 L
547.349 307.334 L
548.653 249.492 L
549.958 279.292 L
551.263 148.763 L
552.567 196.512 L
553.872 188.939 L
555.176 234.03 L
556.481 264.473 L
557.786 241.093 L
559.09 198.948 L
560.395 156.41 L
561.699 160.472 L
563.004 220.812 L
564.309 272.17 L
565.613 158.634 L
566.918 188.558 L
568.222 250.941 L
569.527 160.99 L
570.832 140.752 L
572.136 145.16 L
573.441 228.129 L
574.745 143.761 L
576.05 283.672 L
577.355 259.742 L
578.659 168.05 L
579.964 140.064 L
581.269 145.634 L
582.573 190.762 L
583.878 307.176 L
585.182 217.024 L
586.487 162.149 L
587.792 244.886 L
589.096 167.389 L
590.401 300.673 L
591.705 272.741 L
593.01 220.197 L
594.315 114.64 L
595.619 181.809 L
596.924 194.872 L
598.228 191.008 L
599.533 200.694 L
600.838 186.565 L
602.142 174.327 L
603.447 291.435 L
604.752 411.89 L
606.056 240.014 L
607.361 135.035 L
608.665 196.431 L
609.97 120.068 L
611.275 205.496 L
612.579 492.893 L
613.884 393.298 L
615.188 262.215 L
616.493 217.372 L
617.798 172.444 L
619.102 210.07 L
620.407 277.154 L
621.711 239.728 L
623.016 137.716 L
624.321 154.542 L
625.625 152.276 L
626.93 198.975 L
628.234 186.028 L
629.539 186.258 L
630.844 158.393 L
632.148 288.546 L
633.453 194.055 L
634.758 210.627 L
636.062 297.694 L
637.367 169.151 L
638.671 294.789 L
639.976 176.945 L
641.281 281.135 L
642.585 163.001 L
643.89 140.944 L
645.194 232.67 L
646.499 202.884 L
647.804 186.094 L
649.108 178.167 L
650.413 171.86 L
651.717 165.116 L
653.022 327.962 L
654.327 137.906 L
655.631 148.516 L
656.936 136.177 L
658.24 296.81 L
659.545 161.079 L
660.85 194.171 L
662.154 248.563 L
663.459 213.728 L
664.764 145.515 L
666.068 162.915 L
667.373 210.965 L
668.677 202.233 L
669.982 178.269 L
671.287 296.6 L
672.591 171.94 L
673.896 298.415 L
675.2 335.358 L
676.505 247.95 L
677.81 264.883 L
679.114 153.303 L
680.419 135.771 L
681.723 194.299 L
683.028 180.806 L
684.333 139.106 L
685.637 153.582 L
686.942 142.733 L
688.247 192.511 L
689.551 253.467 L
690.856 205.762 L
692.16 141.075 L
693.465 212.061 L
694.77 250.846 L
696.074 303.522 L
697.379 240.311 L
698.683 185.866 L
699.988 160.075 L
701.293 255.285 L
702.597 207.076 L
703.902 232.963 L
705.206 219.409 L
706.511 184.547 L
707.816 247.487 L
709.12 203.983 L
710.425 262.82 L
711.729 201.255 L
713.034 172.376 L
714.339 147.443 L
715.643 382.229 L
716.948 159.129 L
718.253 159.551 L
719.557 199.726 L
720.862 202.126 L
722.166 190.74 L
723.471 191.703 L
724.776 251.353 L
726.08 281.823 L
727.385 226.934 L
728.689 190.97 L
729.994 149.208 L
731.299 221.729 L
732.603 185.061 L
733.908 208.951 L
735.212 386.535 L
736.517 146.153 L
737.822 168.525 L
739.126 230.463 L
740.431 165.907 L
741.735 196.055 L
743.04 229.377 L
744.345 251.481 L
745.649 180.472 L
746.954 182.779 L
748.259 230.899 L
749.563 141.288 L
750.868 181.011 L
752.172 176.811 L
753.477 239.697 L
754.782 224.231 L
756.086 293.335 L
757.391 313.054 L
758.695 187.566 L
760 181.675 L
760.078 181.694 L
S
GR
GS
[0.5 0 0 0.5 0 0] CT
0.494 0.184 0.557 RC
1 LJ
N
110.305 126.383 M
111.609 124.156 L
112.914 128.805 L
114.218 81.771 L
115.523 109.739 L
116.828 134.63 L
118.132 176.449 L
119.437 88.419 L
120.741 149.072 L
122.046 188.526 L
123.351 102.916 L
124.655 155.039 L
125.96 180.73 L
127.265 97.741 L
128.569 113.082 L
129.874 143.614 L
131.178 135.316 L
132.483 206.884 L
133.788 165.78 L
135.092 119.036 L
136.397 206.103 L
137.701 200.578 L
139.006 166.313 L
140.311 174.444 L
141.615 147.278 L
142.92 110.707 L
144.224 224.451 L
145.529 216.033 L
146.834 216.484 L
148.138 194.765 L
149.443 214.964 L
150.747 221.043 L
152.052 236.547 L
153.357 166.502 L
154.661 130.503 L
155.966 208.138 L
157.271 187.461 L
158.575 210.382 L
159.88 176.428 L
161.184 315.375 L
162.489 185.143 L
163.794 123.769 L
165.098 218.783 L
166.403 197.193 L
167.707 127.704 L
169.012 142.13 L
170.317 246.288 L
171.621 167.347 L
172.926 269.625 L
174.23 218.15 L
175.535 99.814 L
176.84 220.929 L
178.144 166.534 L
179.449 172.536 L
180.754 165.558 L
182.058 205.822 L
183.363 198.154 L
184.667 136.884 L
185.972 129.699 L
187.277 181.849 L
188.581 144.642 L
189.886 88.573 L
191.19 120.639 L
192.495 149.345 L
193.8 186.974 L
195.104 249.848 L
196.409 144.729 L
197.713 214.595 L
199.018 143.52 L
200.323 280.461 L
201.627 106.337 L
202.932 143.755 L
204.236 217.076 L
205.541 202.159 L
206.846 233.014 L
208.15 207.991 L
209.455 113.595 L
210.76 290.637 L
212.064 218.365 L
213.369 125.083 L
214.673 174.222 L
215.978 176.061 L
217.283 194.545 L
218.587 141.159 L
219.892 168.466 L
221.196 214.779 L
222.501 236.799 L
223.806 214.381 L
225.11 140.645 L
226.415 134.104 L
227.719 289.455 L
229.024 222.039 L
230.329 225.798 L
231.633 151.008 L
232.938 170.636 L
234.242 159.284 L
235.547 237.947 L
236.852 171.883 L
238.156 188.501 L
239.461 180.135 L
240.766 221.801 L
242.07 163.319 L
243.375 140.743 L
244.679 197.558 L
245.984 141.025 L
247.289 95.782 L
248.593 166.483 L
249.898 244.793 L
251.202 306.901 L
252.507 192.341 L
253.812 188.851 L
255.116 160.938 L
256.421 208.1 L
257.725 194.982 L
259.03 287.516 L
260.335 296.725 L
261.639 133.65 L
262.944 139.616 L
264.249 164.893 L
265.553 195.779 L
266.858 172.253 L
268.162 167.252 L
269.467 164.48 L
270.772 186.461 L
272.076 157.68 L
273.381 154.275 L
274.685 196.65 L
275.99 302.89 L
277.295 186.981 L
278.599 271.02 L
279.904 240.293 L
281.208 177.369 L
282.513 146.975 L
283.818 153.611 L
285.122 168.696 L
286.427 207.747 L
287.731 166.067 L
289.036 195.04 L
290.341 179.822 L
291.645 260.171 L
292.95 193.038 L
294.255 252.127 L
295.559 163.307 L
296.864 147.334 L
298.168 267.479 L
299.473 160.766 L
300.778 329.522 L
302.082 202.669 L
303.387 156.573 L
304.691 176.553 L
305.996 152.591 L
307.301 162.752 L
308.605 150.487 L
309.91 237.846 L
311.214 201.696 L
312.519 303.856 L
313.824 341.878 L
315.128 206.322 L
316.433 184.958 L
317.737 103.13 L
319.042 222.952 L
320.347 178.586 L
321.651 169.604 L
322.956 127.461 L
324.261 249.001 L
325.565 175.443 L
326.87 266.227 L
328.174 176.13 L
329.479 173.694 L
330.784 167.421 L
332.088 153.753 L
333.393 257.623 L
334.697 200.265 L
336.002 292.575 L
337.307 150.883 L
338.611 258.702 L
339.916 171.672 L
341.22 165.557 L
342.525 206.356 L
343.83 197.796 L
345.134 155.678 L
346.439 182.287 L
347.743 174.814 L
349.048 198.433 L
350.353 115.43 L
351.657 286.936 L
352.962 241.705 L
354.267 167.448 L
355.571 173.418 L
356.876 201.398 L
358.18 190.895 L
359.485 174.689 L
360.79 306.746 L
362.094 154.063 L
363.399 260.329 L
364.703 307.974 L
366.008 196.149 L
367.313 147.815 L
368.617 189.839 L
369.922 259.094 L
371.226 167.467 L
372.531 226.396 L
373.836 129.435 L
375.14 172.419 L
376.445 153.162 L
377.75 162.099 L
379.054 259.867 L
380.359 294.323 L
381.663 203.187 L
382.968 178.695 L
384.273 119.273 L
385.577 207.601 L
386.882 156.783 L
388.186 194.977 L
389.491 156.415 L
390.796 199.642 L
392.1 259.27 L
393.405 260.37 L
394.709 156.749 L
396.014 168.427 L
397.319 315.1 L
398.623 310.488 L
399.928 205.082 L
401.232 298.886 L
402.537 391.364 L
403.842 170.69 L
405.146 151.585 L
406.451 237.628 L
407.756 265.795 L
409.06 165.696 L
410.365 214.497 L
411.669 173.412 L
412.974 134.842 L
414.279 204.218 L
415.583 258.832 L
416.888 220.395 L
418.192 218.789 L
419.497 310.558 L
420.802 331.495 L
422.106 104.956 L
423.411 217.865 L
424.715 187.823 L
426.02 210.188 L
427.325 164.814 L
428.629 164.666 L
429.934 154.619 L
431.238 206.406 L
432.543 221.74 L
433.848 210.194 L
435.152 160.018 L
436.457 157.757 L
437.762 113.21 L
439.066 151.531 L
440.371 139.304 L
441.675 160.648 L
442.98 200.815 L
444.285 169.618 L
445.589 226.969 L
446.894 203.123 L
448.198 165.42 L
449.503 149.933 L
450.808 196.005 L
452.112 244.672 L
453.417 132.305 L
454.721 253.708 L
456.026 160.319 L
457.331 215.785 L
458.635 223.16 L
459.94 220.724 L
461.244 171.174 L
462.549 207.553 L
463.854 186.557 L
465.158 204.347 L
466.463 443.341 L
467.768 172.371 L
469.072 225.091 L
470.377 221.987 L
471.681 172.402 L
472.986 132.256 L
474.291 156.573 L
475.595 128.137 L
476.9 265.773 L
478.204 153.919 L
479.509 235.981 L
480.814 200.813 L
482.118 255.546 L
483.423 167.456 L
484.727 190.995 L
486.032 218.979 L
487.337 230.364 L
488.641 214.941 L
489.946 263.6 L
491.25 174.848 L
492.555 159.569 L
493.86 163.689 L
495.164 170.051 L
496.469 133.326 L
497.774 213.62 L
499.078 183.132 L
500.383 184.154 L
501.687 183.583 L
502.992 171.543 L
504.297 236.47 L
505.601 174.521 L
506.906 169.255 L
508.21 169.318 L
509.515 194.778 L
510.82 273.904 L
512.124 210.418 L
513.429 263.463 L
514.733 261.098 L
516.038 321.281 L
517.343 274.35 L
518.647 212.468 L
519.952 146.468 L
521.257 229.218 L
522.561 216.929 L
523.866 205.196 L
525.17 272.114 L
526.475 546.365 L
527.78 265.759 L
529.084 142.85 L
530.389 160.948 L
531.693 220.588 L
532.998 111.28 L
534.303 170.086 L
535.607 240.669 L
536.912 384.721 L
538.216 228.058 L
539.521 204.822 L
540.826 218.146 L
542.13 271.796 L
543.435 408.383 L
544.74 179.807 L
546.044 271.999 L
547.349 326.58 L
548.653 239.397 L
549.958 343.094 L
551.263 152.346 L
552.567 201.159 L
553.872 191.945 L
555.176 217.397 L
556.481 220.204 L
557.786 215.702 L
559.09 194.767 L
560.395 151.064 L
561.699 150.725 L
563.004 229.788 L
564.309 287.158 L
565.613 167.466 L
566.918 209.592 L
568.222 235.775 L
569.527 155.512 L
570.832 132.775 L
572.136 140.45 L
573.441 234.231 L
574.745 144.03 L
576.05 265.533 L
577.355 308.39 L
578.659 164.644 L
579.964 144.376 L
581.269 144.654 L
582.573 190.084 L
583.878 348.996 L
585.182 206.567 L
586.487 161.369 L
587.792 217.594 L
589.096 161.897 L
590.401 283.677 L
591.705 261.879 L
593.01 224.743 L
594.315 113.378 L
595.619 178.007 L
596.924 186.118 L
598.228 190.955 L
599.533 186.23 L
600.838 189.409 L
602.142 169.814 L
603.447 241.156 L
604.752 388.397 L
606.056 231.311 L
607.361 134.267 L
608.665 206.878 L
609.97 118.475 L
611.275 183.654 L
612.579 366.449 L
613.884 335.056 L
615.188 241.995 L
616.493 219.252 L
617.798 179.72 L
619.102 216.4 L
620.407 267.468 L
621.711 242.64 L
623.016 139.436 L
624.321 150.305 L
625.625 154.741 L
626.93 185.305 L
628.234 173.823 L
629.539 199.815 L
630.844 154.879 L
632.148 256.441 L
633.453 206.974 L
634.758 214.607 L
636.062 372.683 L
637.367 162.916 L
638.671 324.313 L
639.976 170.819 L
641.281 325.621 L
642.585 166.074 L
643.89 133.341 L
645.194 231.249 L
646.499 197.507 L
647.804 199.911 L
649.108 170.88 L
650.413 182.633 L
651.717 157.682 L
653.022 286.925 L
654.327 134.8 L
655.631 141.396 L
656.936 132.295 L
658.24 303.747 L
659.545 155.098 L
660.85 209.42 L
662.154 285.036 L
663.459 207.102 L
664.764 150.82 L
666.068 170.522 L
667.373 214.489 L
668.677 192.592 L
669.982 178.165 L
671.287 351.621 L
672.591 165.097 L
673.896 314.412 L
675.2 313.217 L
676.505 236.535 L
677.81 261.339 L
679.114 160.582 L
680.419 143.806 L
681.723 196.308 L
683.028 183.556 L
684.333 128.127 L
685.637 135.886 L
686.942 160.658 L
688.247 184.324 L
689.551 246.699 L
690.856 184.661 L
692.16 149.894 L
693.465 231.444 L
694.77 276.021 L
696.074 312.928 L
697.379 263.112 L
698.683 170.806 L
699.988 149.88 L
701.293 260.27 L
702.597 201.004 L
703.902 248.696 L
705.206 216.783 L
706.511 181.692 L
707.816 255.003 L
709.12 200.703 L
710.425 274.926 L
711.729 186.455 L
713.034 166.573 L
714.339 155.999 L
715.643 402.679 L
716.948 154.814 L
718.253 154.244 L
719.557 184.674 L
720.862 200.85 L
722.166 183.697 L
723.471 189.353 L
724.776 240.206 L
726.08 246.677 L
727.385 236.58 L
728.689 195.322 L
729.994 156.274 L
731.299 225.954 L
732.603 181.259 L
733.908 199.883 L
735.212 348.286 L
736.517 144.884 L
737.822 170.487 L
739.126 215.6 L
740.431 166.016 L
741.735 192.645 L
743.04 225.836 L
744.345 238.612 L
745.649 175.968 L
746.954 177.68 L
748.259 237.056 L
749.563 138.158 L
750.868 179.547 L
752.172 172.284 L
753.477 246.903 L
754.782 239.087 L
756.086 295.365 L
757.391 279.946 L
758.695 191.094 L
760 181.742 L
760.078 181.41 L
S
GR
GS
[0.5 0 0 0.5 0 0] CT
1 0 0 RC
[12 12] 0 setdash
2 LJ
3 LW
N
109 181.88 M
760 181.88 L
S
GR
GS
[0.5 0 0 0.5 0 0] CT
1 GC
N
640 120 M
640 67 L
740 67 L
740 120 L
cp
f
GR
GS
[0.5 0 0 0.5 347.88943 40.78436] CT
/Helvetica 18 F
GS
[1 0 0 1 0 0] CT
0 7.5 moveto 
1 -1 scale
(LS) t 
GR
GR
GS
[0.5 0 0 0.5 0 0] CT
0.851 0.325 0.098 RC
1 LJ
N
646.03 81.569 M
691.256 81.569 L
S
GR
GS
[0.5 0 0 0.5 347.88943 52.71564] CT
/Helvetica 18 F
GS
[1 0 0 1 0 0] CT
0 7.5 moveto 
1 -1 scale
(LMS) t 
GR
GR
GS
[0.5 0 0 0.5 0 0] CT
0.494 0.184 0.557 RC
1 LJ
N
646.03 105.431 M
691.256 105.431 L
S
GR
GS
[0.5 0 0 0.5 0 0] CT
0.149 GC
10.0 ML
N
640 120 M
640 67 L
740 67 L
740 120 L
cp
S
GR
%%Trailer
%%Pages: 1
%%EOF
