%!PS-Adobe-3.0 EPSF-3.0
%%BoundingBox: 36 4 388 302
%%HiResBoundingBox: 36.402 4.992 387.690 301.398
%%Creator: (MATLAB, The Mathworks, Inc. Version 9.1.0.441655 \(R2016b\). Operating System: Windows 8)
%%Title: C:/Users/Matteo/Documents/dt-homeworks/HW1/Latex/img/predictedSignal.eps
%%CreationDate: 2017-04-03T20:02:59
%%Pages: (atend)
%%LanguageLevel: 3
%%EndComments
%%BeginProlog
%%BeginResource: procset (Apache XML Graphics Std ProcSet) 1.2 0
%%Version: 1.2 0
%%Copyright: (Copyright 2001-2003,2010 The Apache Software Foundation. License terms: http://www.apache.org/licenses/LICENSE-2.0)
/bd{bind def}bind def
/ld{load def}bd
/GR/grestore ld
/M/moveto ld
/LJ/setlinejoin ld
/C/curveto ld
/f/fill ld
/LW/setlinewidth ld
/GC/setgray ld
/t/show ld
/N/newpath ld
/CT/concat ld
/cp/closepath ld
/S/stroke ld
/L/lineto ld
/CC/setcmykcolor ld
/A/ashow ld
/GS/gsave ld
/RC/setrgbcolor ld
/RM/rmoveto ld
/ML/setmiterlimit ld
/re {4 2 roll M
1 index 0 rlineto
0 exch rlineto
neg 0 rlineto
cp } bd
/_ctm matrix def
/_tm matrix def
/BT { _ctm currentmatrix pop matrix _tm copy pop 0 0 moveto } bd
/ET { _ctm setmatrix } bd
/iTm { _ctm setmatrix _tm concat } bd
/Tm { _tm astore pop iTm 0 0 moveto } bd
/ux 0.0 def
/uy 0.0 def
/F {
  /Tp exch def
  /Tf exch def
  Tf findfont Tp scalefont setfont
  /cf Tf def  /cs Tp def
} bd
/ULS {currentpoint /uy exch def /ux exch def} bd
/ULE {
  /Tcx currentpoint pop def
  gsave
  newpath
  cf findfont cs scalefont dup
  /FontMatrix get 0 get /Ts exch def /FontInfo get dup
  /UnderlinePosition get Ts mul /To exch def
  /UnderlineThickness get Ts mul /Tt exch def
  ux uy To add moveto  Tcx uy To add lineto
  Tt setlinewidth stroke
  grestore
} bd
/OLE {
  /Tcx currentpoint pop def
  gsave
  newpath
  cf findfont cs scalefont dup
  /FontMatrix get 0 get /Ts exch def /FontInfo get dup
  /UnderlinePosition get Ts mul /To exch def
  /UnderlineThickness get Ts mul /Tt exch def
  ux uy To add cs add moveto Tcx uy To add cs add lineto
  Tt setlinewidth stroke
  grestore
} bd
/SOE {
  /Tcx currentpoint pop def
  gsave
  newpath
  cf findfont cs scalefont dup
  /FontMatrix get 0 get /Ts exch def /FontInfo get dup
  /UnderlinePosition get Ts mul /To exch def
  /UnderlineThickness get Ts mul /Tt exch def
  ux uy To add cs 10 mul 26 idiv add moveto Tcx uy To add cs 10 mul 26 idiv add lineto
  Tt setlinewidth stroke
  grestore
} bd
/QT {
/Y22 exch store
/X22 exch store
/Y21 exch store
/X21 exch store
currentpoint
/Y21 load 2 mul add 3 div exch
/X21 load 2 mul add 3 div exch
/X21 load 2 mul /X22 load add 3 div
/Y21 load 2 mul /Y22 load add 3 div
/X22 load /Y22 load curveto
} bd
/SSPD {
dup length /d exch dict def
{
/v exch def
/k exch def
currentpagedevice k known {
/cpdv currentpagedevice k get def
v cpdv ne {
/upd false def
/nullv v type /nulltype eq def
/nullcpdv cpdv type /nulltype eq def
nullv nullcpdv or
{
/upd true def
} {
/sametype v type cpdv type eq def
sametype {
v type /arraytype eq {
/vlen v length def
/cpdvlen cpdv length def
vlen cpdvlen eq {
0 1 vlen 1 sub {
/i exch def
/obj v i get def
/cpdobj cpdv i get def
obj cpdobj ne {
/upd true def
exit
} if
} for
} {
/upd true def
} ifelse
} {
v type /dicttype eq {
v {
/dv exch def
/dk exch def
/cpddv cpdv dk get def
dv cpddv ne {
/upd true def
exit
} if
} forall
} {
/upd true def
} ifelse
} ifelse
} if
} ifelse
upd true eq {
d k v put
} if
} if
} if
} forall
d length 0 gt {
d setpagedevice
} if
} bd
/RE { % /NewFontName [NewEncodingArray] /FontName RE -
  findfont dup length dict begin
  {
    1 index /FID ne
    {def} {pop pop} ifelse
  } forall
  /Encoding exch def
  /FontName 1 index def
  currentdict definefont pop
  end
} bind def
%%EndResource
%%BeginResource: procset (Apache XML Graphics EPS ProcSet) 1.0 0
%%Version: 1.0 0
%%Copyright: (Copyright 2002-2003 The Apache Software Foundation. License terms: http://www.apache.org/licenses/LICENSE-2.0)
/BeginEPSF { %def
/b4_Inc_state save def         % Save state for cleanup
/dict_count countdictstack def % Count objects on dict stack
/op_count count 1 sub def      % Count objects on operand stack
userdict begin                 % Push userdict on dict stack
/showpage { } def              % Redefine showpage, { } = null proc
0 setgray 0 setlinecap         % Prepare graphics state
1 setlinewidth 0 setlinejoin
10 setmiterlimit [ ] 0 setdash newpath
/languagelevel where           % If level not equal to 1 then
{pop languagelevel             % set strokeadjust and
1 ne                           % overprint to their defaults.
{false setstrokeadjust false setoverprint
} if
} if
} bd
/EndEPSF { %def
count op_count sub {pop} repeat            % Clean up stacks
countdictstack dict_count sub {end} repeat
b4_Inc_state restore
} bd
%%EndResource
%FOPBeginFontDict
%%IncludeResource: font Courier-Bold
%%IncludeResource: font Helvetica
%%IncludeResource: font Courier-BoldOblique
%%IncludeResource: font Courier-Oblique
%%IncludeResource: font Times-Roman
%%IncludeResource: font Helvetica-BoldOblique
%%IncludeResource: font Helvetica-Bold
%%IncludeResource: font Helvetica-Oblique
%%IncludeResource: font Times-BoldItalic
%%IncludeResource: font Courier
%%IncludeResource: font Times-Italic
%%IncludeResource: font Times-Bold
%%IncludeResource: font Symbol
%%IncludeResource: font ZapfDingbats
%FOPEndFontDict
%%BeginResource: encoding WinAnsiEncoding
/WinAnsiEncoding [
/.notdef /.notdef /.notdef /.notdef /.notdef
/.notdef /.notdef /.notdef /.notdef /.notdef
/.notdef /.notdef /.notdef /.notdef /.notdef
/.notdef /.notdef /.notdef /.notdef /.notdef
/.notdef /.notdef /.notdef /.notdef /.notdef
/.notdef /.notdef /.notdef /.notdef /.notdef
/.notdef /.notdef /space /exclam /quotedbl
/numbersign /dollar /percent /ampersand /quotesingle
/parenleft /parenright /asterisk /plus /comma
/hyphen /period /slash /zero /one
/two /three /four /five /six
/seven /eight /nine /colon /semicolon
/less /equal /greater /question /at
/A /B /C /D /E
/F /G /H /I /J
/K /L /M /N /O
/P /Q /R /S /T
/U /V /W /X /Y
/Z /bracketleft /backslash /bracketright /asciicircum
/underscore /quoteleft /a /b /c
/d /e /f /g /h
/i /j /k /l /m
/n /o /p /q /r
/s /t /u /v /w
/x /y /z /braceleft /bar
/braceright /asciitilde /bullet /Euro /bullet
/quotesinglbase /florin /quotedblbase /ellipsis /dagger
/daggerdbl /circumflex /perthousand /Scaron /guilsinglleft
/OE /bullet /Zcaron /bullet /bullet
/quoteleft /quoteright /quotedblleft /quotedblright /bullet
/endash /emdash /asciitilde /trademark /scaron
/guilsinglright /oe /bullet /zcaron /Ydieresis
/space /exclamdown /cent /sterling /currency
/yen /brokenbar /section /dieresis /copyright
/ordfeminine /guillemotleft /logicalnot /sfthyphen /registered
/macron /degree /plusminus /twosuperior /threesuperior
/acute /mu /paragraph /middot /cedilla
/onesuperior /ordmasculine /guillemotright /onequarter /onehalf
/threequarters /questiondown /Agrave /Aacute /Acircumflex
/Atilde /Adieresis /Aring /AE /Ccedilla
/Egrave /Eacute /Ecircumflex /Edieresis /Igrave
/Iacute /Icircumflex /Idieresis /Eth /Ntilde
/Ograve /Oacute /Ocircumflex /Otilde /Odieresis
/multiply /Oslash /Ugrave /Uacute /Ucircumflex
/Udieresis /Yacute /Thorn /germandbls /agrave
/aacute /acircumflex /atilde /adieresis /aring
/ae /ccedilla /egrave /eacute /ecircumflex
/edieresis /igrave /iacute /icircumflex /idieresis
/eth /ntilde /ograve /oacute /ocircumflex
/otilde /odieresis /divide /oslash /ugrave
/uacute /ucircumflex /udieresis /yacute /thorn
/ydieresis
] def
%%EndResource
%FOPBeginFontReencode
/Courier-Bold findfont
dup length dict begin
  {1 index /FID ne {def} {pop pop} ifelse} forall
  /Encoding WinAnsiEncoding def
  currentdict
end
/Courier-Bold exch definefont pop
/Helvetica findfont
dup length dict begin
  {1 index /FID ne {def} {pop pop} ifelse} forall
  /Encoding WinAnsiEncoding def
  currentdict
end
/Helvetica exch definefont pop
/Courier-BoldOblique findfont
dup length dict begin
  {1 index /FID ne {def} {pop pop} ifelse} forall
  /Encoding WinAnsiEncoding def
  currentdict
end
/Courier-BoldOblique exch definefont pop
/Courier-Oblique findfont
dup length dict begin
  {1 index /FID ne {def} {pop pop} ifelse} forall
  /Encoding WinAnsiEncoding def
  currentdict
end
/Courier-Oblique exch definefont pop
/Times-Roman findfont
dup length dict begin
  {1 index /FID ne {def} {pop pop} ifelse} forall
  /Encoding WinAnsiEncoding def
  currentdict
end
/Times-Roman exch definefont pop
/Helvetica-BoldOblique findfont
dup length dict begin
  {1 index /FID ne {def} {pop pop} ifelse} forall
  /Encoding WinAnsiEncoding def
  currentdict
end
/Helvetica-BoldOblique exch definefont pop
/Helvetica-Bold findfont
dup length dict begin
  {1 index /FID ne {def} {pop pop} ifelse} forall
  /Encoding WinAnsiEncoding def
  currentdict
end
/Helvetica-Bold exch definefont pop
/Helvetica-Oblique findfont
dup length dict begin
  {1 index /FID ne {def} {pop pop} ifelse} forall
  /Encoding WinAnsiEncoding def
  currentdict
end
/Helvetica-Oblique exch definefont pop
/Times-BoldItalic findfont
dup length dict begin
  {1 index /FID ne {def} {pop pop} ifelse} forall
  /Encoding WinAnsiEncoding def
  currentdict
end
/Times-BoldItalic exch definefont pop
/Courier findfont
dup length dict begin
  {1 index /FID ne {def} {pop pop} ifelse} forall
  /Encoding WinAnsiEncoding def
  currentdict
end
/Courier exch definefont pop
/Times-Italic findfont
dup length dict begin
  {1 index /FID ne {def} {pop pop} ifelse} forall
  /Encoding WinAnsiEncoding def
  currentdict
end
/Times-Italic exch definefont pop
/Times-Bold findfont
dup length dict begin
  {1 index /FID ne {def} {pop pop} ifelse} forall
  /Encoding WinAnsiEncoding def
  currentdict
end
/Times-Bold exch definefont pop
%FOPEndFontReencode
%%EndProlog
%%Page: 1 1
%%PageBoundingBox: 0 0 420 315
%%BeginPageSetup
[1 0 0 -1 0 315] CT
%%EndPageSetup
GS
[0.5 0 0 0.5 0 0] CT
1 GC
N
0 0 840 630 re
f
GR
GS
[0.5 0 0 0.5 0 0] CT
1 GC
N
0 0 840 630 re
f
GR
GS
[0.5 0 0 0.5 0 0] CT
1 GC
N
109 262 M
760 262 L
760 51 L
109 51 L
cp
f
GR
GS
[0.5 0 0 0.5 0 0] CT
0.873 GC
1 LJ
N
109 262 M
109 51 L
S
GR
GS
[0.5 0 0 0.5 0 0] CT
0.873 GC
1 LJ
N
271.75 262 M
271.75 51 L
S
GR
GS
[0.5 0 0 0.5 0 0] CT
0.873 GC
1 LJ
N
434.5 262 M
434.5 51 L
S
GR
GS
[0.5 0 0 0.5 0 0] CT
0.873 GC
1 LJ
N
597.25 262 M
597.25 51 L
S
GR
GS
[0.5 0 0 0.5 0 0] CT
0.873 GC
1 LJ
N
760 262 M
760 51 L
S
GR
GS
[0.5 0 0 0.5 0 0] CT
0.873 GC
1 LJ
N
760 226.833 M
109 226.833 L
S
GR
GS
[0.5 0 0 0.5 0 0] CT
0.873 GC
1 LJ
N
760 156.5 M
109 156.5 L
S
GR
GS
[0.5 0 0 0.5 0 0] CT
0.873 GC
1 LJ
N
760 86.167 M
109 86.167 L
S
GR
GS
[0.5 0 0 0.5 0 0] CT
0.149 GC
2 setlinecap
1 LJ
N
109 262 M
760 262 L
S
GR
GS
[0.5 0 0 0.5 0 0] CT
0.149 GC
2 setlinecap
1 LJ
N
109 51 M
760 51 L
S
GR
GS
[0.5 0 0 0.5 0 0] CT
0.149 GC
2 setlinecap
1 LJ
N
109 262 M
109 255.49 L
S
GR
GS
[0.5 0 0 0.5 0 0] CT
0.149 GC
2 setlinecap
1 LJ
N
271.75 262 M
271.75 255.49 L
S
GR
GS
[0.5 0 0 0.5 0 0] CT
0.149 GC
2 setlinecap
1 LJ
N
434.5 262 M
434.5 255.49 L
S
GR
GS
[0.5 0 0 0.5 0 0] CT
0.149 GC
2 setlinecap
1 LJ
N
597.25 262 M
597.25 255.49 L
S
GR
GS
[0.5 0 0 0.5 0 0] CT
0.149 GC
2 setlinecap
1 LJ
N
760 262 M
760 255.49 L
S
GR
GS
[0.5 0 0 0.5 0 0] CT
0.149 GC
2 setlinecap
1 LJ
N
109 51 M
109 57.51 L
S
GR
GS
[0.5 0 0 0.5 0 0] CT
0.149 GC
2 setlinecap
1 LJ
N
271.75 51 M
271.75 57.51 L
S
GR
GS
[0.5 0 0 0.5 0 0] CT
0.149 GC
2 setlinecap
1 LJ
N
434.5 51 M
434.5 57.51 L
S
GR
GS
[0.5 0 0 0.5 0 0] CT
0.149 GC
2 setlinecap
1 LJ
N
597.25 51 M
597.25 57.51 L
S
GR
GS
[0.5 0 0 0.5 0 0] CT
0.149 GC
2 setlinecap
1 LJ
N
760 51 M
760 57.51 L
S
GR
GS
[0.5 0 0 0.5 54.5 135] CT
0.149 GC
/Helvetica 20 F
GS
[1 0 0 1 0 0] CT
-6 21 moveto 
1 -1 scale
(0) t 
GR
GR
GS
[0.5 0 0 0.5 135.875 135] CT
0.149 GC
/Helvetica 20 F
GS
[1 0 0 1 0 0] CT
-11.5 21 moveto 
1 -1 scale
(50) t 
GR
GR
GS
[0.5 0 0 0.5 217.25 135] CT
0.149 GC
/Helvetica 20 F
GS
[1 0 0 1 0 0] CT
-17 21 moveto 
1 -1 scale
(100) t 
GR
GR
GS
[0.5 0 0 0.5 298.625 135] CT
0.149 GC
/Helvetica 20 F
GS
[1 0 0 1 0 0] CT
-17 21 moveto 
1 -1 scale
(150) t 
GR
GR
GS
[0.5 0 0 0.5 380 135] CT
0.149 GC
/Helvetica 20 F
GS
[1 0 0 1 0 0] CT
-17 21 moveto 
1 -1 scale
(200) t 
GR
GR
GS
[0.5 0 0 0.5 0 0] CT
0.149 GC
2 setlinecap
1 LJ
N
109 262 M
109 51 L
S
GR
GS
[0.5 0 0 0.5 0 0] CT
0.149 GC
2 setlinecap
1 LJ
N
760 262 M
760 51 L
S
GR
GS
[0.5 0 0 0.5 0 0] CT
0.149 GC
2 setlinecap
1 LJ
N
109 226.833 M
115.51 226.833 L
S
GR
GS
[0.5 0 0 0.5 0 0] CT
0.149 GC
2 setlinecap
1 LJ
N
109 156.5 M
115.51 156.5 L
S
GR
GS
[0.5 0 0 0.5 0 0] CT
0.149 GC
2 setlinecap
1 LJ
N
109 86.167 M
115.51 86.167 L
S
GR
GS
[0.5 0 0 0.5 0 0] CT
0.149 GC
2 setlinecap
1 LJ
N
760 226.833 M
753.49 226.833 L
S
GR
GS
[0.5 0 0 0.5 0 0] CT
0.149 GC
2 setlinecap
1 LJ
N
760 156.5 M
753.49 156.5 L
S
GR
GS
[0.5 0 0 0.5 0 0] CT
0.149 GC
2 setlinecap
1 LJ
N
760 86.167 M
753.49 86.167 L
S
GR
GS
[0.5 0 0 0.5 50.5 113.41666] CT
0.149 GC
/Helvetica 20 F
GS
[1 0 0 1 0 0] CT
-29 8 moveto 
1 -1 scale
(-20) t 
GR
GR
GS
[0.5 0 0 0.5 50.5 78.25] CT
0.149 GC
/Helvetica 20 F
GS
[1 0 0 1 0 0] CT
-12 8 moveto 
1 -1 scale
(0) t 
GR
GR
GS
[0.5 0 0 0.5 50.5 43.08333] CT
0.149 GC
/Helvetica 20 F
GS
[1 0 0 1 0 0] CT
-23 8 moveto 
1 -1 scale
(20) t 
GR
GR
GS
[0.5 0 0 0.5 217.25021 24.125] CT
/Helvetica-Bold 22 F
GS
[1 0 0 1 0 0] CT
-41 -5 moveto 
1 -1 scale
(Re[x\(k\)]) t 
GR
GR
GS
[0.5 0 0 0.5 0 0] CT
0 0.447 0.741 RC
1 LJ
N
112.255 146.078 M
115.51 203.333 L
118.765 157.28 L
122.02 137.299 L
125.275 107.346 L
128.53 171.412 L
131.785 180.953 L
135.04 193.807 L
138.295 124.693 L
141.55 139.119 L
144.805 215.669 L
148.06 133.106 L
151.315 147.677 L
154.57 90.718 L
157.825 145.02 L
161.08 190.985 L
164.335 189.348 L
167.59 136.311 L
170.845 138.79 L
174.1 207.009 L
177.355 182.597 L
180.61 140.037 L
183.865 123.525 L
187.12 157.477 L
190.375 198.551 L
193.63 181.836 L
196.885 134.045 L
200.14 148.821 L
203.395 144.972 L
206.65 156.817 L
209.905 145.666 L
213.16 142.281 L
216.415 166.612 L
219.67 185.046 L
222.925 136.873 L
226.18 136.929 L
229.435 156.096 L
232.69 173.336 L
235.945 171.62 L
239.2 153.419 L
242.455 154.067 L
245.71 206.451 L
248.965 169.494 L
252.22 131.288 L
255.475 105.219 L
258.73 189.057 L
261.985 170.509 L
265.24 182.387 L
268.495 137.738 L
271.75 142.596 L
275.005 205.797 L
278.26 180.575 L
281.515 141.905 L
284.77 116.182 L
288.025 183.514 L
291.28 190.934 L
294.535 174.564 L
297.79 99.009 L
301.045 105.529 L
304.3 180.899 L
307.555 197.985 L
310.81 129.608 L
314.065 84.645 L
317.32 147.483 L
320.575 166.295 L
323.83 168.134 L
327.085 103.597 L
330.34 122.154 L
333.595 193.141 L
336.85 192.564 L
340.105 151.215 L
343.36 91.425 L
346.615 147.943 L
349.87 208.637 L
353.125 176.193 L
356.38 140.252 L
359.635 83.049 L
362.89 169.431 L
366.145 180.172 L
369.4 202.288 L
372.655 146.375 L
375.91 120.102 L
379.165 159.534 L
382.42 183.72 L
385.675 130.168 L
388.93 111.097 L
392.185 140.337 L
395.44 199.351 L
398.695 204.902 L
401.95 94.274 L
405.205 124.532 L
408.46 167.18 L
411.715 203.493 L
414.97 131.139 L
418.225 91.47 L
421.48 123.393 L
424.735 198.245 L
427.99 208.53 L
431.245 127.914 L
434.5 104.089 L
437.755 165.66 L
441.01 212.319 L
444.265 135.103 L
447.52 146.74 L
450.775 108.858 L
454.03 168.394 L
457.285 179.585 L
460.54 139.736 L
463.795 124.559 L
467.05 166.028 L
470.305 170.273 L
473.56 156.791 L
476.815 122.641 L
480.07 157.059 L
483.325 170.213 L
486.58 176.322 L
489.835 112.785 L
493.09 168.522 L
496.345 152.97 L
499.6 179.764 L
502.855 174.065 L
506.11 120.104 L
509.365 134.839 L
512.62 161.486 L
515.875 131.061 L
519.13 126.241 L
522.385 165.173 L
525.64 172.622 L
528.895 186.095 L
532.15 142.9 L
535.405 137.9 L
538.66 148.273 L
541.915 171.112 L
545.17 137.244 L
548.425 135.608 L
551.68 133.457 L
554.935 198.961 L
558.19 160.501 L
561.445 127.168 L
564.7 138.284 L
567.955 157.482 L
571.21 164.37 L
574.465 190.28 L
577.72 113.513 L
580.975 150.122 L
584.23 198.996 L
587.485 175.215 L
590.74 135.773 L
593.995 99.094 L
597.25 128.196 L
600.505 221.91 L
603.76 191.599 L
607.015 131.344 L
610.27 119.042 L
613.525 157.906 L
616.78 198.008 L
620.035 159.225 L
623.29 106.431 L
626.545 158.325 L
629.8 214.823 L
633.055 191.747 L
636.31 139.326 L
639.565 130.072 L
642.82 135.679 L
646.075 195.512 L
649.33 182.263 L
652.585 124.309 L
655.84 129.714 L
659.095 208.052 L
662.35 221.332 L
665.605 108.444 L
668.86 96.214 L
672.115 153.794 L
675.37 199.376 L
678.625 195.854 L
681.88 128.872 L
685.135 112.299 L
688.39 195.909 L
691.645 188.903 L
694.9 170.792 L
698.155 99.872 L
701.41 153.355 L
704.665 173.615 L
707.92 180.187 L
711.175 143.379 L
714.43 115.411 L
717.685 166.937 L
720.94 187.356 L
724.195 169.874 L
727.45 110.703 L
730.705 144.381 L
733.96 169.399 L
737.215 171.804 L
740.47 113.101 L
743.725 134.019 L
746.98 169.855 L
750.235 159.36 L
753.49 173.448 L
756.745 131.762 L
760 145.144 L
760.078 145.353 L
S
GR
GS
[0.5 0 0 0.5 0 0] CT
0.851 0.325 0.098 RC
1 LJ
N
112.255 156.5 M
115.51 156.661 L
118.765 158.469 L
122.02 152.243 L
125.275 155.74 L
128.53 156.97 L
131.785 156.604 L
135.04 158.457 L
138.295 109.242 L
141.55 127.749 L
144.805 179.31 L
148.06 185.741 L
151.315 136.521 L
154.57 131.54 L
157.825 155.547 L
161.08 197.092 L
164.335 170.969 L
167.59 123.651 L
170.845 134.351 L
174.1 173.016 L
177.355 192.478 L
180.61 152.534 L
183.865 135.196 L
187.12 156.873 L
190.375 184.943 L
193.63 167.434 L
196.885 126.303 L
200.14 138.592 L
203.395 167.321 L
206.65 174.856 L
209.905 157.892 L
213.16 145.227 L
216.415 148.927 L
219.67 159.237 L
222.925 157.779 L
226.18 145.868 L
229.435 154.301 L
232.69 171.647 L
235.945 163.241 L
239.2 135.841 L
242.455 140.671 L
245.71 172.718 L
248.965 170.877 L
252.22 139.457 L
255.475 140.085 L
258.73 165.066 L
261.985 188.271 L
265.24 158.708 L
268.495 130.208 L
271.75 141.55 L
275.005 175.613 L
278.26 189.708 L
281.515 141.378 L
284.77 129.61 L
288.025 155.559 L
291.28 191.991 L
294.535 166.204 L
297.79 122.101 L
301.045 136.875 L
304.3 177.939 L
307.555 191.727 L
310.81 140.824 L
314.065 108.195 L
317.32 150.639 L
320.575 207.874 L
323.83 182.317 L
327.085 123.456 L
330.34 119.698 L
333.595 184.51 L
336.85 202.84 L
340.105 152.42 L
343.36 110.367 L
346.615 142.105 L
349.87 207.32 L
353.125 185.329 L
356.38 115.482 L
359.635 113.431 L
362.89 164.112 L
366.145 204.796 L
369.4 163.64 L
372.655 117.942 L
375.91 118.565 L
379.165 172.155 L
382.42 202.543 L
385.675 148.066 L
388.93 118.592 L
392.185 148.236 L
395.44 193.293 L
398.695 176.099 L
401.95 121.566 L
405.205 117.318 L
408.46 176.646 L
411.715 200.58 L
414.97 161.77 L
418.225 108.543 L
421.48 138.777 L
424.735 194.225 L
427.99 189.609 L
431.245 133.14 L
434.5 108.017 L
437.755 164.983 L
441.01 196.867 L
444.265 165.187 L
447.52 121.052 L
450.775 140.379 L
454.03 183.202 L
457.285 198.366 L
460.54 143.746 L
463.795 126.724 L
467.05 159.992 L
470.305 195.537 L
473.56 177.212 L
476.815 138.042 L
480.07 143.88 L
483.325 170.859 L
486.58 174.756 L
489.835 152.728 L
493.09 144.244 L
496.345 170.145 L
499.6 162.814 L
502.855 148.954 L
506.11 140.078 L
509.365 160.238 L
512.62 174.039 L
515.875 161.517 L
519.13 148.937 L
522.385 156.087 L
525.64 167.082 L
528.895 166.116 L
532.15 147.025 L
535.405 142.629 L
538.66 172.561 L
541.915 179.478 L
545.17 166.356 L
548.425 139.172 L
551.68 154.671 L
554.935 172.983 L
558.19 176.058 L
561.445 146.866 L
564.7 138.495 L
567.955 165.795 L
571.21 179.598 L
574.465 164.802 L
577.72 135.741 L
580.975 132.986 L
584.23 174.732 L
587.485 178.837 L
590.74 146.414 L
593.995 127.527 L
597.25 150.843 L
600.505 195.813 L
603.76 176.783 L
607.015 116.18 L
610.27 129.675 L
613.525 175.325 L
616.78 196.201 L
620.035 157.726 L
623.29 119.606 L
626.545 149.866 L
629.8 191.49 L
633.055 188.737 L
636.31 129.141 L
639.565 122.233 L
642.82 176.349 L
646.075 211.146 L
649.33 164.438 L
652.585 113.2 L
655.84 137.05 L
659.095 191.756 L
662.35 192.615 L
665.605 138.947 L
668.86 104.938 L
672.115 161.557 L
675.37 207.283 L
678.625 176.932 L
681.88 118.366 L
685.135 117.214 L
688.39 173.133 L
691.645 199.777 L
694.9 152.444 L
698.155 117.44 L
701.41 140.264 L
704.665 200.556 L
707.92 180.868 L
711.175 130.171 L
714.43 116.675 L
717.685 167.448 L
720.94 200.395 L
724.195 156.92 L
727.45 125.236 L
730.705 135.703 L
733.96 182.672 L
737.215 174.337 L
740.47 141.765 L
743.725 140.229 L
746.98 162.805 L
750.235 178.162 L
753.49 151.314 L
756.745 132.393 L
760 141.494 L
760.078 142.416 L
S
GR
GS
[0.5 0 0 0.5 0 0] CT
0.494 0.184 0.557 RC
1 LJ
N
112.255 156.5 M
115.51 156.5 L
118.765 157.437 L
122.02 157.434 L
125.275 157.031 L
128.53 156.037 L
131.785 156.345 L
135.04 156.837 L
138.295 154.334 L
141.55 153.32 L
144.805 156.683 L
148.06 159.721 L
151.315 155.923 L
154.57 153.201 L
157.825 155.332 L
161.08 160.957 L
164.335 157.888 L
167.59 152.434 L
170.845 152.925 L
174.1 158.727 L
177.355 164.47 L
180.61 157.21 L
183.865 151.318 L
187.12 155.552 L
190.375 162.381 L
193.63 158.28 L
196.885 149.25 L
200.14 152.171 L
203.395 160.508 L
206.65 162.335 L
209.905 156.363 L
213.16 151.516 L
216.415 154.461 L
219.67 157.192 L
222.925 157.583 L
226.18 154.594 L
229.435 156.563 L
232.69 160.711 L
235.945 157.903 L
239.2 150.784 L
242.455 152.507 L
245.71 161.527 L
248.965 161.269 L
252.22 150.543 L
255.475 150.222 L
258.73 159.121 L
261.985 167.285 L
265.24 155.361 L
268.495 145.384 L
271.75 152.434 L
275.005 164.682 L
278.26 168.703 L
281.515 149.876 L
284.77 142.559 L
288.025 156.458 L
291.28 172.156 L
294.535 159.351 L
297.79 139.58 L
301.045 147.954 L
304.3 168.079 L
307.555 172.747 L
310.81 148.544 L
314.065 130.128 L
317.32 156.162 L
320.575 188.631 L
323.83 170.656 L
327.085 135.887 L
330.34 135.581 L
333.595 172.905 L
336.85 184.424 L
340.105 153.502 L
343.36 129.038 L
346.615 148.966 L
349.87 189.713 L
353.125 174.676 L
356.38 130.276 L
359.635 129.381 L
362.89 164.564 L
366.145 188.437 L
369.4 161.683 L
372.655 131.18 L
375.91 133.37 L
379.165 167.93 L
382.42 187.637 L
385.675 153.439 L
388.93 127.872 L
392.185 148.827 L
395.44 182.708 L
398.695 172.777 L
401.95 133.429 L
405.205 128.6 L
408.46 171.596 L
411.715 191.525 L
414.97 160.045 L
418.225 119.168 L
421.48 143.2 L
424.735 186 L
427.99 181.246 L
431.245 140.293 L
434.5 120.74 L
437.755 164.525 L
441.01 191.42 L
444.265 163.61 L
447.52 126.144 L
450.775 143.984 L
454.03 179.355 L
457.285 185.423 L
460.54 144.649 L
463.795 129.913 L
467.05 156.615 L
470.305 185.888 L
473.56 174.535 L
476.815 138.482 L
480.07 144.869 L
483.325 166.588 L
486.58 169.992 L
489.835 153.07 L
493.09 146.577 L
496.345 167.264 L
499.6 163.127 L
502.855 147.907 L
506.11 145.226 L
509.365 160.457 L
512.62 170.323 L
515.875 160.808 L
519.13 150.147 L
522.385 151.611 L
525.64 166.322 L
528.895 163.246 L
532.15 148.89 L
535.405 146.902 L
538.66 169.295 L
541.915 173.027 L
545.17 161.447 L
548.425 140.894 L
551.68 151.835 L
554.935 169.658 L
558.19 169.462 L
561.445 149.22 L
564.7 141.325 L
567.955 165.223 L
571.21 175.252 L
574.465 160.438 L
577.72 139.641 L
580.975 140.897 L
584.23 169.857 L
587.485 177.511 L
590.74 148.903 L
593.995 131.622 L
597.25 153.889 L
600.505 189.006 L
603.76 171.504 L
607.015 123.164 L
610.27 131.159 L
613.525 176.319 L
616.78 191.745 L
620.035 155.134 L
623.29 121.737 L
626.545 149.186 L
629.8 187.328 L
633.055 184.769 L
636.31 130.332 L
639.565 120.827 L
642.82 174.077 L
646.075 201.345 L
649.33 159.474 L
652.585 115.36 L
655.84 137.009 L
659.095 186.622 L
662.35 192.686 L
665.605 141.529 L
668.86 106.423 L
672.115 158.099 L
675.37 206.464 L
678.625 173.452 L
681.88 118.593 L
685.135 122.141 L
688.39 173.464 L
691.645 196.88 L
694.9 154.837 L
698.155 117.442 L
701.41 142.114 L
704.665 197.123 L
707.92 179.562 L
711.175 128.047 L
714.43 120.202 L
717.685 165.174 L
720.94 199.275 L
724.195 160.049 L
727.45 126.641 L
730.705 136.962 L
733.96 180.609 L
737.215 175.277 L
740.47 142.322 L
743.725 140.428 L
746.98 164.134 L
750.235 178.116 L
753.49 151.815 L
756.745 134.11 L
760 147.1 L
760.078 147.863 L
S
GR
GS
[0.5 0 0 0.5 0 0] CT
1 GC
N
495 101 M
495 71 L
740 71 L
740 101 L
cp
f
GR
GS
[0.5 0 0 0.5 275.19348 42.81092] CT
/Helvetica 18 F
GS
[1 0 0 1 0 0] CT
0 7.5 moveto 
1 -1 scale
(x) t 
GR
GR
GS
[0.5 0 0 0.5 0 0] CT
0 0.447 0.741 RC
1 LJ
N
500.988 85.622 M
545.896 85.622 L
S
GR
GS
[0.5 0 0 0.5 308.12628 42.81092] CT
/Helvetica 18 F
GS
[1 0 0 1 0 0] CT
0 7.5 moveto 
1 -1 scale
(LS) t 
GR
GR
GS
[0.5 0 0 0.5 0 0] CT
0.851 0.325 0.098 RC
1 LJ
N
566.853 85.622 M
611.762 85.622 L
S
GR
GS
[0.5 0 0 0.5 348.0448 42.81092] CT
/Helvetica 18 F
GS
[1 0 0 1 0 0] CT
0 7.5 moveto 
1 -1 scale
(LMS) t 
GR
GR
GS
[0.5 0 0 0.5 0 0] CT
0.494 0.184 0.557 RC
1 LJ
N
646.69 85.622 M
691.599 85.622 L
S
GR
GS
[0.5 0 0 0.5 0 0] CT
0.149 GC
10.0 ML
N
495 101 M
495 71 L
740 71 L
740 101 L
cp
S
GR
GS
[0.5 0 0 0.5 0 0] CT
1 GC
N
109 561 M
760 561 L
760 349 L
109 349 L
cp
f
GR
GS
[0.5 0 0 0.5 0 0] CT
0.873 GC
1 LJ
N
109 561 M
109 349 L
S
GR
GS
[0.5 0 0 0.5 0 0] CT
0.873 GC
1 LJ
N
271.75 561 M
271.75 349 L
S
GR
GS
[0.5 0 0 0.5 0 0] CT
0.873 GC
1 LJ
N
434.5 561 M
434.5 349 L
S
GR
GS
[0.5 0 0 0.5 0 0] CT
0.873 GC
1 LJ
N
597.25 561 M
597.25 349 L
S
GR
GS
[0.5 0 0 0.5 0 0] CT
0.873 GC
1 LJ
N
760 561 M
760 349 L
S
GR
GS
[0.5 0 0 0.5 0 0] CT
0.873 GC
1 LJ
N
760 525.667 M
109 525.667 L
S
GR
GS
[0.5 0 0 0.5 0 0] CT
0.873 GC
1 LJ
N
760 455 M
109 455 L
S
GR
GS
[0.5 0 0 0.5 0 0] CT
0.873 GC
1 LJ
N
760 384.333 M
109 384.333 L
S
GR
GS
[0.5 0 0 0.5 0 0] CT
0.149 GC
2 setlinecap
1 LJ
N
109 561 M
760 561 L
S
GR
GS
[0.5 0 0 0.5 0 0] CT
0.149 GC
2 setlinecap
1 LJ
N
109 349 M
760 349 L
S
GR
GS
[0.5 0 0 0.5 0 0] CT
0.149 GC
2 setlinecap
1 LJ
N
109 561 M
109 554.49 L
S
GR
GS
[0.5 0 0 0.5 0 0] CT
0.149 GC
2 setlinecap
1 LJ
N
271.75 561 M
271.75 554.49 L
S
GR
GS
[0.5 0 0 0.5 0 0] CT
0.149 GC
2 setlinecap
1 LJ
N
434.5 561 M
434.5 554.49 L
S
GR
GS
[0.5 0 0 0.5 0 0] CT
0.149 GC
2 setlinecap
1 LJ
N
597.25 561 M
597.25 554.49 L
S
GR
GS
[0.5 0 0 0.5 0 0] CT
0.149 GC
2 setlinecap
1 LJ
N
760 561 M
760 554.49 L
S
GR
GS
[0.5 0 0 0.5 0 0] CT
0.149 GC
2 setlinecap
1 LJ
N
109 349 M
109 355.51 L
S
GR
GS
[0.5 0 0 0.5 0 0] CT
0.149 GC
2 setlinecap
1 LJ
N
271.75 349 M
271.75 355.51 L
S
GR
GS
[0.5 0 0 0.5 0 0] CT
0.149 GC
2 setlinecap
1 LJ
N
434.5 349 M
434.5 355.51 L
S
GR
GS
[0.5 0 0 0.5 0 0] CT
0.149 GC
2 setlinecap
1 LJ
N
597.25 349 M
597.25 355.51 L
S
GR
GS
[0.5 0 0 0.5 0 0] CT
0.149 GC
2 setlinecap
1 LJ
N
760 349 M
760 355.51 L
S
GR
GS
[0.5 0 0 0.5 54.5 284.5] CT
0.149 GC
/Helvetica 20 F
GS
[1 0 0 1 0 0] CT
-6 21 moveto 
1 -1 scale
(0) t 
GR
GR
GS
[0.5 0 0 0.5 135.875 284.5] CT
0.149 GC
/Helvetica 20 F
GS
[1 0 0 1 0 0] CT
-11.5 21 moveto 
1 -1 scale
(50) t 
GR
GR
GS
[0.5 0 0 0.5 217.25 284.5] CT
0.149 GC
/Helvetica 20 F
GS
[1 0 0 1 0 0] CT
-17 21 moveto 
1 -1 scale
(100) t 
GR
GR
GS
[0.5 0 0 0.5 298.625 284.5] CT
0.149 GC
/Helvetica 20 F
GS
[1 0 0 1 0 0] CT
-17 21 moveto 
1 -1 scale
(150) t 
GR
GR
GS
[0.5 0 0 0.5 380 284.5] CT
0.149 GC
/Helvetica 20 F
GS
[1 0 0 1 0 0] CT
-17 21 moveto 
1 -1 scale
(200) t 
GR
GR
GS
[0.5 0 0 0.5 217.25017 298.5] CT
0.149 GC
/Helvetica 22 F
GS
[1 0 0 1 0 0] CT
-5.5 23 moveto 
1 -1 scale
(k) t 
GR
GR
GS
[0.5 0 0 0.5 0 0] CT
0.149 GC
2 setlinecap
1 LJ
N
109 561 M
109 349 L
S
GR
GS
[0.5 0 0 0.5 0 0] CT
0.149 GC
2 setlinecap
1 LJ
N
760 561 M
760 349 L
S
GR
GS
[0.5 0 0 0.5 0 0] CT
0.149 GC
2 setlinecap
1 LJ
N
109 525.667 M
115.51 525.667 L
S
GR
GS
[0.5 0 0 0.5 0 0] CT
0.149 GC
2 setlinecap
1 LJ
N
109 455 M
115.51 455 L
S
GR
GS
[0.5 0 0 0.5 0 0] CT
0.149 GC
2 setlinecap
1 LJ
N
109 384.333 M
115.51 384.333 L
S
GR
GS
[0.5 0 0 0.5 0 0] CT
0.149 GC
2 setlinecap
1 LJ
N
760 525.667 M
753.49 525.667 L
S
GR
GS
[0.5 0 0 0.5 0 0] CT
0.149 GC
2 setlinecap
1 LJ
N
760 455 M
753.49 455 L
S
GR
GS
[0.5 0 0 0.5 0 0] CT
0.149 GC
2 setlinecap
1 LJ
N
760 384.333 M
753.49 384.333 L
S
GR
GS
[0.5 0 0 0.5 50.5 262.83334] CT
0.149 GC
/Helvetica 20 F
GS
[1 0 0 1 0 0] CT
-29 8 moveto 
1 -1 scale
(-20) t 
GR
GR
GS
[0.5 0 0 0.5 50.5 227.5] CT
0.149 GC
/Helvetica 20 F
GS
[1 0 0 1 0 0] CT
-12 8 moveto 
1 -1 scale
(0) t 
GR
GR
GS
[0.5 0 0 0.5 50.5 192.16667] CT
0.149 GC
/Helvetica 20 F
GS
[1 0 0 1 0 0] CT
-23 8 moveto 
1 -1 scale
(20) t 
GR
GR
GS
[0.5 0 0 0.5 217.25021 173.125] CT
/Helvetica-Bold 22 F
GS
[1 0 0 1 0 0] CT
-40 -5 moveto 
1 -1 scale
(Im[x\(k\)]) t 
GR
GR
GS
[0.5 0 0 0.5 0 0] CT
0 0.447 0.741 RC
1 LJ
N
112.255 410.281 M
115.51 453.241 L
118.765 499.664 L
122.02 528.8 L
125.275 433.435 L
128.53 417.917 L
131.785 447.345 L
135.04 515.53 L
138.295 476.159 L
141.55 435.056 L
144.805 443.414 L
148.06 476.051 L
151.315 481.297 L
154.57 447.051 L
157.825 398.56 L
161.08 430.96 L
164.335 486.287 L
167.59 467.027 L
170.845 426.231 L
174.1 436.702 L
177.355 452.289 L
180.61 452.354 L
183.865 446.911 L
187.12 423.19 L
190.375 455.145 L
193.63 511.367 L
196.885 458.147 L
200.14 466.483 L
203.395 456.093 L
206.65 436.374 L
209.905 447.481 L
213.16 467.971 L
216.415 446.044 L
219.67 462.648 L
222.925 493.396 L
226.18 449.821 L
229.435 429.068 L
232.69 466.555 L
235.945 481.184 L
239.2 453.308 L
242.455 426.695 L
245.71 436.873 L
248.965 475.455 L
252.22 468.434 L
255.475 447.729 L
258.73 421.397 L
261.985 447.882 L
265.24 477.218 L
268.495 453.242 L
271.75 433.103 L
275.005 402.514 L
278.26 474.911 L
281.515 495.296 L
284.77 446.134 L
288.025 427.928 L
291.28 456.095 L
294.535 486.39 L
297.79 460.122 L
301.045 450.439 L
304.3 419.292 L
307.555 492.095 L
310.81 541.134 L
314.065 433.585 L
317.32 389.537 L
320.575 440.862 L
323.83 467.473 L
327.085 488.72 L
330.34 423.548 L
333.595 397.229 L
336.85 466.07 L
340.105 537.47 L
343.36 458.242 L
346.615 406.302 L
349.87 446.202 L
353.125 498.566 L
356.38 493.332 L
359.635 462.246 L
362.89 414.373 L
366.145 442.67 L
369.4 504.815 L
372.655 492.366 L
375.91 415.906 L
379.165 406.297 L
382.42 496.95 L
385.675 498.911 L
388.93 454.697 L
392.185 415.098 L
395.44 438.749 L
398.695 503.087 L
401.95 493.784 L
405.205 436.199 L
408.46 407.236 L
411.715 451.344 L
414.97 509.879 L
418.225 458.345 L
421.48 440.696 L
424.735 430.709 L
427.99 480.615 L
431.245 506.075 L
434.5 423.805 L
437.755 431.323 L
441.01 474.89 L
444.265 462.702 L
447.52 462.196 L
450.775 413.748 L
454.03 371.996 L
457.285 498.652 L
460.54 471.822 L
463.795 445.195 L
467.05 410.903 L
470.305 429.925 L
473.56 455.878 L
476.815 462.402 L
480.07 454.945 L
483.325 449.907 L
486.58 464.918 L
489.835 455.808 L
493.09 416.204 L
496.345 473.504 L
499.6 475.892 L
502.855 471.472 L
506.11 437.05 L
509.365 453.849 L
512.62 433.822 L
515.875 476.836 L
519.13 435.933 L
522.385 428.447 L
525.64 448.733 L
528.895 470.273 L
532.15 456.935 L
535.405 435.903 L
538.66 426.75 L
541.915 423.988 L
545.17 493.617 L
548.425 432.947 L
551.68 440.243 L
554.935 445.463 L
558.19 450.627 L
561.445 480.153 L
564.7 455.59 L
567.955 417.453 L
571.21 460.84 L
574.465 476.623 L
577.72 488.235 L
580.975 438.87 L
584.23 426.166 L
587.485 469.902 L
590.74 492.998 L
593.995 447.622 L
597.25 418.895 L
600.505 436.852 L
603.76 510.281 L
607.015 446.472 L
610.27 424.88 L
613.525 427.575 L
616.78 464.994 L
620.035 491.752 L
623.29 448.01 L
626.545 398.816 L
629.8 392.066 L
633.055 501.425 L
636.31 465.818 L
639.565 408.574 L
642.82 394.188 L
646.075 469.87 L
649.33 511.294 L
652.585 477.296 L
655.84 396.809 L
659.095 410.995 L
662.35 478.886 L
665.605 510.542 L
668.86 439.427 L
672.115 419.675 L
675.37 448.061 L
678.625 477.53 L
681.88 481.758 L
685.135 451.877 L
688.39 398.817 L
691.645 481.498 L
694.9 506.178 L
698.155 435.84 L
701.41 394.199 L
704.665 449.978 L
707.92 467.283 L
711.175 533.01 L
714.43 432.159 L
717.685 401.027 L
720.94 483.577 L
724.195 468.079 L
727.45 457.221 L
730.705 446.699 L
733.96 453.389 L
737.215 478.604 L
740.47 459.46 L
743.725 446.075 L
746.98 433.787 L
750.235 471.616 L
753.49 500.555 L
756.745 477.578 L
760 421.276 L
760.078 421.43 L
S
GR
GS
[0.5 0 0 0.5 0 0] CT
0.851 0.325 0.098 RC
1 LJ
N
112.255 455 M
115.51 461.26 L
118.765 467.397 L
122.02 472.084 L
125.275 475.884 L
128.53 479.532 L
131.785 486.436 L
135.04 491.972 L
138.295 474.834 L
141.55 421.667 L
144.805 420.882 L
148.06 479.122 L
151.315 478.52 L
154.57 450.996 L
157.825 414.439 L
161.08 453.335 L
164.335 486.07 L
167.59 474.289 L
170.845 432.485 L
174.1 421.948 L
177.355 471.799 L
180.61 490.195 L
183.865 457.319 L
187.12 429.293 L
190.375 454.894 L
193.63 486.674 L
196.885 468.272 L
200.14 430.493 L
203.395 438.115 L
206.65 458.775 L
209.905 474.582 L
213.16 458.16 L
216.415 443.01 L
219.67 452.618 L
222.925 459.389 L
226.18 449.539 L
229.435 440.429 L
232.69 452.738 L
235.945 471.484 L
239.2 465.929 L
242.455 442.049 L
245.71 441.739 L
248.965 475.012 L
252.22 476.381 L
255.475 444.293 L
258.73 426.821 L
261.985 465.541 L
265.24 484.293 L
268.495 466.759 L
271.75 431.013 L
275.005 440.514 L
278.26 476.014 L
281.515 485.919 L
284.77 451.765 L
288.025 420.914 L
291.28 458.207 L
294.535 487.221 L
297.79 474.443 L
301.045 422.828 L
304.3 425.337 L
307.555 471.154 L
310.81 491.523 L
314.065 443.439 L
317.32 396.357 L
320.575 442.152 L
323.83 490.657 L
327.085 483.369 L
330.34 420.813 L
333.595 407.243 L
336.85 468.646 L
340.105 495.145 L
343.36 455.583 L
346.615 403.765 L
349.87 433.916 L
353.125 495.269 L
356.38 490.278 L
359.635 432.499 L
362.89 399.076 L
366.145 457.026 L
369.4 494.204 L
372.655 480.204 L
375.91 427.479 L
379.165 416.726 L
382.42 461.241 L
385.675 494.723 L
388.93 457.848 L
392.185 413.368 L
395.44 432.461 L
398.695 489.011 L
401.95 488.905 L
405.205 418.99 L
408.46 412.286 L
411.715 461.142 L
414.97 504.424 L
418.225 459.731 L
421.48 403.935 L
424.735 427.354 L
427.99 481.146 L
431.245 493.805 L
434.5 436.569 L
437.755 404.351 L
441.01 456.079 L
444.265 497.581 L
447.52 463.569 L
450.775 427.44 L
454.03 425.359 L
457.285 479.058 L
460.54 488.765 L
463.795 442.587 L
467.05 424.43 L
470.305 441.911 L
473.56 482.877 L
476.815 477.649 L
480.07 431.829 L
483.325 440.745 L
486.58 460.965 L
489.835 470.097 L
493.09 442.983 L
496.345 448.16 L
499.6 464.273 L
502.855 466.429 L
506.11 451.282 L
509.365 433.656 L
512.62 451.422 L
515.875 467.842 L
519.13 461.294 L
522.385 437.373 L
525.64 446.181 L
528.895 467.302 L
532.15 464.929 L
535.405 442.851 L
538.66 437.779 L
541.915 459.837 L
545.17 476.096 L
548.425 461.945 L
551.68 433.678 L
554.935 442.239 L
558.19 470.365 L
561.445 468.273 L
564.7 445.619 L
567.955 429.37 L
571.21 458.921 L
574.465 474.59 L
577.72 463.995 L
580.975 436.514 L
584.23 433.893 L
587.485 467.367 L
590.74 484.505 L
593.995 449.471 L
597.25 418.332 L
600.505 443.547 L
603.76 491.286 L
607.015 482.793 L
610.27 426.959 L
613.525 417.265 L
616.78 464.826 L
620.035 497.963 L
623.29 461.463 L
626.545 413.531 L
629.8 442.776 L
633.055 492.713 L
636.31 495.681 L
639.565 434.569 L
642.82 418.909 L
646.075 458.648 L
649.33 500.583 L
652.585 476.45 L
655.84 418.602 L
659.095 422.14 L
662.35 484.962 L
665.605 510.688 L
668.86 442.799 L
672.115 398.705 L
675.37 445.632 L
678.625 504.643 L
681.88 485.042 L
685.135 424.629 L
688.39 414.497 L
691.645 468.066 L
694.9 497.141 L
698.155 463.553 L
701.41 413.644 L
704.665 440.902 L
707.92 485.918 L
711.175 486.758 L
714.43 438.166 L
717.685 406.963 L
720.94 458.148 L
724.195 493.413 L
727.45 468.615 L
730.705 427.997 L
733.96 426.883 L
737.215 471.721 L
740.47 478.561 L
743.725 433.156 L
746.98 433.224 L
750.235 460.967 L
753.49 471.933 L
756.745 454.764 L
760 427.202 L
760.078 427.545 L
S
GR
GS
[0.5 0 0 0.5 0 0] CT
0.494 0.184 0.557 RC
1 LJ
N
112.255 455 M
115.51 455 L
118.765 454.965 L
122.02 455.859 L
125.275 457.318 L
128.53 456.84 L
131.785 456.062 L
135.04 455.887 L
138.295 456.613 L
141.55 452.967 L
144.805 450.87 L
148.06 456.172 L
151.315 457.722 L
154.57 455.133 L
157.825 450.85 L
161.08 453.846 L
164.335 459.309 L
167.59 457.798 L
170.845 452.137 L
174.1 448.253 L
177.355 456.981 L
180.61 462.484 L
183.865 456.002 L
187.12 449.931 L
190.375 454.621 L
193.63 462.005 L
196.885 459.224 L
200.14 449.995 L
203.395 450.037 L
206.65 456.996 L
209.905 460.693 L
213.16 455.046 L
216.415 451.506 L
219.67 453.955 L
222.925 454.789 L
226.18 454.615 L
229.435 452.238 L
232.69 453.886 L
235.945 458.876 L
239.2 458.165 L
242.455 450.428 L
245.71 450.988 L
248.965 461.385 L
252.22 460.845 L
255.475 449.576 L
258.73 445.434 L
261.985 459.428 L
265.24 466.954 L
268.495 458.366 L
271.75 446.232 L
275.005 448.54 L
278.26 464.353 L
281.515 467.117 L
284.77 453.055 L
288.025 439.684 L
291.28 456.238 L
294.535 472.641 L
297.79 462.501 L
301.045 438.549 L
304.3 440.341 L
307.555 464.557 L
310.81 473.621 L
314.065 451.21 L
317.32 423.964 L
320.575 447.134 L
323.83 478.714 L
327.085 470.116 L
330.34 434.058 L
333.595 429.223 L
336.85 466.043 L
340.105 480.028 L
343.36 457.113 L
346.615 422.903 L
349.87 441.213 L
353.125 484.736 L
356.38 477.884 L
359.635 436.908 L
362.89 419.789 L
366.145 456.806 L
369.4 482.29 L
372.655 470.244 L
375.91 438.612 L
379.165 425.972 L
382.42 458.226 L
385.675 482.322 L
388.93 457.376 L
392.185 425.349 L
395.44 442.52 L
398.695 480.932 L
401.95 478.725 L
405.205 430.036 L
408.46 422.331 L
411.715 460.452 L
414.97 490.602 L
418.225 461.242 L
421.48 415.928 L
424.735 435.399 L
427.99 477.488 L
431.245 486.84 L
434.5 442.592 L
437.755 415.589 L
441.01 452.95 L
444.265 489.327 L
447.52 462.528 L
450.775 430.302 L
454.03 435.754 L
457.285 469.934 L
460.54 482.973 L
463.795 448.033 L
467.05 430.702 L
470.305 446.491 L
473.56 481.471 L
476.815 471.617 L
480.07 437.516 L
483.325 443.286 L
486.58 462.465 L
489.835 468.228 L
493.09 449.1 L
496.345 447.349 L
499.6 462.995 L
502.855 463.457 L
506.11 451.451 L
509.365 438.483 L
512.62 455.51 L
515.875 464.462 L
519.13 459.437 L
522.385 444.305 L
525.64 449.366 L
528.895 466.294 L
532.15 463.749 L
535.405 444.995 L
538.66 441.821 L
541.915 460.406 L
545.17 470.059 L
548.425 461.043 L
551.68 440.225 L
554.935 446.09 L
558.19 469.918 L
561.445 468.055 L
564.7 445.79 L
567.955 437.787 L
571.21 458.264 L
574.465 471.772 L
577.72 463.131 L
580.975 440.754 L
584.23 437.094 L
587.485 465.783 L
590.74 478.576 L
593.995 449.764 L
597.25 423.286 L
600.505 445.788 L
603.76 487.337 L
607.015 480.558 L
610.27 429.931 L
613.525 420.633 L
616.78 465.069 L
620.035 491.662 L
623.29 458.757 L
626.545 420.809 L
629.8 444.866 L
633.055 487.519 L
636.31 489.766 L
639.565 435.312 L
642.82 418.078 L
646.075 459.822 L
649.33 497.926 L
652.585 473.956 L
655.84 422.077 L
659.095 427.349 L
662.35 482.482 L
665.605 504.412 L
668.86 441.948 L
672.115 400.068 L
675.37 447.541 L
678.625 504.212 L
681.88 483.258 L
685.135 426.048 L
688.39 418.017 L
691.645 464.542 L
694.9 493.175 L
698.155 463.819 L
701.41 416.005 L
704.665 437.526 L
707.92 487.768 L
711.175 483.426 L
714.43 438.049 L
717.685 413.526 L
720.94 457.169 L
724.195 493.34 L
727.45 468.909 L
730.705 425.681 L
733.96 429.139 L
737.215 473.609 L
740.47 475.976 L
743.725 438.104 L
746.98 435.54 L
750.235 462.293 L
753.49 471.697 L
756.745 455.137 L
760 431.478 L
760.078 431.726 L
S
GR
%%Trailer
%%Pages: 1
%%EOF
