%!PS-Adobe-3.0 EPSF-3.0
%%BoundingBox: 20 1 387 292
%%HiResBoundingBox: 20.292 1.824 386.538 291.854
%%Creator: (MATLAB, The Mathworks, Inc. Version 9.1.0.441655 \(R2016b\). Operating System: Windows 8)
%%Title: C:/Users/Matteo/Documents/dt-homeworks/HW1/Latex/img/PSDestimatesZOOM.eps
%%CreationDate: 2017-04-03T20:00:59
%%Pages: (atend)
%%LanguageLevel: 3
%%EndComments
%%BeginProlog
%%BeginResource: procset (Apache XML Graphics Std ProcSet) 1.2 0
%%Version: 1.2 0
%%Copyright: (Copyright 2001-2003,2010 The Apache Software Foundation. License terms: http://www.apache.org/licenses/LICENSE-2.0)
/bd{bind def}bind def
/ld{load def}bd
/GR/grestore ld
/M/moveto ld
/LJ/setlinejoin ld
/C/curveto ld
/f/fill ld
/LW/setlinewidth ld
/GC/setgray ld
/t/show ld
/N/newpath ld
/CT/concat ld
/cp/closepath ld
/S/stroke ld
/L/lineto ld
/CC/setcmykcolor ld
/A/ashow ld
/GS/gsave ld
/RC/setrgbcolor ld
/RM/rmoveto ld
/ML/setmiterlimit ld
/re {4 2 roll M
1 index 0 rlineto
0 exch rlineto
neg 0 rlineto
cp } bd
/_ctm matrix def
/_tm matrix def
/BT { _ctm currentmatrix pop matrix _tm copy pop 0 0 moveto } bd
/ET { _ctm setmatrix } bd
/iTm { _ctm setmatrix _tm concat } bd
/Tm { _tm astore pop iTm 0 0 moveto } bd
/ux 0.0 def
/uy 0.0 def
/F {
  /Tp exch def
  /Tf exch def
  Tf findfont Tp scalefont setfont
  /cf Tf def  /cs Tp def
} bd
/ULS {currentpoint /uy exch def /ux exch def} bd
/ULE {
  /Tcx currentpoint pop def
  gsave
  newpath
  cf findfont cs scalefont dup
  /FontMatrix get 0 get /Ts exch def /FontInfo get dup
  /UnderlinePosition get Ts mul /To exch def
  /UnderlineThickness get Ts mul /Tt exch def
  ux uy To add moveto  Tcx uy To add lineto
  Tt setlinewidth stroke
  grestore
} bd
/OLE {
  /Tcx currentpoint pop def
  gsave
  newpath
  cf findfont cs scalefont dup
  /FontMatrix get 0 get /Ts exch def /FontInfo get dup
  /UnderlinePosition get Ts mul /To exch def
  /UnderlineThickness get Ts mul /Tt exch def
  ux uy To add cs add moveto Tcx uy To add cs add lineto
  Tt setlinewidth stroke
  grestore
} bd
/SOE {
  /Tcx currentpoint pop def
  gsave
  newpath
  cf findfont cs scalefont dup
  /FontMatrix get 0 get /Ts exch def /FontInfo get dup
  /UnderlinePosition get Ts mul /To exch def
  /UnderlineThickness get Ts mul /Tt exch def
  ux uy To add cs 10 mul 26 idiv add moveto Tcx uy To add cs 10 mul 26 idiv add lineto
  Tt setlinewidth stroke
  grestore
} bd
/QT {
/Y22 exch store
/X22 exch store
/Y21 exch store
/X21 exch store
currentpoint
/Y21 load 2 mul add 3 div exch
/X21 load 2 mul add 3 div exch
/X21 load 2 mul /X22 load add 3 div
/Y21 load 2 mul /Y22 load add 3 div
/X22 load /Y22 load curveto
} bd
/SSPD {
dup length /d exch dict def
{
/v exch def
/k exch def
currentpagedevice k known {
/cpdv currentpagedevice k get def
v cpdv ne {
/upd false def
/nullv v type /nulltype eq def
/nullcpdv cpdv type /nulltype eq def
nullv nullcpdv or
{
/upd true def
} {
/sametype v type cpdv type eq def
sametype {
v type /arraytype eq {
/vlen v length def
/cpdvlen cpdv length def
vlen cpdvlen eq {
0 1 vlen 1 sub {
/i exch def
/obj v i get def
/cpdobj cpdv i get def
obj cpdobj ne {
/upd true def
exit
} if
} for
} {
/upd true def
} ifelse
} {
v type /dicttype eq {
v {
/dv exch def
/dk exch def
/cpddv cpdv dk get def
dv cpddv ne {
/upd true def
exit
} if
} forall
} {
/upd true def
} ifelse
} ifelse
} if
} ifelse
upd true eq {
d k v put
} if
} if
} if
} forall
d length 0 gt {
d setpagedevice
} if
} bd
/RE { % /NewFontName [NewEncodingArray] /FontName RE -
  findfont dup length dict begin
  {
    1 index /FID ne
    {def} {pop pop} ifelse
  } forall
  /Encoding exch def
  /FontName 1 index def
  currentdict definefont pop
  end
} bind def
%%EndResource
%%BeginResource: procset (Apache XML Graphics EPS ProcSet) 1.0 0
%%Version: 1.0 0
%%Copyright: (Copyright 2002-2003 The Apache Software Foundation. License terms: http://www.apache.org/licenses/LICENSE-2.0)
/BeginEPSF { %def
/b4_Inc_state save def         % Save state for cleanup
/dict_count countdictstack def % Count objects on dict stack
/op_count count 1 sub def      % Count objects on operand stack
userdict begin                 % Push userdict on dict stack
/showpage { } def              % Redefine showpage, { } = null proc
0 setgray 0 setlinecap         % Prepare graphics state
1 setlinewidth 0 setlinejoin
10 setmiterlimit [ ] 0 setdash newpath
/languagelevel where           % If level not equal to 1 then
{pop languagelevel             % set strokeadjust and
1 ne                           % overprint to their defaults.
{false setstrokeadjust false setoverprint
} if
} if
} bd
/EndEPSF { %def
count op_count sub {pop} repeat            % Clean up stacks
countdictstack dict_count sub {end} repeat
b4_Inc_state restore
} bd
%%EndResource
%FOPBeginFontDict
%%IncludeResource: font Courier-Bold
%%IncludeResource: font Helvetica
%%IncludeResource: font Courier-BoldOblique
%%IncludeResource: font Courier-Oblique
%%IncludeResource: font Times-Roman
%%IncludeResource: font Helvetica-BoldOblique
%%IncludeResource: font Helvetica-Bold
%%IncludeResource: font Helvetica-Oblique
%%IncludeResource: font Times-BoldItalic
%%IncludeResource: font Courier
%%IncludeResource: font Times-Italic
%%IncludeResource: font Times-Bold
%%IncludeResource: font Symbol
%%IncludeResource: font ZapfDingbats
%FOPEndFontDict
%%BeginResource: encoding WinAnsiEncoding
/WinAnsiEncoding [
/.notdef /.notdef /.notdef /.notdef /.notdef
/.notdef /.notdef /.notdef /.notdef /.notdef
/.notdef /.notdef /.notdef /.notdef /.notdef
/.notdef /.notdef /.notdef /.notdef /.notdef
/.notdef /.notdef /.notdef /.notdef /.notdef
/.notdef /.notdef /.notdef /.notdef /.notdef
/.notdef /.notdef /space /exclam /quotedbl
/numbersign /dollar /percent /ampersand /quotesingle
/parenleft /parenright /asterisk /plus /comma
/hyphen /period /slash /zero /one
/two /three /four /five /six
/seven /eight /nine /colon /semicolon
/less /equal /greater /question /at
/A /B /C /D /E
/F /G /H /I /J
/K /L /M /N /O
/P /Q /R /S /T
/U /V /W /X /Y
/Z /bracketleft /backslash /bracketright /asciicircum
/underscore /quoteleft /a /b /c
/d /e /f /g /h
/i /j /k /l /m
/n /o /p /q /r
/s /t /u /v /w
/x /y /z /braceleft /bar
/braceright /asciitilde /bullet /Euro /bullet
/quotesinglbase /florin /quotedblbase /ellipsis /dagger
/daggerdbl /circumflex /perthousand /Scaron /guilsinglleft
/OE /bullet /Zcaron /bullet /bullet
/quoteleft /quoteright /quotedblleft /quotedblright /bullet
/endash /emdash /asciitilde /trademark /scaron
/guilsinglright /oe /bullet /zcaron /Ydieresis
/space /exclamdown /cent /sterling /currency
/yen /brokenbar /section /dieresis /copyright
/ordfeminine /guillemotleft /logicalnot /sfthyphen /registered
/macron /degree /plusminus /twosuperior /threesuperior
/acute /mu /paragraph /middot /cedilla
/onesuperior /ordmasculine /guillemotright /onequarter /onehalf
/threequarters /questiondown /Agrave /Aacute /Acircumflex
/Atilde /Adieresis /Aring /AE /Ccedilla
/Egrave /Eacute /Ecircumflex /Edieresis /Igrave
/Iacute /Icircumflex /Idieresis /Eth /Ntilde
/Ograve /Oacute /Ocircumflex /Otilde /Odieresis
/multiply /Oslash /Ugrave /Uacute /Ucircumflex
/Udieresis /Yacute /Thorn /germandbls /agrave
/aacute /acircumflex /atilde /adieresis /aring
/ae /ccedilla /egrave /eacute /ecircumflex
/edieresis /igrave /iacute /icircumflex /idieresis
/eth /ntilde /ograve /oacute /ocircumflex
/otilde /odieresis /divide /oslash /ugrave
/uacute /ucircumflex /udieresis /yacute /thorn
/ydieresis
] def
%%EndResource
%FOPBeginFontReencode
/Courier-Bold findfont
dup length dict begin
  {1 index /FID ne {def} {pop pop} ifelse} forall
  /Encoding WinAnsiEncoding def
  currentdict
end
/Courier-Bold exch definefont pop
/Helvetica findfont
dup length dict begin
  {1 index /FID ne {def} {pop pop} ifelse} forall
  /Encoding WinAnsiEncoding def
  currentdict
end
/Helvetica exch definefont pop
/Courier-BoldOblique findfont
dup length dict begin
  {1 index /FID ne {def} {pop pop} ifelse} forall
  /Encoding WinAnsiEncoding def
  currentdict
end
/Courier-BoldOblique exch definefont pop
/Courier-Oblique findfont
dup length dict begin
  {1 index /FID ne {def} {pop pop} ifelse} forall
  /Encoding WinAnsiEncoding def
  currentdict
end
/Courier-Oblique exch definefont pop
/Times-Roman findfont
dup length dict begin
  {1 index /FID ne {def} {pop pop} ifelse} forall
  /Encoding WinAnsiEncoding def
  currentdict
end
/Times-Roman exch definefont pop
/Helvetica-BoldOblique findfont
dup length dict begin
  {1 index /FID ne {def} {pop pop} ifelse} forall
  /Encoding WinAnsiEncoding def
  currentdict
end
/Helvetica-BoldOblique exch definefont pop
/Helvetica-Bold findfont
dup length dict begin
  {1 index /FID ne {def} {pop pop} ifelse} forall
  /Encoding WinAnsiEncoding def
  currentdict
end
/Helvetica-Bold exch definefont pop
/Helvetica-Oblique findfont
dup length dict begin
  {1 index /FID ne {def} {pop pop} ifelse} forall
  /Encoding WinAnsiEncoding def
  currentdict
end
/Helvetica-Oblique exch definefont pop
/Times-BoldItalic findfont
dup length dict begin
  {1 index /FID ne {def} {pop pop} ifelse} forall
  /Encoding WinAnsiEncoding def
  currentdict
end
/Times-BoldItalic exch definefont pop
/Courier findfont
dup length dict begin
  {1 index /FID ne {def} {pop pop} ifelse} forall
  /Encoding WinAnsiEncoding def
  currentdict
end
/Courier exch definefont pop
/Times-Italic findfont
dup length dict begin
  {1 index /FID ne {def} {pop pop} ifelse} forall
  /Encoding WinAnsiEncoding def
  currentdict
end
/Times-Italic exch definefont pop
/Times-Bold findfont
dup length dict begin
  {1 index /FID ne {def} {pop pop} ifelse} forall
  /Encoding WinAnsiEncoding def
  currentdict
end
/Times-Bold exch definefont pop
%FOPEndFontReencode
%%EndProlog
%%Page: 1 1
%%PageBoundingBox: 0 0 420 315
%%BeginPageSetup
[1 0 0 -1 0 315] CT
%%EndPageSetup
GS
[0.5 0 0 0.5 0 0] CT
1 GC
N
0 0 840 630 re
f
GR
GS
[0.5 0 0 0.5 0 0] CT
1 GC
N
0 0 840 630 re
f
GR
GS
[0.5 0 0 0.5 0 0] CT
1 GC
N
109 561 M
760 561 L
760 47 L
109 47 L
cp
f
GR
GS
[0.5 0 0 0.5 0 0] CT
0.149 GC
2 setlinecap
1 LJ
N
109 561 M
760 561 L
S
GR
GS
[0.5 0 0 0.5 0 0] CT
0.149 GC
2 setlinecap
1 LJ
N
109 47 M
760 47 L
S
GR
GS
[0.5 0 0 0.5 0 0] CT
0.149 GC
2 setlinecap
1 LJ
N
109 561 M
109 554.49 L
S
GR
GS
[0.5 0 0 0.5 0 0] CT
0.149 GC
2 setlinecap
1 LJ
N
239.2 561 M
239.2 554.49 L
S
GR
GS
[0.5 0 0 0.5 0 0] CT
0.149 GC
2 setlinecap
1 LJ
N
369.4 561 M
369.4 554.49 L
S
GR
GS
[0.5 0 0 0.5 0 0] CT
0.149 GC
2 setlinecap
1 LJ
N
499.6 561 M
499.6 554.49 L
S
GR
GS
[0.5 0 0 0.5 0 0] CT
0.149 GC
2 setlinecap
1 LJ
N
629.8 561 M
629.8 554.49 L
S
GR
GS
[0.5 0 0 0.5 0 0] CT
0.149 GC
2 setlinecap
1 LJ
N
760 561 M
760 554.49 L
S
GR
GS
[0.5 0 0 0.5 0 0] CT
0.149 GC
2 setlinecap
1 LJ
N
109 47 M
109 53.51 L
S
GR
GS
[0.5 0 0 0.5 0 0] CT
0.149 GC
2 setlinecap
1 LJ
N
239.2 47 M
239.2 53.51 L
S
GR
GS
[0.5 0 0 0.5 0 0] CT
0.149 GC
2 setlinecap
1 LJ
N
369.4 47 M
369.4 53.51 L
S
GR
GS
[0.5 0 0 0.5 0 0] CT
0.149 GC
2 setlinecap
1 LJ
N
499.6 47 M
499.6 53.51 L
S
GR
GS
[0.5 0 0 0.5 0 0] CT
0.149 GC
2 setlinecap
1 LJ
N
629.8 47 M
629.8 53.51 L
S
GR
GS
[0.5 0 0 0.5 0 0] CT
0.149 GC
2 setlinecap
1 LJ
N
760 47 M
760 53.51 L
S
GR
GS
[0.5 0 0 0.5 54.50001 284.5] CT
0.149 GC
/Helvetica 20 F
GS
[1 0 0 1 0 0] CT
-19.5 21 moveto 
1 -1 scale
(0.15) t 
GR
GR
GS
[0.5 0 0 0.5 119.60001 284.5] CT
0.149 GC
/Helvetica 20 F
GS
[1 0 0 1 0 0] CT
-14 21 moveto 
1 -1 scale
(0.2) t 
GR
GR
GS
[0.5 0 0 0.5 184.7 284.5] CT
0.149 GC
/Helvetica 20 F
GS
[1 0 0 1 0 0] CT
-19.5 21 moveto 
1 -1 scale
(0.25) t 
GR
GR
GS
[0.5 0 0 0.5 249.80002 284.5] CT
0.149 GC
/Helvetica 20 F
GS
[1 0 0 1 0 0] CT
-14 21 moveto 
1 -1 scale
(0.3) t 
GR
GR
GS
[0.5 0 0 0.5 314.89999 284.5] CT
0.149 GC
/Helvetica 20 F
GS
[1 0 0 1 0 0] CT
-19.5 21 moveto 
1 -1 scale
(0.35) t 
GR
GR
GS
[0.5 0 0 0.5 380 284.5] CT
0.149 GC
/Helvetica 20 F
GS
[1 0 0 1 0 0] CT
-14 21 moveto 
1 -1 scale
(0.4) t 
GR
GR
GS
[0.5 0 0 0.5 217.25017 298.5] CT
0.149 GC
/Helvetica 22 F
GS
[1 0 0 1 0 0] CT
-67.5 23 moveto 
1 -1 scale
(f \(normalized\)) t 
GR
GR
GS
[0.5 0 0 0.5 0 0] CT
0.149 GC
2 setlinecap
1 LJ
N
109 561 M
109 47 L
S
GR
GS
[0.5 0 0 0.5 0 0] CT
0.149 GC
2 setlinecap
1 LJ
N
760 561 M
760 47 L
S
GR
GS
[0.5 0 0 0.5 0 0] CT
0.149 GC
2 setlinecap
1 LJ
N
109 561 M
115.51 561 L
S
GR
GS
[0.5 0 0 0.5 0 0] CT
0.149 GC
2 setlinecap
1 LJ
N
109 464.32 M
115.51 464.32 L
S
GR
GS
[0.5 0 0 0.5 0 0] CT
0.149 GC
2 setlinecap
1 LJ
N
109 367.64 M
115.51 367.64 L
S
GR
GS
[0.5 0 0 0.5 0 0] CT
0.149 GC
2 setlinecap
1 LJ
N
109 270.96 M
115.51 270.96 L
S
GR
GS
[0.5 0 0 0.5 0 0] CT
0.149 GC
2 setlinecap
1 LJ
N
109 174.28 M
115.51 174.28 L
S
GR
GS
[0.5 0 0 0.5 0 0] CT
0.149 GC
2 setlinecap
1 LJ
N
109 77.6 M
115.51 77.6 L
S
GR
GS
[0.5 0 0 0.5 0 0] CT
0.149 GC
2 setlinecap
1 LJ
N
760 561 M
753.49 561 L
S
GR
GS
[0.5 0 0 0.5 0 0] CT
0.149 GC
2 setlinecap
1 LJ
N
760 464.32 M
753.49 464.32 L
S
GR
GS
[0.5 0 0 0.5 0 0] CT
0.149 GC
2 setlinecap
1 LJ
N
760 367.64 M
753.49 367.64 L
S
GR
GS
[0.5 0 0 0.5 0 0] CT
0.149 GC
2 setlinecap
1 LJ
N
760 270.96 M
753.49 270.96 L
S
GR
GS
[0.5 0 0 0.5 0 0] CT
0.149 GC
2 setlinecap
1 LJ
N
760 174.28 M
753.49 174.28 L
S
GR
GS
[0.5 0 0 0.5 0 0] CT
0.149 GC
2 setlinecap
1 LJ
N
760 77.6 M
753.49 77.6 L
S
GR
GS
[0.5 0 0 0.5 50.5 280.5] CT
0.149 GC
/Helvetica 20 F
GS
[1 0 0 1 0 0] CT
-23 8 moveto 
1 -1 scale
(20) t 
GR
GR
GS
[0.5 0 0 0.5 50.5 232.15997] CT
0.149 GC
/Helvetica 20 F
GS
[1 0 0 1 0 0] CT
-23 8 moveto 
1 -1 scale
(25) t 
GR
GR
GS
[0.5 0 0 0.5 50.5 183.81996] CT
0.149 GC
/Helvetica 20 F
GS
[1 0 0 1 0 0] CT
-23 8 moveto 
1 -1 scale
(30) t 
GR
GR
GS
[0.5 0 0 0.5 50.5 135.47993] CT
0.149 GC
/Helvetica 20 F
GS
[1 0 0 1 0 0] CT
-23 8 moveto 
1 -1 scale
(35) t 
GR
GR
GS
[0.5 0 0 0.5 50.5 87.13992] CT
0.149 GC
/Helvetica 20 F
GS
[1 0 0 1 0 0] CT
-23 8 moveto 
1 -1 scale
(40) t 
GR
GR
GS
[0.5 0 0 0.5 50.5 38.7999] CT
0.149 GC
/Helvetica 20 F
GS
[1 0 0 1 0 0] CT
-23 8 moveto 
1 -1 scale
(45) t 
GR
GR
GS
[0 -0.5 0.5 0 28.5 169.5] CT
0.149 GC
/Helvetica 22 F
GS
[1 0 0 1 0 0] CT
0 0 moveto 
1 -1 scale
(PSD) t 
GR
GR
GS
[0 -0.5 0.5 0 34 146.5] CT
0.149 GC
/Helvetica 17.6 F
GS
[1 0 0 1 0 0] CT
0 0 moveto 
1 -1 scale
(dB) t 
GR
GR
GS
[0.5 0 0 0.5 0 0] CT
0 0.447 0.741 RC
1 LJ
N
108.922 452.541 M
109.064 455.455 L
109.381 463.105 L
109.699 472.062 L
110.017 482.638 L
110.335 495.304 L
110.653 510.807 L
110.971 530.445 L
111.289 556.78 L
111.323 561.061 L
S
GR
GS
[0.5 0 0 0.5 0 0] CT
0 0.447 0.741 RC
1 LJ
N
112.946 561.061 M
113.196 537.975 L
113.514 516.684 L
113.832 500.139 L
114.15 486.764 L
114.467 475.681 L
114.785 466.353 L
115.103 458.428 L
115.421 451.662 L
115.739 445.884 L
116.057 440.965 L
116.375 436.812 L
116.692 433.353 L
117.01 430.534 L
117.328 428.314 L
117.646 426.665 L
117.964 425.565 L
118.282 425.003 L
118.6 424.972 L
118.918 425.474 L
119.235 426.519 L
119.553 428.122 L
119.871 430.308 L
120.189 433.113 L
120.507 436.582 L
120.825 440.777 L
121.143 445.781 L
121.461 451.703 L
121.778 458.689 L
122.096 466.944 L
122.414 476.756 L
122.732 488.557 L
123.05 503.022 L
123.368 521.306 L
123.686 545.616 L
123.824 561.061 L
S
GR
GS
[0.5 0 0 0.5 0 0] CT
0 0.447 0.741 RC
1 LJ
N
125.338 561.061 M
125.593 535.43 L
125.911 512.511 L
126.229 494.792 L
126.546 480.474 L
126.864 468.581 L
127.182 458.521 L
127.5 449.913 L
127.818 442.494 L
128.136 436.078 L
128.454 430.528 L
128.772 425.742 L
129.089 421.642 L
129.407 418.167 L
129.725 415.271 L
130.043 412.92 L
130.361 411.085 L
130.679 409.747 L
130.997 408.894 L
131.315 408.517 L
131.632 408.615 L
131.95 409.19 L
132.268 410.251 L
132.586 411.813 L
132.904 413.895 L
133.222 416.527 L
133.54 419.745 L
133.858 423.598 L
134.175 428.148 L
134.493 433.478 L
134.811 439.694 L
135.129 446.941 L
135.447 455.417 L
135.765 465.399 L
136.083 477.298 L
136.4 491.755 L
136.718 509.846 L
137.036 533.599 L
137.293 561.061 L
S
GR
GS
[0.5 0 0 0.5 0 0] CT
0 0.447 0.741 RC
1 LJ
N
138.667 561.061 M
138.943 532.097 L
139.261 508.703 L
139.579 490.828 L
139.897 476.52 L
140.215 464.733 L
140.533 454.847 L
140.851 446.46 L
141.169 439.299 L
141.486 433.174 L
141.804 427.944 L
142.122 423.506 L
142.44 419.78 L
142.758 416.709 L
143.076 414.248 L
143.394 412.363 L
143.712 411.031 L
144.029 410.237 L
144.347 409.973 L
144.665 410.238 L
144.983 411.039 L
145.301 412.388 L
145.619 414.306 L
145.937 416.825 L
146.254 419.984 L
146.572 423.84 L
146.89 428.465 L
147.208 433.955 L
147.526 440.439 L
147.844 448.093 L
148.162 457.165 L
148.48 468.016 L
148.797 481.196 L
149.115 497.609 L
149.433 518.892 L
149.751 548.495 L
149.835 561.061 L
S
GR
GS
[0.5 0 0 0.5 0 0] CT
0 0.447 0.741 RC
1 LJ
N
151.106 561.061 M
151.34 532.509 L
151.658 506.308 L
151.976 486.602 L
152.294 470.935 L
152.612 458.052 L
152.93 447.227 L
153.248 438.001 L
153.566 430.067 L
153.883 423.209 L
154.201 417.273 L
154.519 412.141 L
154.837 407.728 L
155.155 403.964 L
155.473 400.8 L
155.791 398.194 L
156.108 396.117 L
156.426 394.547 L
156.744 393.467 L
157.062 392.868 L
157.38 392.746 L
157.698 393.103 L
158.016 393.944 L
158.334 395.283 L
158.651 397.137 L
158.969 399.533 L
159.287 402.505 L
159.605 406.098 L
159.923 410.37 L
160.241 415.398 L
160.559 421.281 L
160.877 428.152 L
161.194 436.192 L
161.512 445.654 L
161.83 456.906 L
162.148 470.514 L
162.466 487.406 L
162.784 509.272 L
163.102 539.713 L
163.239 561.061 L
S
GR
GS
[0.5 0 0 0.5 0 0] CT
0 0.447 0.741 RC
1 LJ
N
164.365 561.061 M
164.373 559.339 L
164.691 521.832 L
165.009 496.306 L
165.327 477.108 L
165.645 461.871 L
165.962 449.378 L
166.28 438.919 L
166.598 430.046 L
166.916 422.46 L
167.234 415.949 L
167.552 410.362 L
167.87 405.585 L
168.188 401.534 L
168.505 398.145 L
168.823 395.369 L
169.141 393.168 L
169.459 391.517 L
169.777 390.395 L
170.095 389.792 L
170.413 389.703 L
170.731 390.13 L
171.048 391.081 L
171.366 392.572 L
171.684 394.625 L
172.002 397.273 L
172.32 400.558 L
172.638 404.538 L
172.956 409.287 L
173.274 414.904 L
173.591 421.522 L
173.909 429.321 L
174.227 438.557 L
174.545 449.6 L
174.863 463.021 L
175.181 479.76 L
175.499 501.535 L
175.816 532.023 L
176.002 561.061 L
S
GR
GS
[0.5 0 0 0.5 0 0] CT
0 0.447 0.741 RC
1 LJ
N
177.031 561.061 M
177.088 548.595 L
177.406 511.27 L
177.724 485.701 L
178.042 466.374 L
178.359 450.965 L
178.677 438.274 L
178.995 427.599 L
179.313 418.495 L
179.631 410.665 L
179.949 403.898 L
180.267 398.043 L
180.585 392.986 L
180.902 388.641 L
181.22 384.942 L
181.538 381.84 L
181.856 379.296 L
182.174 377.279 L
182.492 375.769 L
182.81 374.75 L
183.128 374.215 L
183.445 374.159 L
183.763 374.585 L
184.081 375.5 L
184.399 376.919 L
184.717 378.861 L
185.035 381.354 L
185.353 384.435 L
185.671 388.151 L
185.988 392.566 L
186.306 397.761 L
186.624 403.842 L
186.942 410.953 L
187.26 419.291 L
187.578 429.134 L
187.896 440.891 L
188.213 455.202 L
188.531 473.138 L
188.849 496.719 L
189.167 530.506 L
189.333 561.061 L
S
GR
GS
[0.5 0 0 0.5 0 0] CT
0 0.447 0.741 RC
1 LJ
N
190.256 561.061 M
190.439 528.168 L
190.756 494.678 L
191.074 471.103 L
191.392 453.059 L
191.71 438.586 L
192.028 426.637 L
192.346 416.586 L
192.664 408.033 L
192.982 400.703 L
193.299 394.406 L
193.617 388.999 L
193.935 384.379 L
194.253 380.466 L
194.571 377.201 L
194.889 374.538 L
195.207 372.444 L
195.525 370.892 L
195.842 369.868 L
196.16 369.361 L
196.478 369.368 L
196.796 369.893 L
197.114 370.946 L
197.432 372.544 L
197.75 374.713 L
198.067 377.487 L
198.385 380.913 L
198.703 385.053 L
199.021 389.986 L
199.339 395.821 L
199.657 402.701 L
199.975 410.823 L
200.293 420.47 L
200.61 432.056 L
200.928 446.231 L
201.246 464.09 L
201.564 487.709 L
201.882 521.814 L
202.089 561.061 L
S
GR
GS
[0.5 0 0 0.5 0 0] CT
0 0.447 0.741 RC
1 LJ
N
202.894 561.061 M
203.153 515.347 L
203.471 482.144 L
203.789 458.599 L
204.107 440.48 L
204.425 425.878 L
204.743 413.767 L
205.061 403.533 L
205.379 394.779 L
205.696 387.236 L
206.014 380.711 L
206.332 375.067 L
206.65 370.197 L
206.968 366.023 L
207.286 362.484 L
207.604 359.534 L
207.921 357.136 L
208.239 355.265 L
208.557 353.901 L
208.875 353.032 L
209.193 352.653 L
209.511 352.761 L
209.829 353.363 L
210.147 354.469 L
210.464 356.097 L
210.782 358.272 L
211.1 361.026 L
211.418 364.404 L
211.736 368.464 L
212.054 373.279 L
212.372 378.949 L
212.69 385.604 L
213.007 393.423 L
213.325 402.655 L
213.643 413.663 L
213.961 427.002 L
214.279 443.583 L
214.597 465.053 L
214.915 494.896 L
215.233 542.893 L
215.278 561.061 L
S
GR
GS
[0.5 0 0 0.5 0 0] CT
0 0.447 0.741 RC
1 LJ
N
215.995 561.061 M
216.186 517.12 L
216.504 478.791 L
216.822 452.801 L
217.14 433.272 L
217.458 417.768 L
217.775 405.045 L
218.093 394.38 L
218.411 385.318 L
218.729 377.554 L
219.047 370.876 L
219.365 365.129 L
219.683 360.201 L
220.001 356.005 L
220.318 352.478 L
220.636 349.57 L
220.954 347.245 L
221.272 345.476 L
221.59 344.246 L
221.908 343.544 L
222.226 343.366 L
222.544 343.716 L
222.861 344.603 L
223.179 346.046 L
223.497 348.072 L
223.815 350.715 L
224.133 354.024 L
224.451 358.064 L
224.769 362.918 L
225.087 368.7 L
225.404 375.562 L
225.722 383.715 L
226.04 393.458 L
226.358 405.243 L
226.676 419.78 L
226.994 438.293 L
227.312 463.162 L
227.629 500.087 L
227.906 561.061 L
S
GR
GS
[0.5 0 0 0.5 0 0] CT
0 0.447 0.741 RC
1 LJ
N
228.503 561.061 M
228.583 526.672 L
228.901 476.916 L
229.219 445.853 L
229.537 423.323 L
229.855 405.75 L
230.172 391.453 L
230.49 379.507 L
230.808 369.351 L
231.126 360.616 L
231.444 353.05 L
231.762 346.473 L
232.08 340.753 L
232.398 335.791 L
232.715 331.511 L
233.033 327.857 L
233.351 324.783 L
233.669 322.256 L
233.987 320.251 L
234.305 318.751 L
234.623 317.745 L
234.941 317.227 L
235.258 317.199 L
235.576 317.668 L
235.894 318.645 L
236.212 320.151 L
236.53 322.212 L
236.848 324.864 L
237.166 328.156 L
237.483 332.15 L
237.801 336.928 L
238.119 342.596 L
238.437 349.299 L
238.755 357.235 L
239.073 366.684 L
239.391 378.062 L
239.709 392.012 L
240.026 409.625 L
240.344 432.959 L
240.662 466.686 L
240.98 526.112 L
241.024 561.061 L
S
GR
GS
[0.5 0 0 0.5 0 0] CT
0 0.447 0.741 RC
1 LJ
N
241.562 561.061 M
241.616 517.029 L
241.934 460.393 L
242.252 426.818 L
242.569 402.979 L
242.887 384.599 L
243.205 369.754 L
243.523 357.411 L
243.841 346.953 L
244.159 337.984 L
244.477 330.233 L
244.795 323.51 L
245.112 317.676 L
245.43 312.629 L
245.748 308.289 L
246.066 304.6 L
246.384 301.516 L
246.702 299.007 L
247.02 297.048 L
247.337 295.627 L
247.655 294.736 L
247.973 294.375 L
248.291 294.554 L
248.609 295.288 L
248.927 296.6 L
249.245 298.527 L
249.563 301.114 L
249.88 304.426 L
250.198 308.544 L
250.516 313.582 L
250.834 319.691 L
251.152 327.081 L
251.47 336.053 L
251.788 347.059 L
252.106 360.815 L
252.423 378.551 L
252.741 402.676 L
253.059 438.972 L
253.377 509.181 L
253.57 561.061 L
S
GR
GS
[0.5 0 0 0.5 0 0] CT
0 0.447 0.741 RC
1 LJ
N
253.775 561.061 M
254.013 461.075 L
254.331 410.769 L
254.649 378.858 L
254.966 355.37 L
255.284 336.771 L
255.602 321.394 L
255.92 308.319 L
256.238 296.984 L
256.556 287.021 L
256.874 278.174 L
257.191 270.261 L
257.509 263.145 L
257.827 256.724 L
258.145 250.916 L
258.463 245.657 L
258.781 240.897 L
259.099 236.593 L
259.417 232.713 L
259.734 229.228 L
260.052 226.116 L
260.37 223.357 L
260.688 220.936 L
261.006 218.84 L
261.324 217.059 L
261.642 215.585 L
261.96 214.413 L
262.277 213.538 L
262.595 212.957 L
262.913 212.672 L
263.231 212.681 L
263.549 212.989 L
263.867 213.599 L
264.185 214.519 L
264.503 215.756 L
264.82 217.321 L
265.138 219.227 L
265.456 221.491 L
265.774 224.132 L
266.092 227.174 L
266.41 230.646 L
266.728 234.583 L
267.046 239.027 L
267.363 244.031 L
267.681 249.662 L
267.999 256.001 L
268.317 263.157 L
268.635 271.27 L
268.953 280.529 L
269.271 291.198 L
269.588 303.662 L
269.906 318.508 L
270.224 336.708 L
270.542 360.039 L
270.86 392.345 L
271.178 444.927 L
271.403 561.061 L
S
GR
GS
[0.5 0 0 0.5 0 0] CT
0 0.447 0.741 RC
1 LJ
N
271.61 561.061 M
271.814 474.805 L
272.131 409.687 L
272.449 374.388 L
272.767 350.439 L
273.085 332.595 L
273.403 318.619 L
273.721 307.352 L
274.039 298.118 L
274.357 290.491 L
274.674 284.188 L
274.992 279.016 L
275.31 274.838 L
275.628 271.561 L
275.946 269.118 L
276.264 267.471 L
276.582 266.597 L
276.9 266.494 L
277.217 267.178 L
277.535 268.684 L
277.853 271.069 L
278.171 274.418 L
278.489 278.855 L
278.807 284.557 L
279.125 291.78 L
279.442 300.905 L
279.76 312.53 L
280.078 327.66 L
280.396 348.165 L
280.714 378.175 L
281.032 430.345 L
281.227 561.061 L
S
GR
GS
[0.5 0 0 0.5 0 0] CT
0 0.447 0.741 RC
1 LJ
N
281.478 561.061 M
281.668 439.325 L
281.985 375.101 L
282.303 337.697 L
282.621 310.931 L
282.939 289.96 L
283.257 272.667 L
283.575 257.934 L
283.893 245.099 L
284.211 233.736 L
284.528 223.555 L
284.846 214.349 L
285.164 205.966 L
285.482 198.289 L
285.8 191.229 L
286.118 184.713 L
286.436 178.685 L
286.754 173.097 L
287.071 167.909 L
287.389 163.09 L
287.707 158.612 L
288.025 154.45 L
288.343 150.585 L
288.661 147 L
288.979 143.678 L
289.296 140.608 L
289.614 137.778 L
289.932 135.178 L
290.25 132.798 L
290.568 130.632 L
290.886 128.672 L
291.204 126.913 L
291.522 125.349 L
291.839 123.976 L
292.157 122.791 L
292.475 121.79 L
292.793 120.97 L
293.111 120.33 L
293.429 119.868 L
293.747 119.582 L
294.065 119.472 L
294.382 119.537 L
294.7 119.778 L
295.018 120.195 L
295.336 120.789 L
295.654 121.562 L
295.972 122.516 L
296.29 123.653 L
296.608 124.976 L
296.925 126.489 L
297.243 128.196 L
297.561 130.103 L
297.879 132.214 L
298.197 134.537 L
298.515 137.079 L
298.833 139.849 L
299.15 142.856 L
299.468 146.113 L
299.786 149.632 L
300.104 153.429 L
300.422 157.52 L
300.74 161.927 L
301.058 166.673 L
301.376 171.786 L
301.693 177.3 L
302.011 183.256 L
302.329 189.701 L
302.647 196.695 L
302.965 204.314 L
303.283 212.651 L
303.601 221.829 L
303.919 232.01 L
304.236 243.417 L
304.554 256.363 L
304.872 271.318 L
305.19 289.022 L
305.508 310.756 L
305.826 339.034 L
306.144 379.992 L
306.462 457.672 L
306.779 523.872 L
307.097 406.549 L
307.415 361.386 L
307.733 333.646 L
308.051 314.032 L
308.369 299.181 L
308.687 287.489 L
309.004 278.068 L
309.322 270.375 L
309.64 264.054 L
309.958 258.862 L
310.276 254.625 L
310.594 251.215 L
310.912 248.536 L
311.23 246.517 L
311.547 245.103 L
311.865 244.253 L
312.183 243.937 L
312.501 244.131 L
312.819 244.823 L
313.137 246.003 L
313.455 247.672 L
313.773 249.834 L
314.09 252.5 L
314.408 255.689 L
314.726 259.427 L
315.044 263.75 L
315.362 268.705 L
315.68 274.354 L
315.998 280.779 L
316.316 288.085 L
316.633 296.418 L
316.951 305.975 L
317.269 317.036 L
317.587 330.014 L
317.905 345.554 L
318.223 364.743 L
318.541 389.634 L
318.858 424.883 L
319.176 485.716 L
319.268 561.061 L
S
GR
GS
[0.5 0 0 0.5 0 0] CT
0 0.447 0.741 RC
1 LJ
N
319.716 561.061 M
319.812 480.329 L
320.13 425.093 L
320.448 392.998 L
320.766 370.654 L
321.084 353.769 L
321.401 340.412 L
321.719 329.549 L
322.037 320.562 L
322.355 313.052 L
322.673 306.749 L
322.991 301.46 L
323.309 297.046 L
323.627 293.401 L
323.944 290.447 L
324.262 288.123 L
324.58 286.382 L
324.898 285.19 L
325.216 284.521 L
325.534 284.355 L
325.852 284.681 L
326.17 285.495 L
326.487 286.794 L
326.805 288.587 L
327.123 290.884 L
327.441 293.704 L
327.759 297.074 L
328.077 301.029 L
328.395 305.617 L
328.712 310.896 L
329.03 316.948 L
329.348 323.877 L
329.666 331.823 L
329.984 340.978 L
330.302 351.613 L
330.62 364.125 L
330.938 379.134 L
331.255 397.669 L
331.573 421.654 L
331.891 455.364 L
332.209 512.094 L
332.269 561.061 L
S
GR
GS
[0.5 0 0 0.5 0 0] CT
0 0.447 0.741 RC
1 LJ
N
332.795 561.061 M
332.845 521.708 L
333.163 462.362 L
333.481 428.759 L
333.798 405.559 L
334.116 388.084 L
334.434 374.274 L
334.752 363.041 L
335.07 353.738 L
335.388 345.952 L
335.706 339.402 L
336.024 333.893 L
336.341 329.279 L
336.659 325.455 L
336.977 322.339 L
337.295 319.871 L
337.613 318.004 L
337.931 316.704 L
338.249 315.944 L
338.566 315.708 L
338.884 315.984 L
339.202 316.771 L
339.52 318.069 L
339.838 319.889 L
340.156 322.247 L
340.474 325.166 L
340.792 328.68 L
341.109 332.833 L
341.427 337.684 L
341.745 343.309 L
342.063 349.81 L
342.381 357.323 L
342.699 366.035 L
343.017 376.208 L
343.335 388.228 L
343.652 402.69 L
343.97 420.58 L
344.288 443.723 L
344.606 476.101 L
344.924 529.649 L
344.978 561.061 L
S
GR
GS
[0.5 0 0 0.5 0 0] CT
0 0.447 0.741 RC
1 LJ
N
345.541 561.061 M
345.56 551.697 L
345.878 488.319 L
346.195 453.236 L
346.513 429.153 L
346.831 411.025 L
347.149 396.677 L
347.467 384.968 L
347.785 375.228 L
348.103 367.029 L
348.421 360.081 L
348.738 354.183 L
349.056 349.186 L
349.374 344.98 L
349.692 341.482 L
350.01 338.628 L
350.328 336.369 L
350.646 334.669 L
350.963 333.498 L
351.281 332.838 L
351.599 332.674 L
351.917 333 L
352.235 333.814 L
352.553 335.121 L
352.871 336.93 L
353.189 339.259 L
353.506 342.13 L
353.824 345.577 L
354.142 349.642 L
354.46 354.381 L
354.778 359.867 L
355.096 366.194 L
355.414 373.491 L
355.732 381.929 L
356.049 391.749 L
356.367 403.301 L
356.685 417.113 L
357.003 434.048 L
357.321 455.648 L
357.639 485.109 L
357.957 531.059 L
358.044 561.061 L
S
GR
GS
[0.5 0 0 0.5 0 0] CT
0 0.447 0.741 RC
1 LJ
N
358.743 561.061 M
358.91 518.994 L
359.228 479.46 L
359.546 453.308 L
359.864 433.986 L
360.182 418.863 L
360.5 406.613 L
360.817 396.477 L
361.135 387.977 L
361.453 380.798 L
361.771 374.719 L
362.089 369.579 L
362.407 365.263 L
362.725 361.68 L
363.043 358.764 L
363.36 356.464 L
363.678 354.741 L
363.996 353.567 L
364.314 352.921 L
364.632 352.789 L
364.95 353.167 L
365.268 354.054 L
365.586 355.455 L
365.903 357.384 L
366.221 359.862 L
366.539 362.916 L
366.857 366.586 L
367.175 370.921 L
367.493 375.99 L
367.811 381.881 L
368.129 388.709 L
368.446 396.634 L
368.764 405.875 L
369.082 416.747 L
369.4 429.723 L
369.718 445.555 L
370.036 465.555 L
370.354 492.32 L
370.671 532.273 L
370.787 561.061 L
S
GR
GS
[0.5 0 0 0.5 0 0] CT
0 0.447 0.741 RC
1 LJ
N
371.59 561.061 M
371.625 548.667 L
371.943 503.03 L
372.261 474.156 L
372.579 453.231 L
372.897 437.01 L
373.214 423.934 L
373.532 413.132 L
373.85 404.071 L
374.168 396.399 L
374.486 389.874 L
374.804 384.323 L
375.122 379.618 L
375.44 375.664 L
375.757 372.388 L
376.075 369.734 L
376.393 367.659 L
376.711 366.131 L
377.029 365.127 L
377.347 364.63 L
377.665 364.63 L
377.983 365.124 L
378.3 366.113 L
378.618 367.606 L
378.936 369.617 L
379.254 372.166 L
379.572 375.283 L
379.89 379.007 L
380.208 383.389 L
380.525 388.497 L
380.843 394.417 L
381.161 401.265 L
381.479 409.198 L
381.797 418.433 L
382.115 429.278 L
382.433 442.196 L
382.751 457.923 L
383.068 477.73 L
383.386 504.117 L
383.704 543.175 L
383.78 561.061 L
S
GR
GS
[0.5 0 0 0.5 0 0] CT
0 0.447 0.741 RC
1 LJ
N
384.687 561.061 M
384.976 518.486 L
385.294 489.134 L
385.611 467.982 L
385.929 451.646 L
386.247 438.514 L
386.565 427.696 L
386.883 418.643 L
387.201 411 L
387.519 404.52 L
387.837 399.027 L
388.154 394.394 L
388.472 390.523 L
388.79 387.343 L
389.108 384.797 L
389.426 382.844 L
389.744 381.454 L
390.062 380.603 L
390.379 380.277 L
390.697 380.47 L
391.015 381.18 L
391.333 382.412 L
391.651 384.18 L
391.969 386.502 L
392.287 389.409 L
392.605 392.937 L
392.922 397.14 L
393.24 402.083 L
393.558 407.857 L
393.876 414.58 L
394.194 422.413 L
394.512 431.579 L
394.83 442.401 L
395.148 455.363 L
395.465 471.239 L
395.783 491.387 L
396.101 518.523 L
396.419 559.482 L
396.425 561.061 L
S
GR
GS
[0.5 0 0 0.5 0 0] CT
0 0.447 0.741 RC
1 LJ
N
397.43 561.061 M
397.691 524.702 L
398.008 496.288 L
398.326 475.554 L
398.644 459.405 L
398.962 446.337 L
399.28 435.506 L
399.598 426.392 L
399.916 418.65 L
400.233 412.044 L
400.551 406.403 L
400.869 401.602 L
401.187 397.545 L
401.505 394.162 L
401.823 391.397 L
402.141 389.207 L
402.459 387.561 L
402.776 386.434 L
403.094 385.812 L
403.412 385.683 L
403.73 386.044 L
404.048 386.895 L
404.366 388.246 L
404.684 390.107 L
405.002 392.501 L
405.319 395.455 L
405.637 399.006 L
405.955 403.203 L
406.273 408.11 L
406.591 413.81 L
406.909 420.413 L
407.227 428.067 L
407.545 436.976 L
407.862 447.428 L
408.18 459.85 L
408.498 474.914 L
408.816 493.758 L
409.134 518.558 L
409.452 554.354 L
409.485 561.061 L
S
GR
GS
[0.5 0 0 0.5 0 0] CT
0 0.447 0.741 RC
1 LJ
N
410.628 561.061 M
410.723 545.146 L
411.041 513.499 L
411.359 491.095 L
411.677 473.95 L
411.995 460.238 L
412.313 448.973 L
412.63 439.558 L
412.948 431.61 L
413.266 424.864 L
413.584 419.136 L
413.902 414.288 L
414.22 410.22 L
414.538 406.855 L
414.856 404.135 L
415.173 402.016 L
415.491 400.465 L
415.809 399.459 L
416.127 398.983 L
416.445 399.027 L
416.763 399.59 L
417.081 400.677 L
417.399 402.3 L
417.716 404.477 L
418.034 407.237 L
418.352 410.617 L
418.67 414.668 L
418.988 419.455 L
419.306 425.065 L
419.624 431.616 L
419.941 439.264 L
420.259 448.229 L
420.577 458.823 L
420.895 471.516 L
421.213 487.059 L
421.531 506.753 L
421.849 533.176 L
422.073 561.061 L
S
GR
GS
[0.5 0 0 0.5 0 0] CT
0 0.447 0.741 RC
1 LJ
N
423.315 561.061 M
423.438 543.251 L
423.756 514.017 L
424.074 492.777 L
424.392 476.261 L
424.71 462.898 L
425.027 451.814 L
425.345 442.471 L
425.663 434.518 L
425.981 427.71 L
426.299 421.873 L
426.617 416.879 L
426.935 412.631 L
427.253 409.055 L
427.57 406.095 L
427.888 403.706 L
428.206 401.855 L
428.524 400.517 L
428.842 399.675 L
429.16 399.315 L
429.478 399.434 L
429.796 400.028 L
430.113 401.104 L
430.431 402.671 L
430.749 404.745 L
431.067 407.349 L
431.385 410.515 L
431.703 414.282 L
432.021 418.703 L
432.338 423.847 L
432.656 429.803 L
432.974 436.689 L
433.292 444.664 L
433.61 453.95 L
433.928 464.86 L
434.246 477.869 L
434.564 493.729 L
434.881 513.75 L
435.199 540.524 L
435.363 561.061 L
S
GR
GS
[0.5 0 0 0.5 0 0] CT
0 0.447 0.741 RC
1 LJ
N
436.722 561.061 M
436.789 551.534 L
437.107 522.666 L
437.424 501.761 L
437.742 485.567 L
438.06 472.524 L
438.378 461.762 L
438.696 452.745 L
439.014 445.124 L
439.332 438.657 L
439.65 433.172 L
439.967 428.542 L
440.285 424.673 L
440.603 421.493 L
440.921 418.947 L
441.239 416.996 L
441.557 415.608 L
441.875 414.764 L
442.192 414.449 L
442.51 414.657 L
442.828 415.388 L
443.146 416.65 L
443.464 418.457 L
443.782 420.832 L
444.1 423.804 L
444.418 427.418 L
444.735 431.729 L
445.053 436.81 L
445.371 442.761 L
445.689 449.712 L
446.007 457.844 L
446.325 467.407 L
446.643 478.772 L
446.961 492.504 L
447.278 509.533 L
447.596 531.556 L
447.902 561.061 L
S
GR
GS
[0.5 0 0 0.5 0 0] CT
0 0.447 0.741 RC
1 LJ
N
449.362 561.061 M
449.504 544.508 L
449.821 519.158 L
450.139 500.112 L
450.457 485.013 L
450.775 472.648 L
451.093 462.309 L
451.411 453.547 L
451.729 446.062 L
452.046 439.643 L
452.364 434.137 L
452.682 429.428 L
453 425.431 L
453.318 422.079 L
453.636 419.322 L
453.954 417.119 L
454.272 415.44 L
454.589 414.264 L
454.907 413.573 L
455.225 413.36 L
455.543 413.618 L
455.861 414.349 L
456.179 415.558 L
456.497 417.257 L
456.815 419.462 L
457.132 422.199 L
457.45 425.499 L
457.768 429.405 L
458.086 433.97 L
458.404 439.265 L
458.722 445.383 L
459.04 452.445 L
459.358 460.616 L
459.675 470.125 L
459.993 481.299 L
460.311 494.632 L
460.629 510.918 L
460.947 531.55 L
461.265 559.334 L
461.278 561.061 L
S
GR
GS
[0.5 0 0 0.5 0 0] CT
0 0.447 0.741 RC
1 LJ
N
462.889 561.061 M
463.172 536.396 L
463.49 516.178 L
463.808 500.469 L
464.126 487.805 L
464.443 477.362 L
464.761 468.631 L
465.079 461.274 L
465.397 455.059 L
465.715 449.821 L
466.033 445.438 L
466.351 441.818 L
466.669 438.895 L
466.986 436.616 L
467.304 434.944 L
467.622 433.853 L
467.94 433.324 L
468.258 433.349 L
468.576 433.925 L
468.894 435.059 L
469.212 436.764 L
469.529 439.064 L
469.847 441.991 L
470.165 445.589 L
470.483 449.92 L
470.801 455.063 L
471.119 461.125 L
471.437 468.251 L
471.754 476.642 L
472.072 486.582 L
472.39 498.494 L
472.708 513.042 L
473.026 531.354 L
473.344 555.576 L
473.394 561.061 L
S
GR
GS
[0.5 0 0 0.5 0 0] CT
0 0.447 0.741 RC
1 LJ
N
475.13 561.061 M
475.251 548.807 L
475.569 525.853 L
475.887 508.198 L
476.205 493.994 L
476.523 482.244 L
476.84 472.346 L
477.158 463.911 L
477.476 456.673 L
477.794 450.444 L
478.112 445.085 L
478.43 440.491 L
478.748 436.585 L
479.066 433.303 L
479.383 430.601 L
479.701 428.44 L
480.019 426.794 L
480.337 425.641 L
480.655 424.968 L
480.973 424.766 L
481.291 425.031 L
481.608 425.766 L
481.926 426.976 L
482.244 428.674 L
482.562 430.878 L
482.88 433.613 L
483.198 436.911 L
483.516 440.816 L
483.834 445.383 L
484.151 450.684 L
484.469 456.813 L
484.787 463.894 L
485.105 472.095 L
485.423 481.649 L
485.741 492.892 L
486.059 506.332 L
486.377 522.787 L
486.694 543.706 L
486.889 561.061 L
S
GR
GS
[0.5 0 0 0.5 0 0] CT
0 0.447 0.741 RC
1 LJ
N
488.735 561.061 M
488.92 545.329 L
489.237 525.397 L
489.555 509.854 L
489.873 497.291 L
490.191 486.911 L
490.509 478.216 L
490.827 470.879 L
491.145 464.671 L
491.462 459.431 L
491.78 455.039 L
492.098 451.404 L
492.416 448.461 L
492.734 446.159 L
493.052 444.461 L
493.37 443.341 L
493.688 442.781 L
494.005 442.772 L
494.323 443.314 L
494.641 444.411 L
494.959 446.078 L
495.277 448.339 L
495.595 451.225 L
495.913 454.782 L
496.231 459.07 L
496.548 464.17 L
496.866 470.187 L
497.184 477.268 L
497.502 485.613 L
497.82 495.506 L
498.138 507.371 L
498.456 521.872 L
498.774 540.137 L
499.049 561.061 L
S
GR
GS
[0.5 0 0 0.5 0 0] CT
0 0.447 0.741 RC
1 LJ
N
500.96 561.061 M
500.999 557.126 L
501.316 534.117 L
501.634 516.401 L
501.952 502.134 L
502.27 490.316 L
502.588 480.348 L
502.906 471.84 L
503.224 464.526 L
503.542 458.217 L
503.859 452.774 L
504.177 448.094 L
504.495 444.096 L
504.813 440.718 L
505.131 437.914 L
505.449 435.646 L
505.767 433.885 L
506.085 432.611 L
506.402 431.808 L
506.72 431.466 L
507.038 431.58 L
507.356 432.151 L
507.674 433.181 L
507.992 434.682 L
508.31 436.668 L
508.628 439.16 L
508.945 442.184 L
509.263 445.779 L
509.581 449.989 L
509.899 454.875 L
510.217 460.515 L
510.535 467.01 L
510.853 474.494 L
511.171 483.15 L
511.488 493.234 L
511.806 505.118 L
512.124 519.373 L
512.442 536.937 L
512.76 559.52 L
512.776 561.061 L
S
GR
GS
[0.5 0 0 0.5 0 0] CT
0 0.447 0.741 RC
1 LJ
N
514.845 561.061 M
514.985 550.142 L
515.303 531.704 L
515.621 517.211 L
515.939 505.462 L
516.256 495.756 L
516.574 487.649 L
516.892 480.846 L
517.21 475.14 L
517.528 470.383 L
517.846 466.467 L
518.164 463.31 L
518.482 460.853 L
518.799 459.054 L
519.117 457.882 L
519.435 457.319 L
519.753 457.354 L
520.071 457.989 L
520.389 459.233 L
520.707 461.104 L
521.025 463.635 L
521.342 466.868 L
521.66 470.863 L
521.978 475.703 L
522.296 481.498 L
522.614 488.397 L
522.932 496.611 L
523.25 506.442 L
523.568 518.341 L
523.885 533.027 L
524.203 551.739 L
524.321 561.061 L
S
GR
GS
[0.5 0 0 0.5 0 0] CT
0 0.447 0.741 RC
1 LJ
N
526.406 561.061 M
526.428 558.922 L
526.746 536.66 L
527.064 519.299 L
527.382 505.183 L
527.7 493.398 L
528.018 483.386 L
528.336 474.782 L
528.653 467.334 L
528.971 460.861 L
529.289 455.23 L
529.607 450.342 L
529.925 446.117 L
530.243 442.498 L
530.561 439.436 L
530.879 436.895 L
531.196 434.846 L
531.514 433.267 L
531.832 432.142 L
532.15 431.46 L
532.468 431.214 L
532.786 431.402 L
533.104 432.025 L
533.422 433.09 L
533.739 434.607 L
534.057 436.591 L
534.375 439.064 L
534.693 442.053 L
535.011 445.594 L
535.329 449.733 L
535.647 454.527 L
535.964 460.051 L
536.282 466.403 L
536.6 473.712 L
536.918 482.15 L
537.236 491.96 L
537.554 503.492 L
537.872 517.274 L
538.19 534.167 L
538.507 555.707 L
538.565 561.061 L
S
GR
GS
[0.5 0 0 0.5 0 0] CT
0 0.447 0.741 RC
1 LJ
N
540.641 561.061 M
540.733 553.49 L
541.05 534.118 L
541.368 518.962 L
541.686 506.692 L
542.004 496.546 L
542.322 488.049 L
542.64 480.884 L
542.958 474.832 L
543.276 469.734 L
543.593 465.475 L
543.911 461.968 L
544.229 459.149 L
544.547 456.969 L
544.865 455.393 L
545.183 454.396 L
545.501 453.963 L
545.818 454.086 L
546.136 454.765 L
546.454 456.009 L
546.772 457.835 L
547.09 460.268 L
547.408 463.345 L
547.726 467.115 L
548.044 471.646 L
548.361 477.027 L
548.679 483.377 L
548.997 490.858 L
549.315 499.698 L
549.633 510.225 L
549.951 522.936 L
550.269 538.629 L
550.587 558.713 L
550.614 561.061 L
S
GR
GS
[0.5 0 0 0.5 0 0] CT
0 0.447 0.741 RC
1 LJ
N
552.779 561.061 M
552.812 558.153 L
553.13 537.394 L
553.447 521.1 L
553.765 507.821 L
554.083 496.741 L
554.401 487.352 L
554.719 479.317 L
555.037 472.404 L
555.355 466.445 L
555.672 461.316 L
555.99 456.923 L
556.308 453.195 L
556.626 450.077 L
556.944 447.527 L
557.262 445.511 L
557.58 444.005 L
557.898 442.992 L
558.215 442.461 L
558.533 442.406 L
558.851 442.825 L
559.169 443.725 L
559.487 445.115 L
559.805 447.012 L
560.123 449.438 L
560.441 452.423 L
560.758 456.009 L
561.076 460.247 L
561.394 465.206 L
561.712 470.974 L
562.03 477.667 L
562.348 485.444 L
562.666 494.521 L
562.984 505.208 L
563.301 517.971 L
563.619 533.545 L
563.937 553.204 L
564.032 561.061 L
S
GR
GS
[0.5 0 0 0.5 0 0] CT
0 0.447 0.741 RC
1 LJ
N
566.198 561.061 M
566.48 542.186 L
566.798 525.743 L
567.116 512.511 L
567.434 501.601 L
567.752 492.469 L
568.069 484.759 L
568.387 478.228 L
568.705 472.702 L
569.023 468.057 L
569.341 464.198 L
569.659 461.056 L
569.977 458.581 L
570.295 456.736 L
570.612 455.494 L
570.93 454.842 L
571.248 454.773 L
571.566 455.29 L
571.884 456.406 L
572.202 458.143 L
572.52 460.533 L
572.838 463.624 L
573.155 467.479 L
573.473 472.185 L
573.791 477.858 L
574.109 484.657 L
574.427 492.806 L
574.745 502.628 L
575.063 514.611 L
575.38 529.542 L
575.698 548.802 L
575.846 561.061 L
S
GR
GS
[0.5 0 0 0.5 0 0] CT
0 0.447 0.741 RC
1 LJ
N
577.744 561.061 M
577.923 544.536 L
578.241 522.833 L
578.559 505.627 L
578.877 491.444 L
579.195 479.451 L
579.513 469.13 L
579.831 460.14 L
580.149 452.243 L
580.466 445.265 L
580.784 439.08 L
581.102 433.587 L
581.42 428.711 L
581.738 424.391 L
582.056 420.578 L
582.374 417.234 L
582.692 414.327 L
583.009 411.83 L
583.327 409.723 L
583.645 407.989 L
583.963 406.614 L
584.281 405.587 L
584.599 404.9 L
584.917 404.549 L
585.234 404.529 L
585.552 404.839 L
585.87 405.481 L
586.188 406.457 L
586.506 407.773 L
586.824 409.437 L
587.142 411.458 L
587.46 413.851 L
587.777 416.632 L
588.095 419.82 L
588.413 423.443 L
588.731 427.53 L
589.049 432.119 L
589.367 437.257 L
589.685 443.003 L
590.003 449.43 L
590.32 456.633 L
590.638 464.733 L
590.956 473.896 L
591.274 484.344 L
591.592 496.399 L
591.91 510.538 L
592.228 527.52 L
592.546 548.665 L
592.687 561.061 L
S
GR
GS
[0.5 0 0 0.5 0 0] CT
0 0.447 0.741 RC
1 LJ
N
594.827 561.061 M
595.089 544.809 L
595.406 529.738 L
595.724 517.826 L
596.042 508.209 L
596.36 500.361 L
596.678 493.938 L
596.996 488.703 L
597.314 484.492 L
597.631 481.186 L
597.949 478.698 L
598.267 476.968 L
598.585 475.953 L
598.903 475.625 L
599.221 475.972 L
599.539 476.992 L
599.857 478.698 L
600.174 481.113 L
600.492 484.28 L
600.81 488.255 L
601.128 493.12 L
601.446 498.989 L
601.764 506.017 L
602.082 514.428 L
602.4 524.541 L
602.717 536.847 L
603.035 552.134 L
603.18 561.061 L
S
GR
GS
[0.5 0 0 0.5 0 0] CT
0 0.447 0.741 RC
1 LJ
N
605.715 561.061 M
605.896 549.019 L
606.214 532.381 L
606.532 518.778 L
606.85 507.382 L
607.168 497.679 L
607.485 489.328 L
607.803 482.094 L
608.121 475.806 L
608.439 470.336 L
608.757 465.59 L
609.075 461.492 L
609.393 457.984 L
609.711 455.021 L
610.028 452.567 L
610.346 450.593 L
610.664 449.078 L
610.982 448.004 L
611.3 447.361 L
611.618 447.14 L
611.936 447.338 L
612.254 447.956 L
612.571 448.996 L
612.889 450.467 L
613.207 452.382 L
613.525 454.757 L
613.843 457.615 L
614.161 460.985 L
614.479 464.903 L
614.797 469.418 L
615.114 474.588 L
615.432 480.49 L
615.75 487.223 L
616.068 494.919 L
616.386 503.755 L
616.704 513.978 L
617.022 525.945 L
617.339 540.2 L
617.657 557.627 L
617.707 561.061 L
S
GR
GS
[0.5 0 0 0.5 0 0] CT
0 0.447 0.741 RC
1 LJ
N
620.479 561.061 M
620.518 558.743 L
620.836 544.143 L
621.154 532.385 L
621.472 522.73 L
621.79 514.713 L
622.108 508.027 L
622.425 502.458 L
622.743 497.851 L
623.061 494.096 L
623.379 491.109 L
623.697 488.829 L
624.015 487.214 L
624.333 486.231 L
624.651 485.861 L
624.968 486.096 L
625.286 486.935 L
625.604 488.388 L
625.922 490.476 L
626.24 493.23 L
626.558 496.694 L
626.876 500.932 L
627.193 506.026 L
627.511 512.091 L
627.829 519.283 L
628.147 527.819 L
628.465 538.016 L
628.783 550.347 L
629.007 561.061 L
S
GR
GS
[0.5 0 0 0.5 0 0] CT
0 0.447 0.741 RC
1 LJ
N
632.068 561.061 M
632.279 549.896 L
632.597 536.252 L
632.915 524.863 L
633.233 515.199 L
633.551 506.911 L
633.869 499.756 L
634.187 493.561 L
634.505 488.197 L
634.822 483.565 L
635.14 479.592 L
635.458 476.219 L
635.776 473.4 L
636.094 471.1 L
636.412 469.29 L
636.73 467.949 L
637.047 467.062 L
637.365 466.618 L
637.683 466.611 L
638.001 467.038 L
638.319 467.903 L
638.637 469.21 L
638.955 470.972 L
639.273 473.204 L
639.59 475.928 L
639.908 479.17 L
640.226 482.968 L
640.544 487.367 L
640.862 492.426 L
641.18 498.22 L
641.498 504.847 L
641.816 512.435 L
642.133 521.16 L
642.451 531.264 L
642.769 543.096 L
643.087 557.187 L
643.159 561.061 L
S
GR
GS
[0.5 0 0 0.5 0 0] CT
0 0.447 0.741 RC
1 LJ
N
646.629 561.061 M
646.901 550.948 L
647.219 541.277 L
647.537 533.276 L
647.855 526.632 L
648.173 521.129 L
648.491 516.612 L
648.809 512.969 L
649.127 510.119 L
649.444 508.004 L
649.762 506.58 L
650.08 505.821 L
650.398 505.712 L
650.716 506.249 L
651.034 507.439 L
651.352 509.302 L
651.67 511.869 L
651.987 515.187 L
652.305 519.323 L
652.623 524.366 L
652.941 530.442 L
653.259 537.723 L
653.577 546.453 L
653.895 556.99 L
653.995 561.061 L
S
GR
GS
[0.5 0 0 0.5 0 0] CT
0 0.447 0.741 RC
1 LJ
N
657.624 561.061 M
657.709 556.804 L
658.027 543.735 L
658.345 532.716 L
658.663 523.288 L
658.981 515.144 L
659.298 508.067 L
659.616 501.899 L
659.934 496.523 L
660.252 491.85 L
660.57 487.808 L
660.888 484.345 L
661.206 481.415 L
661.524 478.987 L
661.841 477.033 L
662.159 475.532 L
662.477 474.469 L
662.795 473.833 L
663.113 473.618 L
663.431 473.82 L
663.749 474.439 L
664.067 475.482 L
664.384 476.954 L
664.702 478.87 L
665.02 481.247 L
665.338 484.107 L
665.656 487.479 L
665.974 491.401 L
666.292 495.919 L
666.609 501.094 L
666.927 507.001 L
667.245 513.74 L
667.563 521.44 L
667.881 530.279 L
668.199 540.501 L
668.517 552.459 L
668.709 561.061 L
S
GR
GS
[0.5 0 0 0.5 0 0] CT
0 0.447 0.741 RC
1 LJ
N
672.64 561.061 M
672.649 560.72 L
672.967 551.177 L
673.285 543.299 L
673.603 536.776 L
673.921 531.392 L
674.238 526.996 L
674.556 523.478 L
674.874 520.757 L
675.192 518.775 L
675.51 517.493 L
675.828 516.885 L
676.146 516.937 L
676.464 517.649 L
676.781 519.029 L
677.099 521.101 L
677.417 523.9 L
677.735 527.48 L
678.053 531.913 L
678.371 537.302 L
678.689 543.784 L
679.006 551.556 L
679.324 560.896 L
679.329 561.061 L
S
GR
GS
[0.5 0 0 0.5 0 0] CT
0 0.447 0.741 RC
1 LJ
N
683.517 561.061 M
683.775 551.229 L
684.092 540.943 L
684.41 532.134 L
684.728 524.534 L
685.046 517.951 L
685.364 512.245 L
685.682 507.312 L
686 503.069 L
686.318 499.456 L
686.635 496.424 L
686.953 493.936 L
687.271 491.962 L
687.589 490.482 L
687.907 489.481 L
688.225 488.947 L
688.543 488.878 L
688.86 489.272 L
689.178 490.134 L
689.496 491.476 L
689.814 493.312 L
690.132 495.663 L
690.45 498.56 L
690.768 502.04 L
691.086 506.152 L
691.403 510.96 L
691.721 516.544 L
692.039 523.014 L
692.357 530.513 L
692.675 539.237 L
692.993 549.465 L
693.296 561.061 L
S
GR
GS
[0.5 0 0 0.5 0 0] CT
0 0.447 0.741 RC
1 LJ
N
697.233 561.061 M
697.443 553.507 L
697.761 543.971 L
698.079 535.954 L
698.397 529.184 L
698.714 523.471 L
699.032 518.675 L
699.35 514.696 L
699.668 511.458 L
699.986 508.905 L
700.304 506.996 L
700.622 505.704 L
700.94 505.012 L
701.257 504.91 L
701.575 505.401 L
701.893 506.495 L
702.211 508.212 L
702.529 510.583 L
702.847 513.652 L
703.165 517.481 L
703.483 522.152 L
703.8 527.775 L
704.118 534.503 L
704.436 542.548 L
704.754 552.214 L
704.993 561.061 L
S
GR
GS
[0.5 0 0 0.5 0 0] CT
0 0.447 0.741 RC
1 LJ
N
708.573 561.061 M
708.886 546.928 L
709.204 534.88 L
709.522 524.581 L
709.84 515.669 L
710.158 507.893 L
710.476 501.075 L
710.794 495.081 L
711.111 489.809 L
711.429 485.181 L
711.747 481.136 L
712.065 477.625 L
712.383 474.61 L
712.701 472.06 L
713.019 469.95 L
713.337 468.26 L
713.654 466.975 L
713.972 466.085 L
714.29 465.583 L
714.608 465.463 L
714.926 465.724 L
715.244 466.369 L
715.562 467.402 L
715.88 468.831 L
716.197 470.669 L
716.515 472.93 L
716.833 475.635 L
717.151 478.81 L
717.469 482.487 L
717.787 486.706 L
718.105 491.518 L
718.422 496.988 L
718.74 503.196 L
719.058 510.249 L
719.376 518.288 L
719.694 527.503 L
720.012 538.161 L
720.33 550.65 L
720.552 561.061 L
S
GR
GS
[0.5 0 0 0.5 0 0] CT
0 0.447 0.741 RC
1 LJ
N
724.227 561.061 M
724.462 552.743 L
724.78 543.487 L
725.098 535.791 L
725.416 529.372 L
725.734 524.029 L
726.051 519.62 L
726.369 516.04 L
726.687 513.212 L
727.005 511.08 L
727.323 509.601 L
727.641 508.749 L
727.959 508.507 L
728.276 508.867 L
728.594 509.832 L
728.912 511.415 L
729.23 513.637 L
729.548 516.535 L
729.866 520.156 L
730.184 524.568 L
730.502 529.862 L
730.819 536.161 L
731.137 543.635 L
731.455 552.522 L
731.71 561.061 L
S
GR
GS
[0.5 0 0 0.5 0 0] CT
0 0.447 0.741 RC
1 LJ
N
735.75 561.061 M
735.905 554.657 L
736.223 543.691 L
736.541 534.345 L
736.859 526.302 L
737.177 519.341 L
737.495 513.301 L
737.813 508.062 L
738.13 503.532 L
738.448 499.642 L
738.766 496.337 L
739.084 493.573 L
739.402 491.316 L
739.72 489.541 L
740.038 488.228 L
740.356 487.361 L
740.673 486.93 L
740.991 486.931 L
741.309 487.362 L
741.627 488.225 L
741.945 489.526 L
742.263 491.277 L
742.581 493.494 L
742.899 496.198 L
743.216 499.416 L
743.534 503.185 L
743.852 507.549 L
744.17 512.566 L
744.488 518.311 L
744.806 524.88 L
745.124 532.398 L
745.442 541.036 L
745.759 551.03 L
746.032 561.061 L
S
GR
GS
[0.5 0 0 0.5 0 0] CT
0 0.447 0.741 RC
1 LJ
N
750.6 561.061 M
750.845 554.849 L
751.163 548.17 L
751.481 542.654 L
751.799 538.145 L
752.117 534.53 L
752.435 531.728 L
752.753 529.679 L
753.07 528.344 L
753.388 527.698 L
753.706 527.729 L
754.024 528.438 L
754.342 529.839 L
754.66 531.957 L
754.978 534.835 L
755.296 538.535 L
755.613 543.141 L
755.931 548.772 L
756.249 555.592 L
756.46 561.061 L
S
GR
GS
[0.5 0 0 0.5 0 0] CT
0.851 0.325 0.098 RC
1 LJ
N
156.96 561.061 M
157.062 558.482 L
157.38 553.597 L
157.698 551.711 L
158.016 552.769 L
158.334 556.773 L
158.528 561.061 L
S
GR
GS
[0.5 0 0 0.5 0 0] CT
0.851 0.325 0.098 RC
1 LJ
N
187.933 561.061 M
188.213 557.54 L
188.531 556.456 L
188.849 558.249 L
189.04 561.061 L
S
GR
GS
[0.5 0 0 0.5 0 0] CT
0.851 0.325 0.098 RC
1 LJ
N
208.129 561.061 M
208.239 559.124 L
208.557 557.707 L
208.875 560.588 L
208.895 561.061 L
S
GR
GS
[0.5 0 0 0.5 0 0] CT
0.851 0.325 0.098 RC
1 LJ
N
213.41 561.061 M
213.643 547.354 L
213.961 533.998 L
214.279 525.125 L
214.597 520.222 L
214.915 518.961 L
215.233 521.138 L
215.55 526.634 L
215.868 535.382 L
216.186 547.334 L
216.475 561.061 L
S
GR
GS
[0.5 0 0 0.5 0 0] CT
0.851 0.325 0.098 RC
1 LJ
N
223.399 561.061 M
223.497 555.732 L
223.815 542.204 L
224.133 532.316 L
224.451 526.033 L
224.769 523.368 L
225.087 524.403 L
225.404 529.314 L
225.722 538.393 L
226.04 552.084 L
226.191 561.061 L
S
GR
GS
[0.5 0 0 0.5 0 0] CT
0.851 0.325 0.098 RC
1 LJ
N
229.541 561.061 M
229.855 543.365 L
230.172 530.373 L
230.49 521.739 L
230.808 517.037 L
231.126 515.969 L
231.444 518.329 L
231.762 523.973 L
232.08 532.793 L
232.398 544.681 L
232.715 559.486 L
232.744 561.061 L
S
GR
GS
[0.5 0 0 0.5 0 0] CT
0.851 0.325 0.098 RC
1 LJ
N
238.572 561.061 M
238.755 546.094 L
239.073 524.186 L
239.391 506.131 L
239.709 491.664 L
240.026 480.575 L
240.344 472.707 L
240.662 467.965 L
240.98 466.307 L
241.298 467.748 L
241.616 472.362 L
241.934 480.289 L
242.252 491.746 L
242.569 507.039 L
242.887 526.586 L
243.205 550.924 L
243.313 561.061 L
S
GR
GS
[0.5 0 0 0.5 0 0] CT
0.851 0.325 0.098 RC
1 LJ
N
248.617 561.061 M
248.927 537.501 L
249.245 514.784 L
249.563 494.602 L
249.88 477.472 L
250.198 463.627 L
250.516 453.181 L
250.834 446.219 L
251.152 442.86 L
251.47 443.294 L
251.788 447.828 L
252.106 456.938 L
252.423 471.358 L
252.741 492.21 L
253.059 521.207 L
253.377 560.761 L
253.379 561.061 L
S
GR
GS
[0.5 0 0 0.5 0 0] CT
0.851 0.325 0.098 RC
1 LJ
N
254.83 561.061 M
254.966 536.787 L
255.284 492.475 L
255.602 458.41 L
255.92 432.314 L
256.238 412.638 L
256.556 398.41 L
256.874 389.057 L
257.191 384.295 L
257.509 384.067 L
257.827 388.528 L
258.145 398.042 L
258.463 413.165 L
258.781 434.504 L
259.099 461.96 L
259.417 491.696 L
259.734 508.894 L
260.052 493.237 L
260.37 452.1 L
260.688 406.524 L
261.006 365.433 L
261.324 330.244 L
261.642 300.416 L
261.96 275.149 L
262.277 253.745 L
262.595 235.662 L
262.913 220.487 L
263.231 207.905 L
263.549 197.678 L
263.867 189.627 L
264.185 183.617 L
264.503 179.548 L
264.82 177.352 L
265.138 176.986 L
265.456 178.433 L
265.774 181.695 L
266.092 186.8 L
266.41 193.803 L
266.728 202.784 L
267.046 213.861 L
267.363 227.192 L
267.681 242.993 L
267.999 261.553 L
268.317 283.262 L
268.635 308.649 L
268.953 338.431 L
269.271 373.547 L
269.588 415.042 L
269.906 463.136 L
270.224 512.713 L
270.542 542.318 L
270.86 529.886 L
271.178 495.266 L
271.496 461.275 L
271.814 433.818 L
272.131 412.858 L
272.449 397.39 L
272.767 386.503 L
273.085 379.528 L
273.403 376.012 L
273.721 375.675 L
274.039 378.387 L
274.357 384.146 L
274.674 393.09 L
274.992 405.507 L
275.31 421.872 L
275.628 442.907 L
275.946 469.645 L
276.264 503.425 L
276.582 545.227 L
276.691 561.061 L
S
GR
GS
[0.5 0 0 0.5 0 0] CT
0.851 0.325 0.098 RC
1 LJ
N
277.795 561.061 M
277.853 552.608 L
278.171 508.369 L
278.489 472.425 L
278.807 444.295 L
279.125 422.753 L
279.442 406.84 L
279.76 395.945 L
280.078 389.746 L
280.396 388.176 L
280.714 391.413 L
281.032 399.929 L
281.35 414.607 L
281.668 436.998 L
281.985 469.9 L
282.303 518.719 L
282.481 561.061 L
S
GR
GS
[0.5 0 0 0.5 0 0] CT
0.851 0.325 0.098 RC
1 LJ
N
283.491 561.061 M
283.575 534.175 L
283.893 465.63 L
284.211 417.345 L
284.528 381.792 L
284.846 355.253 L
285.164 335.769 L
285.482 322.292 L
285.8 314.322 L
286.118 311.774 L
286.436 314.953 L
286.754 324.649 L
287.071 342.416 L
287.389 371.245 L
287.707 417.401 L
288.025 496.203 L
288.181 561.061 L
S
GR
GS
[0.5 0 0 0.5 0 0] CT
0.851 0.325 0.098 RC
1 LJ
N
288.563 561.061 M
288.661 530.977 L
288.979 408.222 L
289.296 330.163 L
289.614 273.777 L
289.932 229.958 L
290.25 194.487 L
290.568 165.092 L
290.886 140.419 L
291.204 119.597 L
291.522 102.039 L
291.839 87.331 L
292.157 75.178 L
292.475 65.364 L
292.793 57.732 L
293.111 52.173 L
293.429 48.61 L
293.747 47 L
294.065 47.327 L
294.382 49.601 L
294.7 53.861 L
295.018 60.174 L
295.336 68.643 L
295.654 79.413 L
295.972 92.687 L
296.29 108.74 L
296.608 127.955 L
296.925 150.879 L
297.243 178.312 L
297.561 211.492 L
297.879 252.481 L
298.197 305.094 L
298.515 377.715 L
298.833 495.839 L
298.892 561.061 L
S
GR
GS
[0.5 0 0 0.5 0 0] CT
0.851 0.325 0.098 RC
1 LJ
N
299.442 561.061 M
299.468 535.966 L
299.786 426.841 L
300.104 370.317 L
300.422 335.965 L
300.74 314.519 L
301.058 302.004 L
301.376 296.436 L
301.693 296.781 L
302.011 302.554 L
302.329 313.658 L
302.647 330.331 L
302.965 353.187 L
303.283 383.306 L
303.601 422.368 L
303.919 472.376 L
304.236 531.806 L
304.453 561.061 L
S
GR
GS
[0.5 0 0 0.5 0 0] CT
0.851 0.325 0.098 RC
1 LJ
N
304.775 561.061 M
304.872 555.026 L
305.19 506.969 L
305.508 466.01 L
305.826 436.426 L
306.144 416.438 L
306.462 404.3 L
306.779 398.888 L
307.097 399.599 L
307.415 406.25 L
307.733 419.047 L
308.051 438.628 L
308.369 466.203 L
308.687 503.755 L
309.004 553.833 L
309.042 561.061 L
S
GR
GS
[0.5 0 0 0.5 0 0] CT
0.851 0.325 0.098 RC
1 LJ
N
310.248 561.061 M
310.276 556.033 L
310.594 511.075 L
310.912 478.272 L
311.23 455.004 L
311.547 439.296 L
311.865 429.901 L
312.183 426.082 L
312.501 427.469 L
312.819 433.985 L
313.137 445.83 L
313.455 463.537 L
313.773 488.099 L
314.09 521.255 L
314.373 561.061 L
S
GR
GS
[0.5 0 0 0.5 0 0] CT
0.851 0.325 0.098 RC
1 LJ
N
316.61 561.061 M
316.633 558.804 L
316.951 539.844 L
317.269 529.824 L
317.587 527.513 L
317.905 532.473 L
318.223 544.893 L
318.471 561.061 L
S
GR
GS
[0.5 0 0 0.5 0 0] CT
0.851 0.325 0.098 RC
1 LJ
N
320.994 561.061 M
321.084 550.607 L
321.401 523.003 L
321.719 502.876 L
322.037 488.947 L
322.355 480.41 L
322.673 476.787 L
322.991 477.855 L
323.309 483.599 L
323.627 494.212 L
323.944 510.113 L
324.262 531.986 L
324.58 560.796 L
324.582 561.061 L
S
GR
GS
[0.5 0 0 0.5 0 0] CT
0.851 0.325 0.098 RC
1 LJ
N
327.084 561.061 M
327.123 557.71 L
327.441 537.276 L
327.759 522.744 L
328.077 513.177 L
328.395 507.842 L
328.712 506.128 L
329.03 507.465 L
329.348 511.23 L
329.666 516.667 L
329.984 522.821 L
330.302 528.551 L
330.62 532.687 L
330.938 534.347 L
331.255 533.273 L
331.573 529.933 L
331.891 525.301 L
332.209 520.49 L
332.527 516.49 L
332.845 514.059 L
333.163 513.737 L
333.481 515.905 L
333.798 520.836 L
334.116 528.743 L
334.434 539.799 L
334.752 554.134 L
334.877 561.061 L
S
GR
GS
[0.5 0 0 0.5 0 0] CT
0.851 0.325 0.098 RC
1 LJ
N
347.356 561.061 M
347.467 553.999 L
347.785 538.375 L
348.103 527.107 L
348.421 519.933 L
348.738 516.693 L
349.056 517.341 L
349.374 521.953 L
349.692 530.749 L
350.01 544.121 L
350.3 561.061 L
S
GR
GS
[0.5 0 0 0.5 0 0] CT
0.851 0.325 0.098 RC
1 LJ
N
354.624 561.061 M
354.778 559.152 L
355.096 559.746 L
355.179 561.061 L
S
GR
GS
[0.5 0 0 0.5 0 0] CT
0.851 0.325 0.098 RC
1 LJ
N
419.528 561.061 M
419.624 560 L
419.941 558.677 L
420.259 559.581 L
420.407 561.061 L
S
GR
GS
[0.5 0 0 0.5 0 0] CT
0.851 0.325 0.098 RC
1 LJ
N
467.992 561.061 M
468.258 554.162 L
468.576 548.147 L
468.894 544.243 L
469.212 542.367 L
469.529 542.466 L
469.847 544.51 L
470.165 548.485 L
470.483 554.385 L
470.755 561.061 L
S
GR
GS
[0.5 0 0 0.5 0 0] CT
0.851 0.325 0.098 RC
1 LJ
N
493.789 561.061 M
494.005 555.024 L
494.323 548.581 L
494.641 544.424 L
494.959 542.465 L
495.277 542.651 L
495.595 544.955 L
495.913 549.37 L
496.231 555.911 L
496.419 561.061 L
S
GR
GS
[0.5 0 0 0.5 0 0] CT
0.851 0.325 0.098 RC
1 LJ
N
509.098 561.061 M
509.263 559.516 L
509.581 558.238 L
509.899 558.617 L
510.217 560.636 L
510.254 561.061 L
S
GR
GS
[0.5 0 0 0.5 0 0] CT
0.851 0.325 0.098 RC
1 LJ
N
525.043 561.061 M
525.157 558.839 L
525.475 552.53 L
525.793 546.401 L
526.11 540.709 L
526.428 535.682 L
526.746 531.517 L
527.064 528.391 L
527.382 526.46 L
527.7 525.875 L
528.018 526.784 L
528.336 529.347 L
528.653 533.741 L
528.971 540.18 L
529.289 548.927 L
529.607 560.323 L
529.623 561.061 L
S
GR
GS
[0.5 0 0 0.5 0 0] CT
0.851 0.325 0.098 RC
1 LJ
N
535.062 561.061 M
535.329 553.911 L
535.647 548.408 L
535.964 545.712 L
536.282 545.7 L
536.6 548.325 L
536.918 553.608 L
537.213 561.061 L
S
GR
GS
[0.5 0 0 0.5 0 0] CT
0.851 0.325 0.098 RC
1 LJ
N
561.416 561.061 M
561.712 555.479 L
562.03 552.349 L
562.348 551.945 L
562.666 554.198 L
562.984 559.103 L
563.065 561.061 L
S
GR
GS
[0.5 0 0 0.5 0 0] CT
0.851 0.325 0.098 RC
1 LJ
N
581.798 561.061 M
582.056 536.899 L
582.374 510.105 L
582.692 486.367 L
583.009 465.552 L
583.327 447.473 L
583.645 431.949 L
583.963 418.822 L
584.281 407.962 L
584.599 399.269 L
584.917 392.672 L
585.234 388.126 L
585.552 385.609 L
585.87 385.126 L
586.188 386.707 L
586.506 390.414 L
586.824 396.338 L
587.142 404.614 L
587.46 415.429 L
587.777 429.042 L
588.095 445.809 L
588.413 466.236 L
588.731 491.061 L
589.049 521.411 L
589.367 559.127 L
589.38 561.061 L
S
GR
GS
[0.5 0 0 0.5 0 0] CT
0.851 0.325 0.098 RC
1 LJ
N
603.319 561.061 M
603.353 560.152 L
603.671 554.291 L
603.989 550.623 L
604.307 548.738 L
604.625 548.234 L
604.943 548.711 L
605.26 549.791 L
605.578 551.146 L
605.896 552.542 L
606.214 553.879 L
606.532 555.214 L
606.85 556.761 L
607.168 558.859 L
607.395 561.061 L
S
GR
GS
[0.5 0 0 0.5 0 0] CT
0.851 0.325 0.098 RC
1 LJ
N
613.144 561.061 M
613.207 558.305 L
613.525 548.276 L
613.843 541.652 L
614.161 538.125 L
614.479 537.422 L
614.797 539.27 L
615.114 543.341 L
615.432 549.195 L
615.75 556.202 L
615.962 561.061 L
S
GR
GS
[0.5 0 0 0.5 0 0] CT
0.851 0.325 0.098 RC
1 LJ
N
617.989 561.061 M
618.293 553.856 L
618.611 546.739 L
618.929 540.836 L
619.247 536.693 L
619.565 534.679 L
619.882 535.053 L
620.2 538.02 L
620.518 543.773 L
620.836 552.53 L
621.061 561.061 L
S
GR
GS
[0.5 0 0 0.5 0 0] CT
0.851 0.325 0.098 RC
1 LJ
N
639.399 561.061 M
639.59 552.77 L
639.908 541.482 L
640.226 532.75 L
640.544 526.616 L
640.862 523.12 L
641.18 522.32 L
641.498 524.313 L
641.816 529.25 L
642.133 537.357 L
642.451 548.968 L
642.697 561.061 L
S
GR
GS
[0.5 0 0 0.5 0 0] CT
0.851 0.325 0.098 RC
1 LJ
N
663.644 561.061 M
663.749 558.193 L
664.067 551.678 L
664.384 547.173 L
664.702 544.557 L
665.02 543.745 L
665.338 544.677 L
665.656 547.324 L
665.974 551.682 L
666.292 557.778 L
666.424 561.061 L
S
GR
GS
[0.5 0 0 0.5 0 0] CT
0.851 0.325 0.098 RC
1 LJ
N
708.395 561.061 M
708.568 557.008 L
708.886 550.406 L
709.204 544.801 L
709.522 540.331 L
709.84 537.124 L
710.158 535.302 L
710.476 534.983 L
710.794 536.288 L
711.111 539.342 L
711.429 544.285 L
711.747 551.271 L
712.065 560.473 L
712.081 561.061 L
S
GR
GS
[0.5 0 0 0.5 0 0] CT
0.851 0.325 0.098 RC
1 LJ
N
717.758 561.061 M
717.787 560.333 L
718.105 554.204 L
718.422 549.924 L
718.74 547.315 L
719.058 546.215 L
719.376 546.474 L
719.694 547.952 L
720.012 550.52 L
720.33 554.057 L
720.648 558.452 L
720.808 561.061 L
S
GR
GS
[0.5 0 0 0.5 0 0] CT
0.851 0.325 0.098 RC
1 LJ
N
750.467 561.061 M
750.527 558.337 L
750.845 547.471 L
751.163 539.66 L
751.481 534.691 L
751.799 532.434 L
752.117 532.825 L
752.435 535.868 L
752.753 541.63 L
753.07 550.253 L
753.364 561.061 L
S
GR
GS
[0.5 0 0 0.5 0 0] CT
0.929 0.694 0.125 RC
1 LJ
3 LW
N
161.613 561.061 M
161.83 560.286 L
162.148 559.329 L
162.466 558.55 L
162.784 557.951 L
163.102 557.531 L
163.42 557.29 L
163.737 557.229 L
164.055 557.349 L
164.373 557.648 L
164.691 558.127 L
165.009 558.787 L
165.327 559.627 L
165.645 560.646 L
165.755 561.061 L
S
GR
GS
[0.5 0 0 0.5 0 0] CT
0.929 0.694 0.125 RC
1 LJ
3 LW
N
183.233 561.061 M
183.445 559.53 L
183.763 557.42 L
184.081 555.501 L
184.399 553.775 L
184.717 552.246 L
185.035 550.916 L
185.353 549.786 L
185.671 548.859 L
185.988 548.136 L
186.306 547.619 L
186.624 547.31 L
186.942 547.21 L
187.26 547.32 L
187.578 547.642 L
187.896 548.178 L
188.213 548.928 L
188.531 549.894 L
188.849 551.077 L
189.167 552.479 L
189.485 554.1 L
189.803 555.941 L
190.121 558.002 L
190.439 560.283 L
190.538 561.061 L
S
GR
GS
[0.5 0 0 0.5 0 0] CT
0.929 0.694 0.125 RC
1 LJ
3 LW
N
202.905 561.061 M
203.153 556.969 L
203.471 551.908 L
203.789 547.035 L
204.107 542.359 L
204.425 537.889 L
204.743 533.633 L
205.061 529.593 L
205.379 525.774 L
205.696 522.178 L
206.014 518.805 L
206.332 515.657 L
206.65 512.734 L
206.968 510.036 L
207.286 507.564 L
207.604 505.316 L
207.921 503.293 L
208.239 501.495 L
208.557 499.922 L
208.875 498.574 L
209.193 497.453 L
209.511 496.558 L
209.829 495.891 L
210.147 495.454 L
210.464 495.247 L
210.782 495.274 L
211.1 495.538 L
211.418 496.04 L
211.736 496.785 L
212.054 497.776 L
212.372 499.019 L
212.69 500.519 L
213.007 502.281 L
213.325 504.311 L
213.643 506.617 L
213.961 509.207 L
214.279 512.089 L
214.597 515.274 L
214.915 518.771 L
215.233 522.591 L
215.55 526.748 L
215.868 531.254 L
216.186 536.123 L
216.504 541.371 L
216.822 547.013 L
217.14 553.065 L
217.458 559.542 L
217.527 561.061 L
S
GR
GS
[0.5 0 0 0.5 0 0] CT
0.929 0.694 0.125 RC
1 LJ
3 LW
N
226.97 561.061 M
226.994 560.438 L
227.312 552.416 L
227.629 544.859 L
227.947 537.755 L
228.265 531.088 L
228.583 524.846 L
228.901 519.013 L
229.219 513.575 L
229.537 508.52 L
229.855 503.835 L
230.172 499.509 L
230.49 495.532 L
230.808 491.895 L
231.126 488.59 L
231.444 485.611 L
231.762 482.951 L
232.08 480.606 L
232.398 478.572 L
232.715 476.846 L
233.033 475.426 L
233.351 474.312 L
233.669 473.503 L
233.987 472.999 L
234.305 472.804 L
234.623 472.92 L
234.941 473.35 L
235.258 474.099 L
235.576 475.172 L
235.894 476.577 L
236.212 478.322 L
236.53 480.414 L
236.848 482.863 L
237.166 485.681 L
237.483 488.879 L
237.801 492.469 L
238.119 496.465 L
238.437 500.879 L
238.755 505.725 L
239.073 511.013 L
239.391 516.753 L
239.709 522.948 L
240.026 529.595 L
240.344 536.678 L
240.662 544.163 L
240.98 551.988 L
241.298 560.053 L
241.337 561.061 L
S
GR
GS
[0.5 0 0 0.5 0 0] CT
0.929 0.694 0.125 RC
1 LJ
3 LW
N
245.313 561.061 M
245.43 556.81 L
245.748 544.703 L
246.066 532.335 L
246.384 519.963 L
246.702 507.764 L
247.02 495.856 L
247.337 484.311 L
247.655 473.171 L
247.973 462.455 L
248.291 452.169 L
248.609 442.309 L
248.927 432.866 L
249.245 423.826 L
249.563 415.175 L
249.88 406.898 L
250.198 398.977 L
250.516 391.398 L
250.834 384.146 L
251.152 377.206 L
251.47 370.565 L
251.788 364.21 L
252.106 358.13 L
252.423 352.314 L
252.741 346.75 L
253.059 341.431 L
253.377 336.347 L
253.695 331.489 L
254.013 326.851 L
254.331 322.426 L
254.649 318.206 L
254.966 314.187 L
255.284 310.362 L
255.602 306.727 L
255.92 303.276 L
256.238 300.006 L
256.556 296.912 L
256.874 293.992 L
257.191 291.24 L
257.509 288.655 L
257.827 286.233 L
258.145 283.971 L
258.463 281.868 L
258.781 279.921 L
259.099 278.127 L
259.417 276.486 L
259.734 274.995 L
260.052 273.653 L
260.37 272.457 L
260.688 271.408 L
261.006 270.504 L
261.324 269.743 L
261.642 269.124 L
261.96 268.647 L
262.277 268.31 L
262.595 268.114 L
262.913 268.055 L
263.231 268.135 L
263.549 268.352 L
263.867 268.704 L
264.185 269.192 L
264.503 269.812 L
264.82 270.565 L
265.138 271.449 L
265.456 272.461 L
265.774 273.6 L
266.092 274.863 L
266.41 276.246 L
266.728 277.748 L
267.046 279.362 L
267.363 281.084 L
267.681 282.908 L
267.999 284.828 L
268.317 286.835 L
268.635 288.921 L
268.953 291.073 L
269.271 293.28 L
269.588 295.528 L
269.906 297.799 L
270.224 300.077 L
270.542 302.339 L
270.86 304.563 L
271.178 306.724 L
271.496 308.794 L
271.814 310.743 L
272.131 312.541 L
272.449 314.155 L
272.767 315.552 L
273.085 316.699 L
273.403 317.567 L
273.721 318.125 L
274.039 318.35 L
274.357 318.221 L
274.674 317.723 L
274.992 316.847 L
275.31 315.593 L
275.628 313.964 L
275.946 311.972 L
276.264 309.636 L
276.582 306.976 L
276.9 304.02 L
277.217 300.798 L
277.535 297.34 L
277.853 293.679 L
278.171 289.847 L
278.489 285.876 L
278.807 281.794 L
279.125 277.631 L
279.442 273.411 L
279.76 269.159 L
280.078 264.896 L
280.396 260.64 L
280.714 256.408 L
281.032 252.214 L
281.35 248.073 L
281.668 243.993 L
281.985 239.985 L
282.303 236.057 L
282.621 232.215 L
282.939 228.465 L
283.257 224.811 L
283.575 221.258 L
283.893 217.808 L
284.211 214.464 L
284.528 211.228 L
284.846 208.101 L
285.164 205.085 L
285.482 202.179 L
285.8 199.386 L
286.118 196.704 L
286.436 194.135 L
286.754 191.677 L
287.071 189.332 L
287.389 187.098 L
287.707 184.975 L
288.025 182.963 L
288.343 181.062 L
288.661 179.27 L
288.979 177.588 L
289.296 176.015 L
289.614 174.551 L
289.932 173.194 L
290.25 171.945 L
290.568 170.803 L
290.886 169.768 L
291.204 168.839 L
291.522 168.016 L
291.839 167.299 L
292.157 166.687 L
292.475 166.181 L
292.793 165.78 L
293.111 165.483 L
293.429 165.292 L
293.747 165.205 L
294.065 165.224 L
294.382 165.348 L
294.7 165.577 L
295.018 165.911 L
295.336 166.352 L
295.654 166.898 L
295.972 167.552 L
296.29 168.312 L
296.608 169.18 L
296.925 170.157 L
297.243 171.243 L
297.561 172.439 L
297.879 173.746 L
298.197 175.165 L
298.515 176.696 L
298.833 178.342 L
299.15 180.104 L
299.468 181.983 L
299.786 183.98 L
300.104 186.097 L
300.422 188.337 L
300.74 190.7 L
301.058 193.189 L
301.376 195.807 L
301.693 198.555 L
302.011 201.436 L
302.329 204.454 L
302.647 207.61 L
302.965 210.908 L
303.283 214.352 L
303.601 217.946 L
303.919 221.692 L
304.236 225.596 L
304.554 229.663 L
304.872 233.896 L
305.19 238.302 L
305.508 242.886 L
305.826 247.655 L
306.144 252.615 L
306.462 257.773 L
306.779 263.138 L
307.097 268.719 L
307.415 274.524 L
307.733 280.564 L
308.051 286.851 L
308.369 293.396 L
308.687 300.213 L
309.004 307.317 L
309.322 314.724 L
309.64 322.452 L
309.958 330.521 L
310.276 338.953 L
310.594 347.773 L
310.912 357.007 L
311.23 366.684 L
311.547 376.839 L
311.865 387.506 L
312.183 398.726 L
312.501 410.541 L
312.819 422.996 L
313.137 436.139 L
313.455 450.012 L
313.773 464.654 L
314.09 480.084 L
314.408 496.286 L
314.726 513.181 L
315.044 530.577 L
315.362 548.092 L
315.605 561.061 L
S
GR
GS
[0.5 0 0 0.5 0 0] CT
0.929 0.694 0.125 RC
1 LJ
3 LW
N
318.439 561.061 M
318.541 556.974 L
318.858 544.242 L
319.176 532.006 L
319.494 520.47 L
319.812 509.718 L
320.13 499.77 L
320.448 490.61 L
320.766 482.204 L
321.084 474.508 L
321.401 467.478 L
321.719 461.071 L
322.037 455.247 L
322.355 449.967 L
322.673 445.198 L
322.991 440.908 L
323.309 437.071 L
323.627 433.661 L
323.944 430.656 L
324.262 428.038 L
324.58 425.788 L
324.898 423.892 L
325.216 422.336 L
325.534 421.109 L
325.852 420.199 L
326.17 419.599 L
326.487 419.3 L
326.805 419.295 L
327.123 419.579 L
327.441 420.148 L
327.759 420.998 L
328.077 422.125 L
328.395 423.529 L
328.712 425.206 L
329.03 427.158 L
329.348 429.385 L
329.666 431.886 L
329.984 434.664 L
330.302 437.721 L
330.62 441.06 L
330.938 444.683 L
331.255 448.595 L
331.573 452.8 L
331.891 457.303 L
332.209 462.108 L
332.527 467.221 L
332.845 472.646 L
333.163 478.388 L
333.481 484.451 L
333.798 490.837 L
334.116 497.546 L
334.434 504.577 L
334.752 511.921 L
335.07 519.566 L
335.388 527.49 L
335.706 535.66 L
336.024 544.03 L
336.341 552.531 L
336.659 561.061 L
S
GR
GS
[0.5 0 0 0.5 0 0] CT
0.929 0.694 0.125 RC
1 LJ
3 LW
N
342.591 561.061 M
342.699 558.786 L
343.017 552.235 L
343.335 545.902 L
343.652 539.829 L
343.97 534.04 L
344.288 528.554 L
344.606 523.378 L
344.924 518.517 L
345.242 513.972 L
345.56 509.741 L
345.878 505.819 L
346.195 502.201 L
346.513 498.882 L
346.831 495.856 L
347.149 493.116 L
347.467 490.657 L
347.785 488.473 L
348.103 486.558 L
348.421 484.907 L
348.738 483.516 L
349.056 482.38 L
349.374 481.495 L
349.692 480.858 L
350.01 480.466 L
350.328 480.315 L
350.646 480.405 L
350.963 480.732 L
351.281 481.297 L
351.599 482.097 L
351.917 483.132 L
352.235 484.402 L
352.553 485.908 L
352.871 487.649 L
353.189 489.627 L
353.506 491.843 L
353.824 494.298 L
354.142 496.996 L
354.46 499.937 L
354.778 503.124 L
355.096 506.559 L
355.414 510.247 L
355.732 514.188 L
356.049 518.387 L
356.367 522.845 L
356.685 527.564 L
357.003 532.547 L
357.321 537.793 L
357.639 543.303 L
357.957 549.072 L
358.275 555.097 L
358.577 561.061 L
S
GR
GS
[0.5 0 0 0.5 0 0] CT
0.929 0.694 0.125 RC
1 LJ
3 LW
N
371.168 561.061 M
371.307 559.982 L
371.625 557.781 L
371.943 555.836 L
372.261 554.146 L
372.579 552.706 L
372.897 551.514 L
373.214 550.567 L
373.532 549.862 L
373.85 549.397 L
374.168 549.17 L
374.486 549.177 L
374.804 549.418 L
375.122 549.891 L
375.44 550.593 L
375.757 551.523 L
376.075 552.681 L
376.393 554.064 L
376.711 555.672 L
377.029 557.503 L
377.347 559.556 L
377.557 561.061 L
S
GR
GS
[0.5 0 0 0.5 0 0] CT
0.929 0.694 0.125 RC
1 LJ
3 LW
N
530.231 561.061 M
530.243 561.027 L
530.561 560.24 L
530.879 559.559 L
531.196 558.988 L
531.514 558.529 L
531.832 558.184 L
532.15 557.956 L
532.468 557.848 L
532.786 557.861 L
533.104 557.997 L
533.422 558.259 L
533.739 558.649 L
534.057 559.168 L
534.375 559.82 L
534.693 560.605 L
534.851 561.061 L
S
GR
GS
[0.5 0 0 0.5 0 0] CT
0.929 0.694 0.125 RC
1 LJ
3 LW
N
574.699 561.061 M
574.745 560.501 L
575.063 556.684 L
575.38 552.934 L
575.698 549.259 L
576.016 545.668 L
576.334 542.167 L
576.652 538.763 L
576.97 535.459 L
577.288 532.261 L
577.606 529.172 L
577.923 526.195 L
578.241 523.331 L
578.559 520.585 L
578.877 517.956 L
579.195 515.446 L
579.513 513.057 L
579.831 510.789 L
580.149 508.642 L
580.466 506.618 L
580.784 504.717 L
581.102 502.938 L
581.42 501.281 L
581.738 499.748 L
582.056 498.337 L
582.374 497.049 L
582.692 495.884 L
583.009 494.841 L
583.327 493.92 L
583.645 493.122 L
583.963 492.445 L
584.281 491.889 L
584.599 491.456 L
584.917 491.143 L
585.234 490.951 L
585.552 490.881 L
585.87 490.931 L
586.188 491.101 L
586.506 491.392 L
586.824 491.802 L
587.142 492.333 L
587.46 492.983 L
587.777 493.752 L
588.095 494.641 L
588.413 495.648 L
588.731 496.773 L
589.049 498.016 L
589.367 499.375 L
589.685 500.852 L
590.003 502.443 L
590.32 504.149 L
590.638 505.968 L
590.956 507.899 L
591.274 509.94 L
591.592 512.089 L
591.91 514.344 L
592.228 516.702 L
592.546 519.159 L
592.863 521.712 L
593.181 524.356 L
593.499 527.087 L
593.817 529.899 L
594.135 532.784 L
594.453 535.736 L
594.771 538.746 L
595.089 541.804 L
595.406 544.899 L
595.724 548.019 L
596.042 551.15 L
596.36 554.278 L
596.678 557.386 L
596.996 560.457 L
597.059 561.061 L
S
GR
GS
[0.5 0 0 0.5 0 0] CT
0.929 0.694 0.125 RC
1 LJ
3 LW
N
608.002 561.061 M
608.121 560.437 L
608.439 558.84 L
608.757 557.326 L
609.075 555.9 L
609.393 554.569 L
609.711 553.34 L
610.028 552.217 L
610.346 551.204 L
610.664 550.305 L
610.982 549.525 L
611.3 548.865 L
611.618 548.33 L
611.936 547.92 L
612.254 547.639 L
612.571 547.488 L
612.889 547.47 L
613.207 547.585 L
613.525 547.836 L
613.843 548.224 L
614.161 548.75 L
614.479 549.417 L
614.797 550.224 L
615.114 551.173 L
615.432 552.266 L
615.75 553.505 L
616.068 554.889 L
616.386 556.42 L
616.704 558.1 L
617.022 559.93 L
617.203 561.061 L
S
GR
GS
[0.5 0 0 0.5 0 0] CT
0.494 0.184 0.557 RC
1 LJ
2 LW
N
204.395 561.061 M
204.425 561.009 L
204.743 560.451 L
205.061 559.89 L
205.379 559.326 L
205.696 558.759 L
206.014 558.19 L
206.332 557.618 L
206.65 557.043 L
206.968 556.466 L
207.286 555.885 L
207.604 555.302 L
207.921 554.715 L
208.239 554.126 L
208.557 553.534 L
208.875 552.938 L
209.193 552.34 L
209.511 551.739 L
209.829 551.135 L
210.147 550.528 L
210.464 549.917 L
210.782 549.304 L
211.1 548.687 L
211.418 548.068 L
211.736 547.445 L
212.054 546.819 L
212.372 546.19 L
212.69 545.557 L
213.007 544.921 L
213.325 544.282 L
213.643 543.64 L
213.961 542.995 L
214.279 542.346 L
214.597 541.693 L
214.915 541.038 L
215.233 540.378 L
215.55 539.716 L
215.868 539.05 L
216.186 538.38 L
216.504 537.707 L
216.822 537.03 L
217.14 536.35 L
217.458 535.666 L
217.775 534.979 L
218.093 534.287 L
218.411 533.592 L
218.729 532.894 L
219.047 532.191 L
219.365 531.485 L
219.683 530.775 L
220.001 530.061 L
220.318 529.343 L
220.636 528.621 L
220.954 527.896 L
221.272 527.166 L
221.59 526.432 L
221.908 525.694 L
222.226 524.952 L
222.544 524.206 L
222.861 523.456 L
223.179 522.702 L
223.497 521.943 L
223.815 521.18 L
224.133 520.413 L
224.451 519.641 L
224.769 518.865 L
225.087 518.085 L
225.404 517.3 L
225.722 516.51 L
226.04 515.716 L
226.358 514.918 L
226.676 514.115 L
226.994 513.307 L
227.312 512.494 L
227.629 511.677 L
227.947 510.854 L
228.265 510.027 L
228.583 509.195 L
228.901 508.358 L
229.219 507.516 L
229.537 506.669 L
229.855 505.817 L
230.172 504.96 L
230.49 504.097 L
230.808 503.23 L
231.126 502.357 L
231.444 501.478 L
231.762 500.594 L
232.08 499.705 L
232.398 498.81 L
232.715 497.91 L
233.033 497.003 L
233.351 496.092 L
233.669 495.174 L
233.987 494.251 L
234.305 493.321 L
234.623 492.386 L
234.941 491.445 L
235.258 490.497 L
235.576 489.544 L
235.894 488.584 L
236.212 487.618 L
236.53 486.646 L
236.848 485.667 L
237.166 484.682 L
237.483 483.69 L
237.801 482.691 L
238.119 481.686 L
238.437 480.674 L
238.755 479.655 L
239.073 478.629 L
239.391 477.596 L
239.709 476.556 L
240.026 475.509 L
240.344 474.454 L
240.662 473.392 L
240.98 472.323 L
241.298 471.246 L
241.616 470.161 L
241.934 469.069 L
242.252 467.968 L
242.569 466.86 L
242.887 465.744 L
243.205 464.619 L
243.523 463.486 L
243.841 462.345 L
244.159 461.196 L
244.477 460.037 L
244.795 458.871 L
245.112 457.695 L
245.43 456.51 L
245.748 455.316 L
246.066 454.114 L
246.384 452.901 L
246.702 451.68 L
247.02 450.448 L
247.337 449.208 L
247.655 447.957 L
247.973 446.696 L
248.291 445.425 L
248.609 444.144 L
248.927 442.853 L
249.245 441.551 L
249.563 440.238 L
249.88 438.914 L
250.198 437.579 L
250.516 436.233 L
250.834 434.876 L
251.152 433.507 L
251.47 432.127 L
251.788 430.734 L
252.106 429.33 L
252.423 427.913 L
252.741 426.483 L
253.059 425.041 L
253.377 423.587 L
253.695 422.119 L
254.013 420.637 L
254.331 419.143 L
254.649 417.634 L
254.966 416.111 L
255.284 414.575 L
255.602 413.024 L
255.92 411.458 L
256.238 409.877 L
256.556 408.281 L
256.874 406.669 L
257.191 405.042 L
257.509 403.399 L
257.827 401.739 L
258.145 400.063 L
258.463 398.37 L
258.781 396.659 L
259.099 394.932 L
259.417 393.186 L
259.734 391.422 L
260.052 389.639 L
260.37 387.838 L
260.688 386.017 L
261.006 384.177 L
261.324 382.316 L
261.642 380.436 L
261.96 378.534 L
262.277 376.611 L
262.595 374.667 L
262.913 372.7 L
263.231 370.711 L
263.549 368.699 L
263.867 366.663 L
264.185 364.603 L
264.503 362.519 L
264.82 360.41 L
265.138 358.275 L
265.456 356.114 L
265.774 353.927 L
266.092 351.712 L
266.41 349.469 L
266.728 347.198 L
267.046 344.898 L
267.363 342.568 L
267.681 340.208 L
267.999 337.817 L
268.317 335.393 L
268.635 332.938 L
268.953 330.449 L
269.271 327.926 L
269.588 325.368 L
269.906 322.775 L
270.224 320.145 L
270.542 317.478 L
270.86 314.774 L
271.178 312.03 L
271.496 309.246 L
271.814 306.422 L
272.131 303.556 L
272.449 300.647 L
272.767 297.695 L
273.085 294.699 L
273.403 291.657 L
273.721 288.57 L
274.039 285.435 L
274.357 282.251 L
274.674 279.019 L
274.992 275.737 L
275.31 272.405 L
275.628 269.021 L
275.946 265.584 L
276.264 262.095 L
276.582 258.553 L
276.9 254.957 L
277.217 251.307 L
277.535 247.603 L
277.853 243.845 L
278.171 240.033 L
278.489 236.168 L
278.807 232.251 L
279.125 228.283 L
279.442 224.267 L
279.76 220.204 L
280.078 216.098 L
280.396 211.953 L
280.714 207.773 L
281.032 203.563 L
281.35 199.33 L
281.668 195.083 L
281.985 190.831 L
282.303 186.584 L
282.621 182.356 L
282.939 178.161 L
283.257 174.015 L
283.575 169.937 L
283.893 165.949 L
284.211 162.074 L
284.528 158.337 L
284.846 154.766 L
285.164 151.391 L
285.482 148.242 L
285.8 145.35 L
286.118 142.748 L
286.436 140.465 L
286.754 138.532 L
287.071 136.973 L
287.389 135.81 L
287.707 135.062 L
288.025 134.737 L
288.343 134.842 L
288.661 135.375 L
288.979 136.327 L
289.296 137.685 L
289.614 139.428 L
289.932 141.533 L
290.25 143.971 L
290.568 146.714 L
290.886 149.73 L
291.204 152.986 L
291.522 156.453 L
291.839 160.099 L
292.157 163.896 L
292.475 167.818 L
292.793 171.841 L
293.111 175.941 L
293.429 180.1 L
293.747 184.299 L
294.065 188.524 L
294.382 192.759 L
294.7 196.995 L
295.018 201.22 L
295.336 205.426 L
295.654 209.606 L
295.972 213.753 L
296.29 217.863 L
296.608 221.931 L
296.925 225.955 L
297.243 229.93 L
297.561 233.856 L
297.879 237.731 L
298.197 241.552 L
298.515 245.321 L
298.833 249.035 L
299.15 252.696 L
299.468 256.302 L
299.786 259.855 L
300.104 263.353 L
300.422 266.799 L
300.74 270.193 L
301.058 273.534 L
301.376 276.825 L
301.693 280.065 L
302.011 283.256 L
302.329 286.399 L
302.647 289.493 L
302.965 292.542 L
303.283 295.544 L
303.601 298.501 L
303.919 301.415 L
304.236 304.286 L
304.554 307.114 L
304.872 309.902 L
305.19 312.649 L
305.508 315.357 L
305.826 318.027 L
306.144 320.658 L
306.462 323.253 L
306.779 325.813 L
307.097 328.337 L
307.415 330.826 L
307.733 333.282 L
308.051 335.705 L
308.369 338.096 L
308.687 340.456 L
309.004 342.785 L
309.322 345.083 L
309.64 347.353 L
309.958 349.594 L
310.276 351.806 L
310.594 353.991 L
310.912 356.149 L
311.23 358.281 L
311.547 360.387 L
311.865 362.467 L
312.183 364.523 L
312.501 366.555 L
312.819 368.563 L
313.137 370.547 L
313.455 372.509 L
313.773 374.449 L
314.09 376.366 L
314.408 378.262 L
314.726 380.138 L
315.044 381.992 L
315.362 383.826 L
315.68 385.641 L
315.998 387.436 L
316.316 389.212 L
316.633 390.969 L
316.951 392.708 L
317.269 394.429 L
317.587 396.132 L
317.905 397.818 L
318.223 399.487 L
318.541 401.139 L
318.858 402.774 L
319.176 404.394 L
319.494 405.997 L
319.812 407.585 L
320.13 409.157 L
320.448 410.715 L
320.766 412.257 L
321.084 413.785 L
321.401 415.299 L
321.719 416.799 L
322.037 418.285 L
322.355 419.757 L
322.673 421.215 L
322.991 422.661 L
323.309 424.094 L
323.627 425.513 L
323.944 426.921 L
324.262 428.315 L
324.58 429.698 L
324.898 431.069 L
325.216 432.428 L
325.534 433.775 L
325.852 435.11 L
326.17 436.435 L
326.487 437.748 L
326.805 439.051 L
327.123 440.342 L
327.441 441.623 L
327.759 442.893 L
328.077 444.154 L
328.395 445.404 L
328.712 446.643 L
329.03 447.873 L
329.348 449.094 L
329.666 450.304 L
329.984 451.505 L
330.302 452.697 L
330.62 453.879 L
330.938 455.052 L
331.255 456.217 L
331.573 457.372 L
331.891 458.519 L
332.209 459.657 L
332.527 460.786 L
332.845 461.907 L
333.163 463.02 L
333.481 464.125 L
333.798 465.221 L
334.116 466.309 L
334.434 467.39 L
334.752 468.463 L
335.07 469.528 L
335.388 470.585 L
335.706 471.635 L
336.024 472.677 L
336.341 473.712 L
336.659 474.74 L
336.977 475.76 L
337.295 476.774 L
337.613 477.78 L
337.931 478.78 L
338.249 479.773 L
338.566 480.759 L
338.884 481.738 L
339.202 482.711 L
339.52 483.677 L
339.838 484.636 L
340.156 485.59 L
340.474 486.536 L
340.792 487.477 L
341.109 488.412 L
341.427 489.34 L
341.745 490.262 L
342.063 491.178 L
342.381 492.089 L
342.699 492.993 L
343.017 493.892 L
343.335 494.785 L
343.652 495.672 L
343.97 496.554 L
344.288 497.43 L
344.606 498.301 L
344.924 499.166 L
345.242 500.025 L
345.56 500.88 L
345.878 501.729 L
346.195 502.573 L
346.513 503.412 L
346.831 504.245 L
347.149 505.074 L
347.467 505.897 L
347.785 506.715 L
348.103 507.529 L
348.421 508.337 L
348.738 509.141 L
349.056 509.94 L
349.374 510.734 L
349.692 511.524 L
350.01 512.309 L
350.328 513.089 L
350.646 513.864 L
350.963 514.635 L
351.281 515.402 L
351.599 516.164 L
351.917 516.922 L
352.235 517.675 L
352.553 518.424 L
352.871 519.168 L
353.189 519.909 L
353.506 520.645 L
353.824 521.377 L
354.142 522.105 L
354.46 522.828 L
354.778 523.548 L
355.096 524.263 L
355.414 524.975 L
355.732 525.683 L
356.049 526.386 L
356.367 527.086 L
356.685 527.782 L
357.003 528.474 L
357.321 529.162 L
357.639 529.846 L
357.957 530.526 L
358.275 531.203 L
358.592 531.876 L
358.91 532.546 L
359.228 533.212 L
359.546 533.874 L
359.864 534.532 L
360.182 535.188 L
360.5 535.839 L
360.817 536.487 L
361.135 537.132 L
361.453 537.773 L
361.771 538.41 L
362.089 539.045 L
362.407 539.676 L
362.725 540.303 L
363.043 540.927 L
363.36 541.548 L
363.678 542.166 L
363.996 542.78 L
364.314 543.392 L
364.632 544 L
364.95 544.604 L
365.268 545.206 L
365.586 545.805 L
365.903 546.4 L
366.221 546.992 L
366.539 547.582 L
366.857 548.168 L
367.175 548.751 L
367.493 549.331 L
367.811 549.909 L
368.129 550.483 L
368.446 551.054 L
368.764 551.622 L
369.082 552.188 L
369.4 552.751 L
369.718 553.31 L
370.036 553.867 L
370.354 554.421 L
370.671 554.973 L
370.989 555.521 L
371.307 556.067 L
371.625 556.61 L
371.943 557.15 L
372.261 557.688 L
372.579 558.222 L
372.897 558.755 L
373.214 559.284 L
373.532 559.811 L
373.85 560.335 L
374.168 560.857 L
374.293 561.061 L
S
GR
GS
[0.5 0 0 0.5 0 0] CT
1 GC
N
575 167 M
575 67 L
740 67 L
740 167 L
cp
f
GR
GS
[0.5 0 0 0.5 315.16617 40.73192] CT
/Helvetica 18 F
GS
[1 0 0 1 0 0] CT
0 7.5 moveto 
1 -1 scale
(Correlogram) t 
GR
GR
GS
[0.5 0 0 0.5 0 0] CT
0 0.447 0.741 RC
1 LJ
N
580.982 81.464 M
625.846 81.464 L
S
GR
GS
[0.5 0 0 0.5 315.16617 52.57731] CT
/Helvetica 18 F
GS
[1 0 0 1 0 0] CT
0 7.5 moveto 
1 -1 scale
(Periodogram) t 
GR
GR
GS
[0.5 0 0 0.5 0 0] CT
0.851 0.325 0.098 RC
1 LJ
N
580.982 105.155 M
625.846 105.155 L
S
GR
GS
[0.5 0 0 0.5 315.16617 64.42269] CT
/Helvetica 18 F
GS
[1 0 0 1 0 0] CT
0 7.5 moveto 
1 -1 scale
(Welch) t 
GR
GR
GS
[0.5 0 0 0.5 0 0] CT
0.929 0.694 0.125 RC
1 LJ
3 LW
N
580.982 128.845 M
625.846 128.845 L
S
GR
GS
[0.5 0 0 0.5 315.16617 76.26808] CT
/Helvetica 18 F
GS
[1 0 0 1 0 0] CT
0 7.5 moveto 
1 -1 scale
(AR model) t 
GR
GR
GS
[0.5 0 0 0.5 0 0] CT
0.494 0.184 0.557 RC
1 LJ
2 LW
N
580.982 152.536 M
625.846 152.536 L
S
GR
GS
[0.5 0 0 0.5 0 0] CT
0.149 GC
10.0 ML
N
575 167 M
575 67 L
740 67 L
740 167 L
cp
S
GR
%%Trailer
%%Pages: 1
%%EOF
