%!PS-Adobe-3.0 EPSF-3.0
%%BoundingBox: 20 1 387 292
%%HiResBoundingBox: 20.292 1.824 386.538 291.854
%%Creator: (MATLAB, The Mathworks, Inc. Version 9.1.0.441655 \(R2016b\). Operating System: Windows 8)
%%Title: C:/Users/Matteo/Documents/dt-homeworks/HW1/Latex/img/PSDestimatesZOOM_h.eps
%%CreationDate: 2017-04-03T20:00:32
%%Pages: (atend)
%%LanguageLevel: 3
%%EndComments
%%BeginProlog
%%BeginResource: procset (Apache XML Graphics Std ProcSet) 1.2 0
%%Version: 1.2 0
%%Copyright: (Copyright 2001-2003,2010 The Apache Software Foundation. License terms: http://www.apache.org/licenses/LICENSE-2.0)
/bd{bind def}bind def
/ld{load def}bd
/GR/grestore ld
/M/moveto ld
/LJ/setlinejoin ld
/C/curveto ld
/f/fill ld
/LW/setlinewidth ld
/GC/setgray ld
/t/show ld
/N/newpath ld
/CT/concat ld
/cp/closepath ld
/S/stroke ld
/L/lineto ld
/CC/setcmykcolor ld
/A/ashow ld
/GS/gsave ld
/RC/setrgbcolor ld
/RM/rmoveto ld
/ML/setmiterlimit ld
/re {4 2 roll M
1 index 0 rlineto
0 exch rlineto
neg 0 rlineto
cp } bd
/_ctm matrix def
/_tm matrix def
/BT { _ctm currentmatrix pop matrix _tm copy pop 0 0 moveto } bd
/ET { _ctm setmatrix } bd
/iTm { _ctm setmatrix _tm concat } bd
/Tm { _tm astore pop iTm 0 0 moveto } bd
/ux 0.0 def
/uy 0.0 def
/F {
  /Tp exch def
  /Tf exch def
  Tf findfont Tp scalefont setfont
  /cf Tf def  /cs Tp def
} bd
/ULS {currentpoint /uy exch def /ux exch def} bd
/ULE {
  /Tcx currentpoint pop def
  gsave
  newpath
  cf findfont cs scalefont dup
  /FontMatrix get 0 get /Ts exch def /FontInfo get dup
  /UnderlinePosition get Ts mul /To exch def
  /UnderlineThickness get Ts mul /Tt exch def
  ux uy To add moveto  Tcx uy To add lineto
  Tt setlinewidth stroke
  grestore
} bd
/OLE {
  /Tcx currentpoint pop def
  gsave
  newpath
  cf findfont cs scalefont dup
  /FontMatrix get 0 get /Ts exch def /FontInfo get dup
  /UnderlinePosition get Ts mul /To exch def
  /UnderlineThickness get Ts mul /Tt exch def
  ux uy To add cs add moveto Tcx uy To add cs add lineto
  Tt setlinewidth stroke
  grestore
} bd
/SOE {
  /Tcx currentpoint pop def
  gsave
  newpath
  cf findfont cs scalefont dup
  /FontMatrix get 0 get /Ts exch def /FontInfo get dup
  /UnderlinePosition get Ts mul /To exch def
  /UnderlineThickness get Ts mul /Tt exch def
  ux uy To add cs 10 mul 26 idiv add moveto Tcx uy To add cs 10 mul 26 idiv add lineto
  Tt setlinewidth stroke
  grestore
} bd
/QT {
/Y22 exch store
/X22 exch store
/Y21 exch store
/X21 exch store
currentpoint
/Y21 load 2 mul add 3 div exch
/X21 load 2 mul add 3 div exch
/X21 load 2 mul /X22 load add 3 div
/Y21 load 2 mul /Y22 load add 3 div
/X22 load /Y22 load curveto
} bd
/SSPD {
dup length /d exch dict def
{
/v exch def
/k exch def
currentpagedevice k known {
/cpdv currentpagedevice k get def
v cpdv ne {
/upd false def
/nullv v type /nulltype eq def
/nullcpdv cpdv type /nulltype eq def
nullv nullcpdv or
{
/upd true def
} {
/sametype v type cpdv type eq def
sametype {
v type /arraytype eq {
/vlen v length def
/cpdvlen cpdv length def
vlen cpdvlen eq {
0 1 vlen 1 sub {
/i exch def
/obj v i get def
/cpdobj cpdv i get def
obj cpdobj ne {
/upd true def
exit
} if
} for
} {
/upd true def
} ifelse
} {
v type /dicttype eq {
v {
/dv exch def
/dk exch def
/cpddv cpdv dk get def
dv cpddv ne {
/upd true def
exit
} if
} forall
} {
/upd true def
} ifelse
} ifelse
} if
} ifelse
upd true eq {
d k v put
} if
} if
} if
} forall
d length 0 gt {
d setpagedevice
} if
} bd
/RE { % /NewFontName [NewEncodingArray] /FontName RE -
  findfont dup length dict begin
  {
    1 index /FID ne
    {def} {pop pop} ifelse
  } forall
  /Encoding exch def
  /FontName 1 index def
  currentdict definefont pop
  end
} bind def
%%EndResource
%%BeginResource: procset (Apache XML Graphics EPS ProcSet) 1.0 0
%%Version: 1.0 0
%%Copyright: (Copyright 2002-2003 The Apache Software Foundation. License terms: http://www.apache.org/licenses/LICENSE-2.0)
/BeginEPSF { %def
/b4_Inc_state save def         % Save state for cleanup
/dict_count countdictstack def % Count objects on dict stack
/op_count count 1 sub def      % Count objects on operand stack
userdict begin                 % Push userdict on dict stack
/showpage { } def              % Redefine showpage, { } = null proc
0 setgray 0 setlinecap         % Prepare graphics state
1 setlinewidth 0 setlinejoin
10 setmiterlimit [ ] 0 setdash newpath
/languagelevel where           % If level not equal to 1 then
{pop languagelevel             % set strokeadjust and
1 ne                           % overprint to their defaults.
{false setstrokeadjust false setoverprint
} if
} if
} bd
/EndEPSF { %def
count op_count sub {pop} repeat            % Clean up stacks
countdictstack dict_count sub {end} repeat
b4_Inc_state restore
} bd
%%EndResource
%FOPBeginFontDict
%%IncludeResource: font Courier-Bold
%%IncludeResource: font Helvetica
%%IncludeResource: font Courier-BoldOblique
%%IncludeResource: font Courier-Oblique
%%IncludeResource: font Times-Roman
%%IncludeResource: font Helvetica-BoldOblique
%%IncludeResource: font Helvetica-Bold
%%IncludeResource: font Helvetica-Oblique
%%IncludeResource: font Times-BoldItalic
%%IncludeResource: font Courier
%%IncludeResource: font Times-Italic
%%IncludeResource: font Times-Bold
%%IncludeResource: font Symbol
%%IncludeResource: font ZapfDingbats
%FOPEndFontDict
%%BeginResource: encoding WinAnsiEncoding
/WinAnsiEncoding [
/.notdef /.notdef /.notdef /.notdef /.notdef
/.notdef /.notdef /.notdef /.notdef /.notdef
/.notdef /.notdef /.notdef /.notdef /.notdef
/.notdef /.notdef /.notdef /.notdef /.notdef
/.notdef /.notdef /.notdef /.notdef /.notdef
/.notdef /.notdef /.notdef /.notdef /.notdef
/.notdef /.notdef /space /exclam /quotedbl
/numbersign /dollar /percent /ampersand /quotesingle
/parenleft /parenright /asterisk /plus /comma
/hyphen /period /slash /zero /one
/two /three /four /five /six
/seven /eight /nine /colon /semicolon
/less /equal /greater /question /at
/A /B /C /D /E
/F /G /H /I /J
/K /L /M /N /O
/P /Q /R /S /T
/U /V /W /X /Y
/Z /bracketleft /backslash /bracketright /asciicircum
/underscore /quoteleft /a /b /c
/d /e /f /g /h
/i /j /k /l /m
/n /o /p /q /r
/s /t /u /v /w
/x /y /z /braceleft /bar
/braceright /asciitilde /bullet /Euro /bullet
/quotesinglbase /florin /quotedblbase /ellipsis /dagger
/daggerdbl /circumflex /perthousand /Scaron /guilsinglleft
/OE /bullet /Zcaron /bullet /bullet
/quoteleft /quoteright /quotedblleft /quotedblright /bullet
/endash /emdash /asciitilde /trademark /scaron
/guilsinglright /oe /bullet /zcaron /Ydieresis
/space /exclamdown /cent /sterling /currency
/yen /brokenbar /section /dieresis /copyright
/ordfeminine /guillemotleft /logicalnot /sfthyphen /registered
/macron /degree /plusminus /twosuperior /threesuperior
/acute /mu /paragraph /middot /cedilla
/onesuperior /ordmasculine /guillemotright /onequarter /onehalf
/threequarters /questiondown /Agrave /Aacute /Acircumflex
/Atilde /Adieresis /Aring /AE /Ccedilla
/Egrave /Eacute /Ecircumflex /Edieresis /Igrave
/Iacute /Icircumflex /Idieresis /Eth /Ntilde
/Ograve /Oacute /Ocircumflex /Otilde /Odieresis
/multiply /Oslash /Ugrave /Uacute /Ucircumflex
/Udieresis /Yacute /Thorn /germandbls /agrave
/aacute /acircumflex /atilde /adieresis /aring
/ae /ccedilla /egrave /eacute /ecircumflex
/edieresis /igrave /iacute /icircumflex /idieresis
/eth /ntilde /ograve /oacute /ocircumflex
/otilde /odieresis /divide /oslash /ugrave
/uacute /ucircumflex /udieresis /yacute /thorn
/ydieresis
] def
%%EndResource
%FOPBeginFontReencode
/Courier-Bold findfont
dup length dict begin
  {1 index /FID ne {def} {pop pop} ifelse} forall
  /Encoding WinAnsiEncoding def
  currentdict
end
/Courier-Bold exch definefont pop
/Helvetica findfont
dup length dict begin
  {1 index /FID ne {def} {pop pop} ifelse} forall
  /Encoding WinAnsiEncoding def
  currentdict
end
/Helvetica exch definefont pop
/Courier-BoldOblique findfont
dup length dict begin
  {1 index /FID ne {def} {pop pop} ifelse} forall
  /Encoding WinAnsiEncoding def
  currentdict
end
/Courier-BoldOblique exch definefont pop
/Courier-Oblique findfont
dup length dict begin
  {1 index /FID ne {def} {pop pop} ifelse} forall
  /Encoding WinAnsiEncoding def
  currentdict
end
/Courier-Oblique exch definefont pop
/Times-Roman findfont
dup length dict begin
  {1 index /FID ne {def} {pop pop} ifelse} forall
  /Encoding WinAnsiEncoding def
  currentdict
end
/Times-Roman exch definefont pop
/Helvetica-BoldOblique findfont
dup length dict begin
  {1 index /FID ne {def} {pop pop} ifelse} forall
  /Encoding WinAnsiEncoding def
  currentdict
end
/Helvetica-BoldOblique exch definefont pop
/Helvetica-Bold findfont
dup length dict begin
  {1 index /FID ne {def} {pop pop} ifelse} forall
  /Encoding WinAnsiEncoding def
  currentdict
end
/Helvetica-Bold exch definefont pop
/Helvetica-Oblique findfont
dup length dict begin
  {1 index /FID ne {def} {pop pop} ifelse} forall
  /Encoding WinAnsiEncoding def
  currentdict
end
/Helvetica-Oblique exch definefont pop
/Times-BoldItalic findfont
dup length dict begin
  {1 index /FID ne {def} {pop pop} ifelse} forall
  /Encoding WinAnsiEncoding def
  currentdict
end
/Times-BoldItalic exch definefont pop
/Courier findfont
dup length dict begin
  {1 index /FID ne {def} {pop pop} ifelse} forall
  /Encoding WinAnsiEncoding def
  currentdict
end
/Courier exch definefont pop
/Times-Italic findfont
dup length dict begin
  {1 index /FID ne {def} {pop pop} ifelse} forall
  /Encoding WinAnsiEncoding def
  currentdict
end
/Times-Italic exch definefont pop
/Times-Bold findfont
dup length dict begin
  {1 index /FID ne {def} {pop pop} ifelse} forall
  /Encoding WinAnsiEncoding def
  currentdict
end
/Times-Bold exch definefont pop
%FOPEndFontReencode
%%EndProlog
%%Page: 1 1
%%PageBoundingBox: 0 0 420 315
%%BeginPageSetup
[1 0 0 -1 0 315] CT
%%EndPageSetup
GS
[0.5 0 0 0.5 0 0] CT
1 GC
N
0 0 840 630 re
f
GR
GS
[0.5 0 0 0.5 0 0] CT
1 GC
N
0 0 840 630 re
f
GR
GS
[0.5 0 0 0.5 0 0] CT
1 GC
N
109 561 M
760 561 L
760 47 L
109 47 L
cp
f
GR
GS
[0.5 0 0 0.5 0 0] CT
0.149 GC
2 setlinecap
1 LJ
N
109 561 M
760 561 L
S
GR
GS
[0.5 0 0 0.5 0 0] CT
0.149 GC
2 setlinecap
1 LJ
N
109 47 M
760 47 L
S
GR
GS
[0.5 0 0 0.5 0 0] CT
0.149 GC
2 setlinecap
1 LJ
N
109 561 M
109 554.49 L
S
GR
GS
[0.5 0 0 0.5 0 0] CT
0.149 GC
2 setlinecap
1 LJ
N
239.2 561 M
239.2 554.49 L
S
GR
GS
[0.5 0 0 0.5 0 0] CT
0.149 GC
2 setlinecap
1 LJ
N
369.4 561 M
369.4 554.49 L
S
GR
GS
[0.5 0 0 0.5 0 0] CT
0.149 GC
2 setlinecap
1 LJ
N
499.6 561 M
499.6 554.49 L
S
GR
GS
[0.5 0 0 0.5 0 0] CT
0.149 GC
2 setlinecap
1 LJ
N
629.8 561 M
629.8 554.49 L
S
GR
GS
[0.5 0 0 0.5 0 0] CT
0.149 GC
2 setlinecap
1 LJ
N
760 561 M
760 554.49 L
S
GR
GS
[0.5 0 0 0.5 0 0] CT
0.149 GC
2 setlinecap
1 LJ
N
109 47 M
109 53.51 L
S
GR
GS
[0.5 0 0 0.5 0 0] CT
0.149 GC
2 setlinecap
1 LJ
N
239.2 47 M
239.2 53.51 L
S
GR
GS
[0.5 0 0 0.5 0 0] CT
0.149 GC
2 setlinecap
1 LJ
N
369.4 47 M
369.4 53.51 L
S
GR
GS
[0.5 0 0 0.5 0 0] CT
0.149 GC
2 setlinecap
1 LJ
N
499.6 47 M
499.6 53.51 L
S
GR
GS
[0.5 0 0 0.5 0 0] CT
0.149 GC
2 setlinecap
1 LJ
N
629.8 47 M
629.8 53.51 L
S
GR
GS
[0.5 0 0 0.5 0 0] CT
0.149 GC
2 setlinecap
1 LJ
N
760 47 M
760 53.51 L
S
GR
GS
[0.5 0 0 0.5 54.50001 284.5] CT
0.149 GC
/Helvetica 20 F
GS
[1 0 0 1 0 0] CT
-19.5 21 moveto 
1 -1 scale
(0.15) t 
GR
GR
GS
[0.5 0 0 0.5 119.60001 284.5] CT
0.149 GC
/Helvetica 20 F
GS
[1 0 0 1 0 0] CT
-14 21 moveto 
1 -1 scale
(0.2) t 
GR
GR
GS
[0.5 0 0 0.5 184.7 284.5] CT
0.149 GC
/Helvetica 20 F
GS
[1 0 0 1 0 0] CT
-19.5 21 moveto 
1 -1 scale
(0.25) t 
GR
GR
GS
[0.5 0 0 0.5 249.80002 284.5] CT
0.149 GC
/Helvetica 20 F
GS
[1 0 0 1 0 0] CT
-14 21 moveto 
1 -1 scale
(0.3) t 
GR
GR
GS
[0.5 0 0 0.5 314.89999 284.5] CT
0.149 GC
/Helvetica 20 F
GS
[1 0 0 1 0 0] CT
-19.5 21 moveto 
1 -1 scale
(0.35) t 
GR
GR
GS
[0.5 0 0 0.5 380 284.5] CT
0.149 GC
/Helvetica 20 F
GS
[1 0 0 1 0 0] CT
-14 21 moveto 
1 -1 scale
(0.4) t 
GR
GR
GS
[0.5 0 0 0.5 217.25017 298.5] CT
0.149 GC
/Helvetica 22 F
GS
[1 0 0 1 0 0] CT
-67.5 23 moveto 
1 -1 scale
(f \(normalized\)) t 
GR
GR
GS
[0.5 0 0 0.5 0 0] CT
0.149 GC
2 setlinecap
1 LJ
N
109 561 M
109 47 L
S
GR
GS
[0.5 0 0 0.5 0 0] CT
0.149 GC
2 setlinecap
1 LJ
N
760 561 M
760 47 L
S
GR
GS
[0.5 0 0 0.5 0 0] CT
0.149 GC
2 setlinecap
1 LJ
N
109 561 M
115.51 561 L
S
GR
GS
[0.5 0 0 0.5 0 0] CT
0.149 GC
2 setlinecap
1 LJ
N
109 460.139 M
115.51 460.139 L
S
GR
GS
[0.5 0 0 0.5 0 0] CT
0.149 GC
2 setlinecap
1 LJ
N
109 359.279 M
115.51 359.279 L
S
GR
GS
[0.5 0 0 0.5 0 0] CT
0.149 GC
2 setlinecap
1 LJ
N
109 258.418 M
115.51 258.418 L
S
GR
GS
[0.5 0 0 0.5 0 0] CT
0.149 GC
2 setlinecap
1 LJ
N
109 157.558 M
115.51 157.558 L
S
GR
GS
[0.5 0 0 0.5 0 0] CT
0.149 GC
2 setlinecap
1 LJ
N
109 56.697 M
115.51 56.697 L
S
GR
GS
[0.5 0 0 0.5 0 0] CT
0.149 GC
2 setlinecap
1 LJ
N
760 561 M
753.49 561 L
S
GR
GS
[0.5 0 0 0.5 0 0] CT
0.149 GC
2 setlinecap
1 LJ
N
760 460.139 M
753.49 460.139 L
S
GR
GS
[0.5 0 0 0.5 0 0] CT
0.149 GC
2 setlinecap
1 LJ
N
760 359.279 M
753.49 359.279 L
S
GR
GS
[0.5 0 0 0.5 0 0] CT
0.149 GC
2 setlinecap
1 LJ
N
760 258.418 M
753.49 258.418 L
S
GR
GS
[0.5 0 0 0.5 0 0] CT
0.149 GC
2 setlinecap
1 LJ
N
760 157.558 M
753.49 157.558 L
S
GR
GS
[0.5 0 0 0.5 0 0] CT
0.149 GC
2 setlinecap
1 LJ
N
760 56.697 M
753.49 56.697 L
S
GR
GS
[0.5 0 0 0.5 50.5 280.5] CT
0.149 GC
/Helvetica 20 F
GS
[1 0 0 1 0 0] CT
-23 8 moveto 
1 -1 scale
(20) t 
GR
GR
GS
[0.5 0 0 0.5 50.5 230.06973] CT
0.149 GC
/Helvetica 20 F
GS
[1 0 0 1 0 0] CT
-23 8 moveto 
1 -1 scale
(25) t 
GR
GR
GS
[0.5 0 0 0.5 50.5 179.63947] CT
0.149 GC
/Helvetica 20 F
GS
[1 0 0 1 0 0] CT
-23 8 moveto 
1 -1 scale
(30) t 
GR
GR
GS
[0.5 0 0 0.5 50.5 129.2092] CT
0.149 GC
/Helvetica 20 F
GS
[1 0 0 1 0 0] CT
-23 8 moveto 
1 -1 scale
(35) t 
GR
GR
GS
[0.5 0 0 0.5 50.5 78.77893] CT
0.149 GC
/Helvetica 20 F
GS
[1 0 0 1 0 0] CT
-23 8 moveto 
1 -1 scale
(40) t 
GR
GR
GS
[0.5 0 0 0.5 50.5 28.34867] CT
0.149 GC
/Helvetica 20 F
GS
[1 0 0 1 0 0] CT
-23 8 moveto 
1 -1 scale
(45) t 
GR
GR
GS
[0 -0.5 0.5 0 28.5 169.5] CT
0.149 GC
/Helvetica 22 F
GS
[1 0 0 1 0 0] CT
0 0 moveto 
1 -1 scale
(PSD) t 
GR
GR
GS
[0 -0.5 0.5 0 34 146.5] CT
0.149 GC
/Helvetica 17.6 F
GS
[1 0 0 1 0 0] CT
0 0 moveto 
1 -1 scale
(dB) t 
GR
GR
GS
[0.5 0 0 0.5 0 0] CT
0 0.447 0.741 RC
1 LJ
N
108.922 535.107 M
109.064 538.661 L
109.381 548.061 L
109.699 559.203 L
109.743 561.061 L
S
GR
GS
[0.5 0 0 0.5 0 0] CT
0 0.447 0.741 RC
1 LJ
N
113.77 561.061 M
113.832 558.378 L
114.15 546.903 L
114.467 537.197 L
114.785 528.911 L
115.103 521.801 L
115.421 515.695 L
115.739 510.462 L
116.057 506.008 L
116.375 502.259 L
116.692 499.16 L
117.01 496.668 L
117.328 494.752 L
117.646 493.389 L
117.964 492.565 L
118.282 492.272 L
118.6 492.508 L
118.918 493.28 L
119.235 494.598 L
119.553 496.483 L
119.871 498.963 L
120.189 502.075 L
120.507 505.87 L
120.825 510.414 L
121.143 515.794 L
121.461 522.125 L
121.778 529.562 L
122.096 538.318 L
122.414 548.7 L
122.73 561.061 L
S
GR
GS
[0.5 0 0 0.5 0 0] CT
0 0.447 0.741 RC
1 LJ
N
126.384 561.061 M
126.546 553.501 L
126.864 541.206 L
127.182 530.818 L
127.5 521.94 L
127.818 514.299 L
128.136 507.703 L
128.454 502.01 L
128.772 497.113 L
129.089 492.932 L
129.407 489.405 L
129.725 486.485 L
130.043 484.134 L
130.361 482.325 L
130.679 481.039 L
130.997 480.262 L
131.315 479.988 L
131.632 480.216 L
131.95 480.95 L
132.268 482.201 L
132.586 483.984 L
132.904 486.325 L
133.222 489.256 L
133.54 492.818 L
133.858 497.069 L
134.175 502.079 L
134.493 507.944 L
134.811 514.787 L
135.129 522.779 L
135.447 532.152 L
135.765 543.242 L
136.083 556.554 L
136.17 561.061 L
S
GR
GS
[0.5 0 0 0.5 0 0] CT
0 0.447 0.741 RC
1 LJ
N
139.539 561.061 M
139.579 558.889 L
139.897 545.047 L
140.215 533.551 L
140.533 523.855 L
140.851 515.603 L
141.169 508.546 L
141.486 502.508 L
141.804 497.359 L
142.122 493.001 L
142.44 489.362 L
142.758 486.386 L
143.076 484.032 L
143.394 482.268 L
143.712 481.074 L
144.029 480.438 L
144.347 480.353 L
144.665 480.822 L
144.983 481.853 L
145.301 483.464 L
145.619 485.68 L
145.937 488.537 L
146.254 492.083 L
146.572 496.382 L
146.89 501.518 L
147.208 507.604 L
147.526 514.791 L
147.844 523.288 L
148.162 533.392 L
148.48 545.544 L
148.797 560.433 L
148.808 561.061 L
S
GR
GS
[0.5 0 0 0.5 0 0] CT
0 0.447 0.741 RC
1 LJ
N
151.837 561.061 M
151.976 552.84 L
152.294 537.701 L
152.612 525.125 L
152.93 514.485 L
153.248 505.372 L
153.566 497.51 L
153.883 490.699 L
154.201 484.796 L
154.519 479.693 L
154.837 475.306 L
155.155 471.572 L
155.473 468.441 L
155.791 465.878 L
156.108 463.851 L
156.426 462.341 L
156.744 461.333 L
157.062 460.819 L
157.38 460.795 L
157.698 461.264 L
158.016 462.234 L
158.334 463.719 L
158.651 465.738 L
158.969 468.319 L
159.287 471.5 L
159.605 475.327 L
159.923 479.863 L
160.241 485.188 L
160.559 491.407 L
160.877 498.659 L
161.194 507.137 L
161.512 517.106 L
161.83 528.958 L
162.148 543.29 L
162.465 561.061 L
S
GR
GS
[0.5 0 0 0.5 0 0] CT
0 0.447 0.741 RC
1 LJ
N
165.141 561.061 M
165.327 549.457 L
165.645 533.707 L
165.962 520.789 L
166.28 509.975 L
166.598 500.804 L
166.916 492.966 L
167.234 486.246 L
167.552 480.484 L
167.87 475.567 L
168.188 471.405 L
168.505 467.932 L
168.823 465.099 L
169.141 462.866 L
169.459 461.208 L
169.777 460.104 L
170.095 459.544 L
170.413 459.524 L
170.731 460.046 L
171.048 461.119 L
171.366 462.761 L
171.684 464.998 L
172.002 467.864 L
172.32 471.407 L
172.638 475.689 L
172.956 480.792 L
173.274 486.826 L
173.591 493.936 L
173.909 502.324 L
174.227 512.274 L
174.545 524.206 L
174.863 538.77 L
175.181 557.059 L
175.234 561.061 L
S
GR
GS
[0.5 0 0 0.5 0 0] CT
0 0.447 0.741 RC
1 LJ
N
177.646 561.061 M
177.724 554.952 L
178.042 535.706 L
178.359 520.244 L
178.677 507.445 L
178.995 496.643 L
179.313 487.411 L
179.631 479.459 L
179.949 472.582 L
180.267 466.629 L
180.585 461.489 L
180.902 457.077 L
181.22 453.328 L
181.538 450.191 L
181.856 447.629 L
182.174 445.611 L
182.492 444.118 L
182.81 443.134 L
183.128 442.651 L
183.445 442.667 L
183.763 443.185 L
184.081 444.214 L
184.399 445.768 L
184.717 447.871 L
185.035 450.552 L
185.353 453.85 L
185.671 457.817 L
185.988 462.521 L
186.306 468.048 L
186.624 474.515 L
186.942 482.077 L
187.26 490.947 L
187.578 501.426 L
187.896 513.965 L
188.213 529.267 L
188.531 548.527 L
188.688 561.061 L
S
GR
GS
[0.5 0 0 0.5 0 0] CT
0 0.447 0.741 RC
1 LJ
N
190.813 561.061 M
191.074 541.525 L
191.392 523.21 L
191.71 508.459 L
192.028 496.247 L
192.346 485.958 L
192.664 477.192 L
192.982 469.676 L
193.299 463.215 L
193.617 457.669 L
193.935 452.931 L
194.253 448.922 L
194.571 445.582 L
194.889 442.863 L
195.207 440.732 L
195.525 439.163 L
195.842 438.14 L
196.16 437.654 L
196.478 437.701 L
196.796 438.285 L
197.114 439.418 L
197.432 441.117 L
197.75 443.409 L
198.067 446.331 L
198.385 449.93 L
198.703 454.27 L
199.021 459.435 L
199.339 465.536 L
199.657 472.722 L
199.975 481.198 L
200.293 491.254 L
200.61 503.319 L
200.928 518.062 L
201.246 536.607 L
201.564 561.061 L
S
GR
GS
[0.5 0 0 0.5 0 0] CT
0 0.447 0.741 RC
1 LJ
N
203.435 561.061 M
203.471 557.088 L
203.789 532.372 L
204.107 513.394 L
204.425 498.124 L
204.743 485.477 L
205.061 474.804 L
205.379 465.685 L
205.696 457.838 L
206.014 451.061 L
206.332 445.208 L
206.65 440.168 L
206.968 435.859 L
207.286 432.218 L
207.604 429.195 L
207.921 426.755 L
208.239 424.869 L
208.557 423.519 L
208.875 422.692 L
209.193 422.382 L
209.511 422.591 L
209.829 423.325 L
210.147 424.596 L
210.464 426.425 L
210.782 428.84 L
211.1 431.879 L
211.418 435.594 L
211.736 440.049 L
212.054 445.33 L
212.372 451.552 L
212.69 458.866 L
213.007 467.483 L
213.325 477.701 L
213.643 489.96 L
213.961 504.951 L
214.279 523.844 L
214.597 548.863 L
214.704 561.061 L
S
GR
GS
[0.5 0 0 0.5 0 0] CT
0 0.447 0.741 RC
1 LJ
N
216.32 561.061 M
216.504 541.344 L
216.822 517.143 L
217.14 498.501 L
217.458 483.478 L
217.775 471.028 L
218.093 460.522 L
218.411 451.553 L
218.729 443.845 L
219.047 437.202 L
219.365 431.481 L
219.683 426.574 L
220.001 422.402 L
220.318 418.904 L
220.636 416.032 L
220.954 413.754 L
221.272 412.043 L
221.59 410.883 L
221.908 410.266 L
222.226 410.188 L
222.544 410.656 L
222.861 411.681 L
223.179 413.282 L
223.497 415.487 L
223.815 418.336 L
224.133 421.88 L
224.451 426.187 L
224.769 431.347 L
225.087 437.479 L
225.404 444.745 L
225.722 453.367 L
226.04 463.667 L
226.358 476.121 L
226.676 491.49 L
226.994 511.086 L
227.312 537.48 L
227.502 561.061 L
S
GR
GS
[0.5 0 0 0.5 0 0] CT
0 0.447 0.741 RC
1 LJ
N
228.824 561.061 M
228.901 548.852 L
229.219 517.043 L
229.537 493.883 L
229.855 475.785 L
230.172 461.05 L
230.49 448.736 L
230.808 438.269 L
231.126 429.272 L
231.444 421.487 L
231.762 414.728 L
232.08 408.861 L
232.398 403.784 L
232.715 399.419 L
233.033 395.707 L
233.351 392.604 L
233.669 390.075 L
233.987 388.096 L
234.305 386.649 L
234.623 385.725 L
234.941 385.319 L
235.258 385.435 L
235.576 386.082 L
235.894 387.275 L
236.212 389.037 L
236.53 391.402 L
236.848 394.411 L
237.166 398.122 L
237.483 402.61 L
237.801 407.97 L
238.119 414.334 L
238.437 421.877 L
238.755 430.846 L
239.073 441.595 L
239.391 454.662 L
239.709 470.92 L
240.026 491.918 L
240.344 520.834 L
240.627 561.061 L
S
GR
GS
[0.5 0 0 0.5 0 0] CT
0 0.447 0.741 RC
1 LJ
N
241.601 561.061 M
241.616 556.729 L
241.934 513.04 L
242.252 484.001 L
242.569 462.325 L
242.887 445.138 L
243.205 431.008 L
243.523 419.116 L
243.841 408.953 L
244.159 400.182 L
244.477 392.568 L
244.795 385.94 L
245.112 380.176 L
245.43 375.181 L
245.748 370.885 L
246.066 367.233 L
246.384 364.186 L
246.702 361.714 L
247.02 359.796 L
247.337 358.419 L
247.655 357.579 L
247.973 357.276 L
248.291 357.52 L
248.609 358.327 L
248.927 359.722 L
249.245 361.74 L
249.563 364.429 L
249.88 367.85 L
250.198 372.086 L
250.516 377.248 L
250.834 383.484 L
251.152 390.999 L
251.47 400.084 L
251.788 411.167 L
252.106 424.922 L
252.423 442.483 L
252.741 465.992 L
253.059 500.323 L
253.375 561.061 L
S
GR
GS
[0.5 0 0 0.5 0 0] CT
0 0.447 0.741 RC
1 LJ
N
254 561.061 M
254.013 550.224 L
254.331 490.177 L
254.649 454.17 L
254.966 428.29 L
255.284 408.071 L
255.602 391.501 L
255.92 377.499 L
256.238 365.418 L
256.556 354.84 L
256.874 345.477 L
257.191 337.127 L
257.509 329.637 L
257.827 322.894 L
258.145 316.809 L
258.463 311.313 L
258.781 306.35 L
259.099 301.875 L
259.417 297.853 L
259.734 294.252 L
260.052 291.048 L
260.37 288.221 L
260.688 285.755 L
261.006 283.636 L
261.324 281.855 L
261.642 280.402 L
261.96 279.272 L
262.277 278.461 L
262.595 277.968 L
262.913 277.792 L
263.231 277.936 L
263.549 278.403 L
263.867 279.199 L
264.185 280.334 L
264.503 281.816 L
264.82 283.661 L
265.138 285.884 L
265.456 288.505 L
265.774 291.551 L
266.092 295.049 L
266.41 299.038 L
266.728 303.561 L
267.046 308.676 L
267.363 314.45 L
267.681 320.972 L
267.999 328.356 L
268.317 336.75 L
268.635 346.357 L
268.953 357.459 L
269.271 370.469 L
269.588 386.02 L
269.906 405.166 L
270.224 429.856 L
270.542 464.37 L
270.86 521.728 L
270.918 561.061 L
S
GR
GS
[0.5 0 0 0.5 0 0] CT
0 0.447 0.741 RC
1 LJ
N
271.461 561.061 M
271.496 539.618 L
271.814 475.448 L
272.131 439.648 L
272.449 415.069 L
272.767 396.617 L
273.085 382.078 L
273.403 370.292 L
273.721 360.578 L
274.039 352.503 L
274.357 345.778 L
274.674 340.205 L
274.992 335.643 L
275.31 331.993 L
275.628 329.186 L
275.946 327.176 L
276.264 325.936 L
276.582 325.458 L
276.9 325.75 L
277.217 326.837 L
277.535 328.763 L
277.853 331.596 L
278.171 335.434 L
278.489 340.415 L
278.807 346.737 L
279.125 354.686 L
279.442 364.688 L
279.76 377.418 L
280.078 394.023 L
280.396 416.683 L
280.714 450.398 L
281.032 511.8 L
281.103 561.061 L
S
GR
GS
[0.5 0 0 0.5 0 0] CT
0 0.447 0.741 RC
1 LJ
N
281.577 561.061 M
281.668 493.745 L
281.985 433.796 L
282.303 397.168 L
282.621 370.477 L
282.939 349.365 L
283.257 331.856 L
283.575 316.883 L
283.893 303.805 L
284.211 292.204 L
284.528 281.795 L
284.846 272.373 L
285.164 263.785 L
285.482 255.916 L
285.8 248.676 L
286.118 241.992 L
286.436 235.806 L
286.754 230.07 L
287.071 224.746 L
287.389 219.799 L
287.707 215.202 L
288.025 210.931 L
288.343 206.965 L
288.661 203.287 L
288.979 199.882 L
289.296 196.735 L
289.614 193.836 L
289.932 191.173 L
290.25 188.739 L
290.568 186.526 L
290.886 184.526 L
291.204 182.733 L
291.522 181.143 L
291.839 179.751 L
292.157 178.553 L
292.475 177.546 L
292.793 176.727 L
293.111 176.094 L
293.429 175.646 L
293.747 175.381 L
294.065 175.298 L
294.382 175.398 L
294.7 175.681 L
295.018 176.147 L
295.336 176.797 L
295.654 177.633 L
295.972 178.658 L
296.29 179.874 L
296.608 181.284 L
296.925 182.892 L
297.243 184.703 L
297.561 186.722 L
297.879 188.956 L
298.197 191.41 L
298.515 194.094 L
298.833 197.017 L
299.15 200.189 L
299.468 203.622 L
299.786 207.331 L
300.104 211.332 L
300.422 215.643 L
300.74 220.286 L
301.058 225.288 L
301.376 230.677 L
301.693 236.491 L
302.011 242.773 L
302.329 249.575 L
302.647 256.962 L
302.965 265.015 L
303.283 273.837 L
303.601 283.562 L
303.919 294.37 L
304.236 306.506 L
304.554 320.322 L
304.872 336.347 L
305.19 355.429 L
305.508 379.061 L
305.826 410.273 L
306.144 456.889 L
306.462 555.216 L
306.779 556.925 L
307.097 463.003 L
307.415 420.603 L
307.733 393.591 L
308.051 374.166 L
308.369 359.311 L
308.687 347.538 L
309.004 338.007 L
309.322 330.194 L
309.64 323.754 L
309.958 318.448 L
310.276 314.105 L
310.594 310.597 L
310.912 307.831 L
311.23 305.732 L
311.547 304.248 L
311.865 303.334 L
312.183 302.961 L
312.501 303.105 L
312.819 303.75 L
313.137 304.889 L
313.455 306.517 L
313.773 308.639 L
314.09 311.263 L
314.408 314.405 L
314.726 318.088 L
315.044 322.344 L
315.362 327.214 L
315.68 332.753 L
315.998 339.029 L
316.316 346.136 L
316.633 354.195 L
316.951 363.371 L
317.269 373.888 L
317.587 386.072 L
317.905 400.407 L
318.223 417.66 L
318.541 439.163 L
318.858 467.532 L
319.176 509.148 L
319.383 561.061 L
S
GR
GS
[0.5 0 0 0.5 0 0] CT
0 0.447 0.741 RC
1 LJ
N
320.061 561.061 M
320.13 534.159 L
320.448 486.062 L
320.766 456.213 L
321.084 434.886 L
321.401 418.562 L
321.719 405.565 L
322.037 394.966 L
322.355 386.196 L
322.673 378.884 L
322.991 372.772 L
323.309 367.679 L
323.627 363.471 L
323.944 360.046 L
324.262 357.33 L
324.58 355.263 L
324.898 353.804 L
325.216 352.918 L
325.534 352.582 L
325.852 352.781 L
326.17 353.506 L
326.487 354.756 L
326.805 356.535 L
327.123 358.854 L
327.441 361.733 L
327.759 365.199 L
328.077 369.288 L
328.395 374.051 L
328.712 379.552 L
329.03 385.875 L
329.348 393.133 L
329.666 401.477 L
329.984 411.115 L
330.302 422.342 L
330.62 435.592 L
330.938 451.549 L
331.255 471.362 L
331.573 497.214 L
331.891 534.091 L
332.024 561.061 L
S
GR
GS
[0.5 0 0 0.5 0 0] CT
0 0.447 0.741 RC
1 LJ
N
332.993 561.061 M
333.163 530.804 L
333.481 497.431 L
333.798 474.053 L
334.116 456.303 L
334.434 442.204 L
334.752 430.694 L
335.07 421.136 L
335.388 413.118 L
335.706 406.361 L
336.024 400.666 L
336.341 395.889 L
336.659 391.921 L
336.977 388.681 L
337.295 386.107 L
337.613 384.151 L
337.931 382.776 L
338.249 381.958 L
338.566 381.677 L
338.884 381.922 L
339.202 382.69 L
339.52 383.981 L
339.838 385.805 L
340.156 388.176 L
340.474 391.117 L
340.792 394.66 L
341.109 398.847 L
341.427 403.734 L
341.745 409.394 L
342.063 415.922 L
342.381 423.447 L
342.699 432.14 L
343.017 442.243 L
343.335 454.103 L
343.652 468.244 L
343.97 485.511 L
344.288 507.395 L
344.606 536.923 L
344.777 561.061 L
S
GR
GS
[0.5 0 0 0.5 0 0] CT
0 0.447 0.741 RC
1 LJ
N
346.039 561.061 M
346.195 539.515 L
346.513 511.127 L
346.831 490.364 L
347.149 474.211 L
347.467 461.179 L
347.785 450.426 L
348.103 441.429 L
348.421 433.842 L
348.738 427.424 L
349.056 422.002 L
349.374 417.45 L
349.692 413.672 L
350.01 410.595 L
350.328 408.164 L
350.646 406.337 L
350.963 405.082 L
351.281 404.377 L
351.599 404.207 L
351.917 404.564 L
352.235 405.446 L
352.553 406.858 L
352.871 408.812 L
353.189 411.327 L
353.506 414.429 L
353.824 418.155 L
354.142 422.553 L
354.46 427.688 L
354.778 433.643 L
355.096 440.528 L
355.414 448.491 L
355.732 457.736 L
356.049 468.55 L
356.367 481.358 L
356.685 496.82 L
357.003 516.044 L
357.321 541.115 L
357.499 561.061 L
S
GR
GS
[0.5 0 0 0.5 0 0] CT
0 0.447 0.741 RC
1 LJ
N
359.067 561.061 M
359.228 543.492 L
359.546 519.382 L
359.864 501.091 L
360.182 486.549 L
360.5 474.653 L
360.817 464.747 L
361.135 456.409 L
361.453 449.352 L
361.771 443.374 L
362.089 438.327 L
362.407 434.102 L
362.725 430.615 L
363.043 427.803 L
363.36 425.619 L
363.678 424.027 L
363.996 423 L
364.314 422.521 L
364.632 422.578 L
364.95 423.168 L
365.268 424.294 L
365.586 425.966 L
365.903 428.2 L
366.221 431.021 L
366.539 434.465 L
366.857 438.576 L
367.175 443.416 L
367.493 449.064 L
367.811 455.627 L
368.129 463.244 L
368.446 472.111 L
368.764 482.5 L
369.082 494.81 L
369.4 509.656 L
369.718 528.061 L
370.036 551.908 L
370.123 561.061 L
S
GR
GS
[0.5 0 0 0.5 0 0] CT
0 0.447 0.741 RC
1 LJ
N
371.95 561.061 M
372.261 536.192 L
372.579 517.031 L
372.897 501.84 L
373.214 489.417 L
373.532 479.058 L
373.85 470.314 L
374.168 462.883 L
374.486 456.55 L
374.804 451.161 L
375.122 446.601 L
375.44 442.782 L
375.757 439.637 L
376.075 437.116 L
376.393 435.18 L
376.711 433.799 L
377.029 432.951 L
377.347 432.624 L
377.665 432.81 L
377.983 433.506 L
378.3 434.718 L
378.618 436.455 L
378.936 438.736 L
379.254 441.584 L
379.572 445.033 L
379.89 449.128 L
380.208 453.927 L
380.525 459.505 L
380.843 465.96 L
381.161 473.426 L
381.479 482.081 L
381.797 492.174 L
382.115 504.066 L
382.433 518.307 L
382.751 535.787 L
383.068 558.095 L
383.099 561.061 L
S
GR
GS
[0.5 0 0 0.5 0 0] CT
0 0.447 0.741 RC
1 LJ
N
385.233 561.061 M
385.294 555.803 L
385.611 535.451 L
385.929 519.516 L
386.247 506.6 L
386.565 495.903 L
386.883 486.924 L
387.201 479.332 L
387.519 472.894 L
387.837 467.444 L
388.154 462.858 L
388.472 459.045 L
388.79 455.934 L
389.108 453.472 L
389.426 451.62 L
389.744 450.347 L
390.062 449.635 L
390.379 449.469 L
390.697 449.845 L
391.015 450.765 L
391.333 452.236 L
391.651 454.274 L
391.969 456.904 L
392.287 460.16 L
392.605 464.086 L
392.922 468.742 L
393.24 474.208 L
393.558 480.587 L
393.876 488.021 L
394.194 496.7 L
394.512 506.895 L
394.83 519.001 L
395.148 533.627 L
395.465 551.781 L
395.591 561.061 L
S
GR
GS
[0.5 0 0 0.5 0 0] CT
0 0.447 0.741 RC
1 LJ
N
397.992 561.061 M
398.008 559.757 L
398.326 540.334 L
398.644 524.917 L
398.962 512.291 L
399.28 501.741 L
399.598 492.813 L
399.916 485.203 L
400.233 478.693 L
400.551 473.129 L
400.869 468.394 L
401.187 464.4 L
401.505 461.078 L
401.823 458.378 L
402.141 456.258 L
402.459 454.69 L
402.776 453.652 L
403.094 453.127 L
403.412 453.108 L
403.73 453.592 L
404.048 454.581 L
404.366 456.084 L
404.684 458.116 L
405.002 460.699 L
405.319 463.862 L
405.637 467.645 L
405.955 472.101 L
406.273 477.295 L
406.591 483.316 L
406.909 490.279 L
407.227 498.339 L
407.545 507.711 L
407.862 518.696 L
408.18 531.745 L
408.498 547.563 L
408.715 561.061 L
S
GR
GS
[0.5 0 0 0.5 0 0] CT
0 0.447 0.741 RC
1 LJ
N
411.416 561.061 M
411.677 546.493 L
411.995 532.285 L
412.313 520.617 L
412.63 510.872 L
412.948 502.654 L
413.266 495.688 L
413.584 489.781 L
413.902 484.794 L
414.22 480.621 L
414.538 477.183 L
414.856 474.42 L
415.173 472.286 L
415.491 470.749 L
415.809 469.785 L
416.127 469.378 L
416.445 469.521 L
416.763 470.213 L
417.081 471.46 L
417.399 473.278 L
417.716 475.686 L
418.034 478.719 L
418.352 482.418 L
418.67 486.841 L
418.988 492.064 L
419.306 498.186 L
419.624 505.342 L
419.941 513.716 L
420.259 523.564 L
420.577 535.26 L
420.895 549.376 L
421.108 561.061 L
S
GR
GS
[0.5 0 0 0.5 0 0] CT
0 0.447 0.741 RC
1 LJ
N
424.048 561.061 M
424.074 559.387 L
424.392 543.388 L
424.71 530.305 L
425.027 519.375 L
425.345 510.116 L
425.663 502.206 L
425.981 495.421 L
426.299 489.596 L
426.617 484.61 L
426.935 480.372 L
427.253 476.81 L
427.57 473.871 L
427.888 471.513 L
428.206 469.703 L
428.524 468.418 L
428.842 467.64 L
429.16 467.36 L
429.478 467.572 L
429.796 468.277 L
430.113 469.48 L
430.431 471.194 L
430.749 473.435 L
431.067 476.229 L
431.385 479.61 L
431.703 483.621 L
432.021 488.318 L
432.338 493.776 L
432.656 500.09 L
432.974 507.388 L
433.292 515.84 L
433.61 525.687 L
433.928 537.27 L
434.246 551.106 L
434.433 561.061 L
S
GR
GS
[0.5 0 0 0.5 0 0] CT
0 0.447 0.741 RC
1 LJ
N
437.64 561.061 M
437.742 555.735 L
438.06 542.38 L
438.378 531.328 L
438.696 522.048 L
439.014 514.188 L
439.332 507.507 L
439.65 501.829 L
439.967 497.026 L
440.285 493.002 L
440.603 489.683 L
440.921 487.015 L
441.239 484.955 L
441.557 483.471 L
441.875 482.541 L
442.192 482.151 L
442.51 482.293 L
442.828 482.966 L
443.146 484.176 L
443.464 485.935 L
443.782 488.263 L
444.1 491.188 L
444.418 494.75 L
444.735 498.999 L
445.053 504.003 L
445.371 509.849 L
445.689 516.657 L
446.007 524.583 L
446.325 533.847 L
446.643 544.761 L
446.961 557.79 L
447.026 561.061 L
S
GR
GS
[0.5 0 0 0.5 0 0] CT
0 0.447 0.741 RC
1 LJ
N
450.601 561.061 M
450.775 553.299 L
451.093 541.569 L
451.411 531.716 L
451.729 523.352 L
452.046 516.212 L
452.364 510.108 L
452.682 504.901 L
453 500.486 L
453.318 496.784 L
453.636 493.735 L
453.954 491.292 L
454.272 489.42 L
454.589 488.091 L
454.907 487.288 L
455.225 486.998 L
455.543 487.216 L
455.861 487.94 L
456.179 489.176 L
456.497 490.938 L
456.815 493.241 L
457.132 496.114 L
457.45 499.59 L
457.768 503.715 L
458.086 508.549 L
458.404 514.17 L
458.722 520.679 L
459.04 528.211 L
459.358 536.952 L
459.675 547.159 L
459.993 559.205 L
460.034 561.061 L
S
GR
GS
[0.5 0 0 0.5 0 0] CT
0 0.447 0.741 RC
1 LJ
N
464.085 561.061 M
464.126 559.439 L
464.443 548.927 L
464.761 540.105 L
465.079 532.653 L
465.397 526.345 L
465.715 521.02 L
466.033 516.56 L
466.351 512.876 L
466.669 509.9 L
466.986 507.582 L
467.304 505.885 L
467.622 504.782 L
467.94 504.256 L
468.258 504.298 L
468.576 504.906 L
468.894 506.087 L
469.212 507.855 L
469.529 510.233 L
469.847 513.253 L
470.165 516.962 L
470.483 521.42 L
470.801 526.707 L
471.119 532.93 L
471.437 540.233 L
471.754 548.814 L
472.072 558.955 L
472.128 561.061 L
S
GR
GS
[0.5 0 0 0.5 0 0] CT
0 0.447 0.741 RC
1 LJ
N
476.461 561.061 M
476.523 558.63 L
476.84 548.069 L
477.158 539.089 L
477.476 531.396 L
477.794 524.782 L
478.112 519.097 L
478.43 514.226 L
478.748 510.083 L
479.066 506.603 L
479.383 503.734 L
479.701 501.437 L
480.019 499.681 L
480.337 498.445 L
480.655 497.712 L
480.973 497.473 L
481.291 497.724 L
481.608 498.466 L
481.926 499.706 L
482.244 501.455 L
482.562 503.732 L
482.88 506.562 L
483.198 509.979 L
483.516 514.027 L
483.834 518.764 L
484.151 524.263 L
484.469 530.62 L
484.787 537.963 L
485.105 546.464 L
485.423 556.362 L
485.551 561.061 L
S
GR
GS
[0.5 0 0 0.5 0 0] CT
0 0.447 0.741 RC
1 LJ
N
490.269 561.061 M
490.509 554.18 L
490.827 546.49 L
491.145 539.991 L
491.462 534.511 L
491.78 529.923 L
492.098 526.133 L
492.416 523.071 L
492.734 520.683 L
493.052 518.931 L
493.37 517.787 L
493.688 517.233 L
494.005 517.26 L
494.323 517.867 L
494.641 519.061 L
494.959 520.858 L
495.277 523.284 L
495.595 526.373 L
495.913 530.176 L
496.231 534.758 L
496.548 540.209 L
496.866 546.645 L
497.184 554.227 L
497.427 561.061 L
S
GR
GS
[0.5 0 0 0.5 0 0] CT
0 0.447 0.741 RC
1 LJ
N
502.344 561.061 M
502.588 553.278 L
502.906 544.614 L
503.224 537.15 L
503.542 530.699 L
503.859 525.126 L
504.177 520.326 L
504.495 516.22 L
504.813 512.746 L
505.131 509.857 L
505.449 507.516 L
505.767 505.692 L
506.085 504.365 L
506.402 503.518 L
506.72 503.142 L
507.038 503.229 L
507.356 503.78 L
507.674 504.798 L
507.992 506.292 L
508.31 508.273 L
508.628 510.763 L
508.945 513.785 L
509.263 517.373 L
509.581 521.57 L
509.899 526.43 L
510.217 532.023 L
510.535 538.439 L
510.853 545.798 L
511.171 554.257 L
511.392 561.061 L
S
GR
GS
[0.5 0 0 0.5 0 0] CT
0 0.447 0.741 RC
1 LJ
N
517.122 561.061 M
517.21 559.322 L
517.528 554.115 L
517.846 549.869 L
518.164 546.487 L
518.482 543.899 L
518.799 542.053 L
519.117 540.915 L
519.435 540.466 L
519.753 540.695 L
520.071 541.609 L
520.389 543.22 L
520.707 545.56 L
521.025 548.67 L
521.342 552.615 L
521.66 557.479 L
521.853 561.061 L
S
GR
GS
[0.5 0 0 0.5 0 0] CT
0 0.447 0.741 RC
1 LJ
N
527.623 561.061 M
527.7 558.57 L
528.018 549.633 L
528.336 541.866 L
528.653 535.092 L
528.971 529.178 L
529.289 524.023 L
529.607 519.549 L
529.925 515.696 L
530.243 512.416 L
530.561 509.672 L
530.879 507.435 L
531.196 505.683 L
531.514 504.398 L
531.832 503.57 L
532.15 503.19 L
532.468 503.257 L
532.786 503.772 L
533.104 504.741 L
533.422 506.174 L
533.739 508.086 L
534.057 510.497 L
534.375 513.436 L
534.693 516.936 L
535.011 521.044 L
535.329 525.816 L
535.647 531.326 L
535.964 537.668 L
536.282 544.968 L
536.6 553.393 L
536.849 561.061 L
S
GR
GS
[0.5 0 0 0.5 0 0] CT
0 0.447 0.741 RC
1 LJ
N
542.054 561.061 M
542.322 554.363 L
542.64 547.62 L
542.958 541.9 L
543.276 537.07 L
543.593 533.033 L
543.911 529.715 L
544.229 527.059 L
544.547 525.023 L
544.865 523.577 L
545.183 522.698 L
545.501 522.374 L
545.818 522.598 L
546.136 523.371 L
546.454 524.703 L
546.772 526.608 L
547.09 529.112 L
547.408 532.248 L
547.726 536.063 L
548.044 540.618 L
548.361 545.992 L
548.679 552.295 L
548.997 559.668 L
549.048 561.061 L
S
GR
GS
[0.5 0 0 0.5 0 0] CT
0 0.447 0.741 RC
1 LJ
N
554.705 561.061 M
554.719 560.669 L
555.037 553.07 L
555.355 546.563 L
555.672 540.996 L
555.99 536.257 L
556.308 532.261 L
556.626 528.942 L
556.944 526.251 L
557.262 524.149 L
557.58 522.61 L
557.898 521.613 L
558.215 521.146 L
558.533 521.203 L
558.851 521.784 L
559.169 522.897 L
559.487 524.554 L
559.805 526.776 L
560.123 529.593 L
560.441 533.043 L
560.758 537.178 L
561.076 542.065 L
561.394 547.793 L
561.712 554.477 L
561.98 561.061 L
S
GR
GS
[0.5 0 0 0.5 0 0] CT
0 0.447 0.741 RC
1 LJ
N
567.754 561.061 M
568.069 554.038 L
568.387 548.024 L
568.705 542.94 L
569.023 538.682 L
569.341 535.177 L
569.659 532.367 L
569.977 530.211 L
570.295 528.68 L
570.612 527.757 L
570.93 527.432 L
571.248 527.705 L
571.566 528.585 L
571.884 530.09 L
572.202 532.25 L
572.52 535.104 L
572.838 538.711 L
573.155 543.146 L
573.473 548.513 L
573.791 554.951 L
574.043 561.061 L
S
GR
GS
[0.5 0 0 0.5 0 0] CT
0 0.447 0.741 RC
1 LJ
N
578.872 561.061 M
578.877 560.857 L
579.195 549.163 L
579.513 539.042 L
579.831 530.191 L
580.149 522.396 L
580.466 515.497 L
580.784 509.376 L
581.102 503.94 L
581.42 499.119 L
581.738 494.855 L
582.056 491.102 L
582.374 487.822 L
582.692 484.986 L
583.009 482.569 L
583.327 480.55 L
583.645 478.913 L
583.963 477.647 L
584.281 476.741 L
584.599 476.188 L
584.917 475.983 L
585.234 476.125 L
585.552 476.613 L
585.87 477.45 L
586.188 478.639 L
586.506 480.189 L
586.824 482.108 L
587.142 484.409 L
587.46 487.108 L
587.777 490.225 L
588.095 493.784 L
588.413 497.816 L
588.731 502.356 L
589.049 507.451 L
589.367 513.156 L
589.685 519.543 L
590.003 526.701 L
590.32 534.747 L
590.638 543.836 L
590.956 554.177 L
591.14 561.061 L
S
GR
GS
[0.5 0 0 0.5 0 0] CT
0 0.447 0.741 RC
1 LJ
N
596.73 561.061 M
596.996 556.909 L
597.314 552.905 L
597.631 549.758 L
597.949 547.392 L
598.267 545.754 L
598.585 544.805 L
598.903 544.519 L
599.221 544.884 L
599.539 545.898 L
599.857 547.569 L
600.174 549.917 L
600.492 552.974 L
600.81 556.788 L
601.103 561.061 L
S
GR
GS
[0.5 0 0 0.5 0 0] CT
0 0.447 0.741 RC
1 LJ
N
608.22 561.061 M
608.439 556.839 L
608.757 551.588 L
609.075 547.103 L
609.393 543.309 L
609.711 540.148 L
610.028 537.576 L
610.346 535.558 L
610.664 534.067 L
610.982 533.085 L
611.3 532.599 L
611.618 532.601 L
611.936 533.089 L
612.254 534.067 L
612.571 535.544 L
612.889 537.532 L
613.207 540.054 L
613.525 543.137 L
613.843 546.817 L
614.161 551.143 L
614.479 556.176 L
614.745 561.061 L
S
GR
GS
[0.5 0 0 0.5 0 0] CT
0 0.447 0.741 RC
1 LJ
N
623.021 561.061 M
623.061 560.719 L
623.379 558.651 L
623.697 557.216 L
624.015 556.391 L
624.333 556.162 L
624.651 556.524 L
624.968 557.48 L
625.286 559.042 L
625.58 561.061 L
S
GR
GS
[0.5 0 0 0.5 0 0] CT
0 0.447 0.741 RC
1 LJ
N
634.419 561.061 M
634.505 559.715 L
634.822 555.415 L
635.14 551.763 L
635.458 548.706 L
635.776 546.205 L
636.094 544.229 L
636.412 542.754 L
636.73 541.762 L
637.047 541.241 L
637.365 541.183 L
637.683 541.587 L
638.001 542.455 L
638.319 543.792 L
638.637 545.61 L
638.955 547.926 L
639.273 550.764 L
639.59 554.152 L
639.908 558.13 L
640.11 561.061 L
S
GR
GS
[0.5 0 0 0.5 0 0] CT
0 0.447 0.741 RC
1 LJ
N
660.373 561.061 M
660.57 558.758 L
660.888 555.608 L
661.206 552.991 L
661.524 550.879 L
661.841 549.248 L
662.159 548.082 L
662.477 547.368 L
662.795 547.098 L
663.113 547.27 L
663.431 547.883 L
663.749 548.942 L
664.067 550.455 L
664.384 552.436 L
664.702 554.903 L
665.02 557.88 L
665.308 561.061 L
S
GR
GS
[0.5 0 0 0.5 0 0] CT
0 0.447 0.741 RC
1 LJ
N
686.272 561.061 M
686.318 560.629 L
686.635 558.13 L
686.953 556.138 L
687.271 554.634 L
687.589 553.606 L
687.907 553.044 L
688.225 552.945 L
688.543 553.31 L
688.86 554.143 L
689.178 555.455 L
689.496 557.262 L
689.814 559.585 L
689.978 561.061 L
S
GR
GS
[0.5 0 0 0.5 0 0] CT
0 0.447 0.741 RC
1 LJ
N
711.916 561.061 M
712.065 558.994 L
712.383 555.198 L
712.701 551.96 L
713.019 549.239 L
713.337 547.005 L
713.654 545.234 L
713.972 543.908 L
714.29 543.01 L
714.608 542.533 L
714.926 542.468 L
715.244 542.814 L
715.562 543.571 L
715.88 544.743 L
716.197 546.338 L
716.515 548.366 L
716.833 550.844 L
717.151 553.791 L
717.469 557.235 L
717.775 561.061 L
S
GR
GS
[0.5 0 0 0.5 0 0] CT
0.851 0.325 0.098 RC
1 LJ
N
217.48 561.061 M
217.775 560.118 L
218.093 559.437 L
218.411 559.015 L
218.729 558.79 L
219.047 558.715 L
219.365 558.756 L
219.683 558.894 L
220.001 559.123 L
220.318 559.453 L
220.636 559.906 L
220.954 560.519 L
221.164 561.061 L
S
GR
GS
[0.5 0 0 0.5 0 0] CT
0.851 0.325 0.098 RC
1 LJ
N
238.46 561.061 M
238.755 555.817 L
239.073 550.659 L
239.391 546.08 L
239.709 542.149 L
240.026 538.918 L
240.344 536.42 L
240.662 534.675 L
240.98 533.686 L
241.298 533.444 L
241.616 533.927 L
241.934 535.101 L
242.252 536.918 L
242.569 539.313 L
242.887 542.21 L
243.205 545.514 L
243.523 549.116 L
243.841 552.893 L
244.159 556.707 L
244.477 560.417 L
244.536 561.061 L
S
GR
GS
[0.5 0 0 0.5 0 0] CT
0.851 0.325 0.098 RC
1 LJ
N
257.419 561.061 M
257.509 550.72 L
257.827 515.133 L
258.145 481.355 L
258.463 449.795 L
258.781 420.553 L
259.099 393.581 L
259.417 368.768 L
259.734 345.983 L
260.052 325.095 L
260.37 305.981 L
260.688 288.529 L
261.006 272.642 L
261.324 258.233 L
261.642 245.228 L
261.96 233.559 L
262.277 223.173 L
262.595 214.019 L
262.913 206.058 L
263.231 199.253 L
263.549 193.577 L
263.867 189.006 L
264.185 185.52 L
264.503 183.107 L
264.82 181.755 L
265.138 181.461 L
265.456 182.224 L
265.774 184.047 L
266.092 186.939 L
266.41 190.913 L
266.728 195.989 L
267.046 202.191 L
267.363 209.551 L
267.681 218.106 L
267.999 227.906 L
268.317 239.009 L
268.635 251.484 L
268.953 265.419 L
269.271 280.918 L
269.588 298.111 L
269.906 317.16 L
270.224 338.266 L
270.542 361.689 L
270.86 387.767 L
271.178 416.95 L
271.496 449.856 L
271.814 487.364 L
272.131 530.768 L
272.319 561.061 L
S
GR
GS
[0.5 0 0 0.5 0 0] CT
0.851 0.325 0.098 RC
1 LJ
N
284.935 561.061 M
285.164 524.353 L
285.482 478.613 L
285.8 437.189 L
286.118 399.461 L
286.436 364.941 L
286.754 333.246 L
287.071 304.068 L
287.389 277.159 L
287.707 252.314 L
288.025 229.366 L
288.343 208.174 L
288.661 188.618 L
288.979 170.598 L
289.296 154.028 L
289.614 138.835 L
289.932 124.955 L
290.25 112.333 L
290.568 100.924 L
290.886 90.685 L
291.204 81.583 L
291.522 73.587 L
291.839 66.674 L
292.157 60.822 L
292.475 56.013 L
292.793 52.236 L
293.111 49.478 L
293.429 47.734 L
293.747 47 L
294.065 47.275 L
294.382 48.56 L
294.7 50.862 L
295.018 54.189 L
295.336 58.552 L
295.654 63.967 L
295.972 70.452 L
296.29 78.031 L
296.608 86.731 L
296.925 96.584 L
297.243 107.628 L
297.561 119.907 L
297.879 133.472 L
298.197 148.382 L
298.515 164.707 L
298.833 182.524 L
299.15 201.928 L
299.468 223.023 L
299.786 245.933 L
300.104 270.798 L
300.422 297.774 L
300.74 327.027 L
301.058 358.715 L
301.376 392.947 L
301.693 429.681 L
302.011 468.511 L
302.329 508.252 L
302.647 546.341 L
302.792 561.061 L
S
GR
GS
[0.5 0 0 0.5 0 0] CT
0.851 0.325 0.098 RC
1 LJ
N
330.439 561.061 M
330.62 557.471 L
330.938 552.209 L
331.255 547.93 L
331.573 544.593 L
331.891 542.169 L
332.209 540.648 L
332.527 540.025 L
332.845 540.307 L
333.163 541.507 L
333.481 543.647 L
333.798 546.754 L
334.116 550.862 L
334.434 556.013 L
334.691 561.061 L
S
GR
GS
[0.5 0 0 0.5 0 0] CT
0.851 0.325 0.098 RC
1 LJ
N
520.19 561.061 M
520.389 556.317 L
520.707 549.428 L
521.025 543.168 L
521.342 537.488 L
521.66 532.343 L
521.978 527.694 L
522.296 523.509 L
522.614 519.763 L
522.932 516.437 L
523.25 513.52 L
523.568 511.007 L
523.885 508.902 L
524.203 507.212 L
524.521 505.954 L
524.839 505.149 L
525.157 504.824 L
525.475 505.012 L
525.793 505.749 L
526.11 507.079 L
526.428 509.047 L
526.746 511.705 L
527.064 515.108 L
527.382 519.318 L
527.7 524.401 L
528.018 530.428 L
528.336 537.479 L
528.653 545.639 L
528.971 555.002 L
529.152 561.061 L
S
GR
GS
[0.5 0 0 0.5 0 0] CT
0.851 0.325 0.098 RC
1 LJ
N
580.103 561.061 M
580.149 558.293 L
580.466 540.215 L
580.784 523.354 L
581.102 507.695 L
581.42 493.219 L
581.738 479.904 L
582.056 467.727 L
582.374 456.666 L
582.692 446.701 L
583.009 437.815 L
583.327 429.991 L
583.645 423.217 L
583.963 417.483 L
584.281 412.781 L
584.599 409.107 L
584.917 406.458 L
585.234 404.837 L
585.552 404.247 L
585.87 404.696 L
586.188 406.194 L
586.506 408.757 L
586.824 412.401 L
587.142 417.15 L
587.46 423.032 L
587.777 430.08 L
588.095 438.333 L
588.413 447.838 L
588.731 458.651 L
589.049 470.839 L
589.367 484.479 L
589.685 499.667 L
590.003 516.512 L
590.32 535.149 L
590.638 555.736 L
590.713 561.061 L
S
GR
GS
[0.5 0 0 0.5 0 0] CT
0.851 0.325 0.098 RC
1 LJ
N
676.204 561.061 M
676.464 557.775 L
676.781 554.568 L
677.099 552.116 L
677.417 550.363 L
677.735 549.263 L
678.053 548.772 L
678.371 548.854 L
678.689 549.475 L
679.006 550.605 L
679.324 552.216 L
679.642 554.284 L
679.96 556.787 L
680.278 559.705 L
680.408 561.061 L
S
GR
GS
[0.5 0 0 0.5 0 0] CT
0.851 0.325 0.098 RC
1 LJ
N
718.184 561.061 M
718.422 555.875 L
718.74 550.113 L
719.058 545.439 L
719.376 541.795 L
719.694 539.128 L
720.012 537.389 L
720.33 536.529 L
720.648 536.504 L
720.965 537.268 L
721.283 538.78 L
721.601 540.996 L
721.919 543.871 L
722.237 547.36 L
722.555 551.413 L
722.873 555.976 L
723.191 560.99 L
723.195 561.061 L
S
GR
GS
[0.5 0 0 0.5 0 0] CT
0.929 0.694 0.125 RC
1 LJ
3 LW
N
232.491 561.061 M
232.715 557.638 L
233.033 552.808 L
233.351 547.992 L
233.669 543.198 L
233.987 538.431 L
234.305 533.695 L
234.623 528.996 L
234.941 524.337 L
235.258 519.722 L
235.576 515.155 L
235.894 510.637 L
236.212 506.171 L
236.53 501.759 L
236.848 497.404 L
237.166 493.106 L
237.483 488.867 L
237.801 484.688 L
238.119 480.57 L
238.437 476.513 L
238.755 472.519 L
239.073 468.588 L
239.391 464.719 L
239.709 460.914 L
240.026 457.172 L
240.344 453.494 L
240.662 449.878 L
240.98 446.326 L
241.298 442.838 L
241.616 439.411 L
241.934 436.048 L
242.252 432.747 L
242.569 429.507 L
242.887 426.329 L
243.205 423.212 L
243.523 420.155 L
243.841 417.158 L
244.159 414.221 L
244.477 411.342 L
244.795 408.522 L
245.112 405.759 L
245.43 403.054 L
245.748 400.405 L
246.066 397.812 L
246.384 395.274 L
246.702 392.79 L
247.02 390.36 L
247.337 387.983 L
247.655 385.659 L
247.973 383.386 L
248.291 381.163 L
248.609 378.991 L
248.927 376.867 L
249.245 374.792 L
249.563 372.764 L
249.88 370.783 L
250.198 368.847 L
250.516 366.957 L
250.834 365.11 L
251.152 363.305 L
251.47 361.543 L
251.788 359.822 L
252.106 358.14 L
252.423 356.497 L
252.741 354.892 L
253.059 353.323 L
253.377 351.79 L
253.695 350.291 L
254.013 348.825 L
254.331 347.391 L
254.649 345.987 L
254.966 344.613 L
255.284 343.267 L
255.602 341.947 L
255.92 340.652 L
256.238 339.382 L
256.556 338.133 L
256.874 336.906 L
257.191 335.698 L
257.509 334.508 L
257.827 333.334 L
258.145 332.176 L
258.463 331.03 L
258.781 329.897 L
259.099 328.773 L
259.417 327.658 L
259.734 326.55 L
260.052 325.448 L
260.37 324.348 L
260.688 323.252 L
261.006 322.155 L
261.324 321.058 L
261.642 319.958 L
261.96 318.854 L
262.277 317.744 L
262.595 316.627 L
262.913 315.502 L
263.231 314.367 L
263.549 313.221 L
263.867 312.063 L
264.185 310.891 L
264.503 309.704 L
264.82 308.502 L
265.138 307.283 L
265.456 306.046 L
265.774 304.792 L
266.092 303.519 L
266.41 302.226 L
266.728 300.913 L
267.046 299.58 L
267.363 298.226 L
267.681 296.852 L
267.999 295.457 L
268.317 294.041 L
268.635 292.605 L
268.953 291.148 L
269.271 289.672 L
269.588 288.175 L
269.906 286.66 L
270.224 285.127 L
270.542 283.576 L
270.86 282.008 L
271.178 280.424 L
271.496 278.825 L
271.814 277.212 L
272.131 275.587 L
272.449 273.949 L
272.767 272.301 L
273.085 270.644 L
273.403 268.978 L
273.721 267.305 L
274.039 265.627 L
274.357 263.945 L
274.674 262.26 L
274.992 260.573 L
275.31 258.886 L
275.628 257.2 L
275.946 255.517 L
276.264 253.837 L
276.582 252.163 L
276.9 250.495 L
277.217 248.835 L
277.535 247.183 L
277.853 245.543 L
278.171 243.913 L
278.489 242.297 L
278.807 240.694 L
279.125 239.106 L
279.442 237.535 L
279.76 235.98 L
280.078 234.444 L
280.396 232.927 L
280.714 231.431 L
281.032 229.955 L
281.35 228.502 L
281.668 227.072 L
281.985 225.665 L
282.303 224.284 L
282.621 222.927 L
282.939 221.597 L
283.257 220.294 L
283.575 219.019 L
283.893 217.771 L
284.211 216.553 L
284.528 215.364 L
284.846 214.205 L
285.164 213.077 L
285.482 211.981 L
285.8 210.916 L
286.118 209.883 L
286.436 208.883 L
286.754 207.916 L
287.071 206.982 L
287.389 206.083 L
287.707 205.217 L
288.025 204.387 L
288.343 203.591 L
288.661 202.831 L
288.979 202.107 L
289.296 201.419 L
289.614 200.767 L
289.932 200.151 L
290.25 199.573 L
290.568 199.032 L
290.886 198.528 L
291.204 198.061 L
291.522 197.633 L
291.839 197.242 L
292.157 196.89 L
292.475 196.576 L
292.793 196.301 L
293.111 196.065 L
293.429 195.868 L
293.747 195.709 L
294.065 195.591 L
294.382 195.512 L
294.7 195.472 L
295.018 195.473 L
295.336 195.513 L
295.654 195.594 L
295.972 195.715 L
296.29 195.876 L
296.608 196.078 L
296.925 196.321 L
297.243 196.605 L
297.561 196.93 L
297.879 197.295 L
298.197 197.703 L
298.515 198.151 L
298.833 198.641 L
299.15 199.173 L
299.468 199.747 L
299.786 200.363 L
300.104 201.021 L
300.422 201.721 L
300.74 202.463 L
301.058 203.248 L
301.376 204.076 L
301.693 204.947 L
302.011 205.86 L
302.329 206.817 L
302.647 207.817 L
302.965 208.86 L
303.283 209.947 L
303.601 211.078 L
303.919 212.253 L
304.236 213.472 L
304.554 214.735 L
304.872 216.042 L
305.19 217.394 L
305.508 218.791 L
305.826 220.232 L
306.144 221.719 L
306.462 223.251 L
306.779 224.829 L
307.097 226.453 L
307.415 228.122 L
307.733 229.837 L
308.051 231.599 L
308.369 233.407 L
308.687 235.262 L
309.004 237.164 L
309.322 239.114 L
309.64 241.11 L
309.958 243.155 L
310.276 245.247 L
310.594 247.387 L
310.912 249.576 L
311.23 251.814 L
311.547 254.1 L
311.865 256.436 L
312.183 258.821 L
312.501 261.256 L
312.819 263.741 L
313.137 266.276 L
313.455 268.862 L
313.773 271.499 L
314.09 274.187 L
314.408 276.926 L
314.726 279.717 L
315.044 282.561 L
315.362 285.456 L
315.68 288.405 L
315.998 291.406 L
316.316 294.461 L
316.633 297.57 L
316.951 300.733 L
317.269 303.95 L
317.587 307.222 L
317.905 310.549 L
318.223 313.931 L
318.541 317.369 L
318.858 320.863 L
319.176 324.413 L
319.494 328.02 L
319.812 331.684 L
320.13 335.405 L
320.448 339.184 L
320.766 343.02 L
321.084 346.915 L
321.401 350.868 L
321.719 354.88 L
322.037 358.95 L
322.355 363.08 L
322.673 367.269 L
322.991 371.517 L
323.309 375.824 L
323.627 380.191 L
323.944 384.617 L
324.262 389.103 L
324.58 393.649 L
324.898 398.253 L
325.216 402.917 L
325.534 407.639 L
325.852 412.419 L
326.17 417.258 L
326.487 422.153 L
326.805 427.106 L
327.123 432.114 L
327.441 437.176 L
327.759 442.293 L
328.077 447.461 L
328.395 452.681 L
328.712 457.949 L
329.03 463.265 L
329.348 468.625 L
329.666 474.028 L
329.984 479.47 L
330.302 484.949 L
330.62 490.461 L
330.938 496.003 L
331.255 501.569 L
331.573 507.156 L
331.891 512.758 L
332.209 518.37 L
332.527 523.985 L
332.845 529.598 L
333.163 535.201 L
333.481 540.786 L
333.798 546.345 L
334.116 551.871 L
334.434 557.353 L
334.651 561.061 L
S
GR
GS
[0.5 0 0 0.5 0 0] CT
0.929 0.694 0.125 RC
1 LJ
3 LW
N
576.465 561.061 M
576.652 560.299 L
576.97 559.028 L
577.288 557.781 L
577.606 556.558 L
577.923 555.361 L
578.241 554.19 L
578.559 553.045 L
578.877 551.927 L
579.195 550.836 L
579.513 549.774 L
579.831 548.74 L
580.149 547.736 L
580.466 546.761 L
580.784 545.815 L
581.102 544.901 L
581.42 544.016 L
581.738 543.163 L
582.056 542.341 L
582.374 541.551 L
582.692 540.793 L
583.009 540.067 L
583.327 539.374 L
583.645 538.713 L
583.963 538.086 L
584.281 537.491 L
584.599 536.93 L
584.917 536.403 L
585.234 535.909 L
585.552 535.45 L
585.87 535.024 L
586.188 534.632 L
586.506 534.275 L
586.824 533.952 L
587.142 533.664 L
587.46 533.41 L
587.777 533.191 L
588.095 533.007 L
588.413 532.857 L
588.731 532.743 L
589.049 532.663 L
589.367 532.618 L
589.685 532.608 L
590.003 532.633 L
590.32 532.692 L
590.638 532.787 L
590.956 532.917 L
591.274 533.081 L
591.592 533.28 L
591.91 533.515 L
592.228 533.784 L
592.546 534.087 L
592.863 534.426 L
593.181 534.799 L
593.499 535.207 L
593.817 535.649 L
594.135 536.125 L
594.453 536.636 L
594.771 537.182 L
595.089 537.761 L
595.406 538.374 L
595.724 539.022 L
596.042 539.703 L
596.36 540.418 L
596.678 541.167 L
596.996 541.949 L
597.314 542.765 L
597.631 543.613 L
597.949 544.495 L
598.267 545.41 L
598.585 546.358 L
598.903 547.338 L
599.221 548.351 L
599.539 549.396 L
599.857 550.473 L
600.174 551.583 L
600.492 552.724 L
600.81 553.896 L
601.128 555.101 L
601.446 556.336 L
601.764 557.603 L
602.082 558.9 L
602.4 560.228 L
602.594 561.061 L
S
GR
GS
[0.5 0 0 0.5 0 0] CT
0.494 0.184 0.557 RC
1 LJ
2 LW
N
204.396 561.061 M
204.425 561.009 L
204.743 560.427 L
205.061 559.842 L
205.379 559.254 L
205.696 558.663 L
206.014 558.069 L
206.332 557.472 L
206.65 556.872 L
206.968 556.27 L
207.286 555.664 L
207.604 555.055 L
207.921 554.443 L
208.239 553.829 L
208.557 553.211 L
208.875 552.59 L
209.193 551.966 L
209.511 551.339 L
209.829 550.708 L
210.147 550.075 L
210.464 549.438 L
210.782 548.798 L
211.1 548.155 L
211.418 547.508 L
211.736 546.859 L
212.054 546.206 L
212.372 545.549 L
212.69 544.889 L
213.007 544.226 L
213.325 543.56 L
213.643 542.89 L
213.961 542.216 L
214.279 541.539 L
214.597 540.858 L
214.915 540.174 L
215.233 539.487 L
215.55 538.795 L
215.868 538.101 L
216.186 537.402 L
216.504 536.7 L
216.822 535.994 L
217.14 535.284 L
217.458 534.571 L
217.775 533.853 L
218.093 533.132 L
218.411 532.407 L
218.729 531.678 L
219.047 530.945 L
219.365 530.209 L
219.683 529.468 L
220.001 528.723 L
220.318 527.974 L
220.636 527.221 L
220.954 526.464 L
221.272 525.703 L
221.59 524.937 L
221.908 524.168 L
222.226 523.394 L
222.544 522.615 L
222.861 521.833 L
223.179 521.046 L
223.497 520.254 L
223.815 519.458 L
224.133 518.658 L
224.451 517.853 L
224.769 517.043 L
225.087 516.229 L
225.404 515.41 L
225.722 514.587 L
226.04 513.758 L
226.358 512.925 L
226.676 512.087 L
226.994 511.244 L
227.312 510.397 L
227.629 509.544 L
227.947 508.686 L
228.265 507.823 L
228.583 506.955 L
228.901 506.082 L
229.219 505.204 L
229.537 504.32 L
229.855 503.431 L
230.172 502.537 L
230.49 501.637 L
230.808 500.732 L
231.126 499.821 L
231.444 498.904 L
231.762 497.982 L
232.08 497.055 L
232.398 496.121 L
232.715 495.182 L
233.033 494.236 L
233.351 493.285 L
233.669 492.328 L
233.987 491.364 L
234.305 490.395 L
234.623 489.419 L
234.941 488.437 L
235.258 487.449 L
235.576 486.454 L
235.894 485.453 L
236.212 484.445 L
236.53 483.431 L
236.848 482.41 L
237.166 481.382 L
237.483 480.347 L
237.801 479.305 L
238.119 478.256 L
238.437 477.201 L
238.755 476.138 L
239.073 475.067 L
239.391 473.99 L
239.709 472.905 L
240.026 471.812 L
240.344 470.712 L
240.662 469.604 L
240.98 468.488 L
241.298 467.365 L
241.616 466.233 L
241.934 465.093 L
242.252 463.945 L
242.569 462.789 L
242.887 461.625 L
243.205 460.452 L
243.523 459.27 L
243.841 458.079 L
244.159 456.88 L
244.477 455.672 L
244.795 454.454 L
245.112 453.228 L
245.43 451.992 L
245.748 450.747 L
246.066 449.492 L
246.384 448.227 L
246.702 446.953 L
247.02 445.668 L
247.337 444.374 L
247.655 443.069 L
247.973 441.754 L
248.291 440.428 L
248.609 439.091 L
248.927 437.744 L
249.245 436.385 L
249.563 435.016 L
249.88 433.635 L
250.198 432.243 L
250.516 430.838 L
250.834 429.422 L
251.152 427.994 L
251.47 426.554 L
251.788 425.101 L
252.106 423.636 L
252.423 422.158 L
252.741 420.667 L
253.059 419.163 L
253.377 417.645 L
253.695 416.113 L
254.013 414.568 L
254.331 413.009 L
254.649 411.435 L
254.966 409.846 L
255.284 408.243 L
255.602 406.625 L
255.92 404.991 L
256.238 403.342 L
256.556 401.677 L
256.874 399.996 L
257.191 398.298 L
257.509 396.584 L
257.827 394.853 L
258.145 393.104 L
258.463 391.338 L
258.781 389.553 L
259.099 387.751 L
259.417 385.929 L
259.734 384.089 L
260.052 382.23 L
260.37 380.35 L
260.688 378.451 L
261.006 376.531 L
261.324 374.59 L
261.642 372.628 L
261.96 370.644 L
262.277 368.638 L
262.595 366.61 L
262.913 364.558 L
263.231 362.483 L
263.549 360.384 L
263.867 358.26 L
264.185 356.111 L
264.503 353.937 L
264.82 351.736 L
265.138 349.509 L
265.456 347.255 L
265.774 344.973 L
266.092 342.662 L
266.41 340.323 L
266.728 337.953 L
267.046 335.554 L
267.363 333.123 L
267.681 330.661 L
267.999 328.166 L
268.317 325.638 L
268.635 323.076 L
268.953 320.48 L
269.271 317.848 L
269.588 315.179 L
269.906 312.474 L
270.224 309.731 L
270.542 306.948 L
270.86 304.127 L
271.178 301.264 L
271.496 298.36 L
271.814 295.414 L
272.131 292.424 L
272.449 289.389 L
272.767 286.31 L
273.085 283.184 L
273.403 280.011 L
273.721 276.789 L
274.039 273.519 L
274.357 270.198 L
274.674 266.826 L
274.992 263.402 L
275.31 259.926 L
275.628 256.395 L
275.946 252.81 L
276.264 249.171 L
276.582 245.475 L
276.9 241.724 L
277.217 237.916 L
277.535 234.051 L
277.853 230.131 L
278.171 226.154 L
278.489 222.122 L
278.807 218.036 L
279.125 213.897 L
279.442 209.707 L
279.76 205.468 L
280.078 201.185 L
280.396 196.86 L
280.714 192.499 L
281.032 188.107 L
281.35 183.692 L
281.668 179.261 L
281.985 174.825 L
282.303 170.394 L
282.621 165.983 L
282.939 161.607 L
283.257 157.281 L
283.575 153.028 L
283.893 148.867 L
284.211 144.824 L
284.528 140.926 L
284.846 137.201 L
285.164 133.679 L
285.482 130.394 L
285.8 127.377 L
286.118 124.662 L
286.436 122.281 L
286.754 120.264 L
287.071 118.638 L
287.389 117.425 L
287.707 116.644 L
288.025 116.305 L
288.343 116.415 L
288.661 116.971 L
288.979 117.964 L
289.296 119.381 L
289.614 121.199 L
289.932 123.395 L
290.25 125.939 L
290.568 128.8 L
290.886 131.946 L
291.204 135.343 L
291.522 138.96 L
291.839 142.764 L
292.157 146.725 L
292.475 150.817 L
292.793 155.013 L
293.111 159.291 L
293.429 163.63 L
293.747 168.011 L
294.065 172.418 L
294.382 176.836 L
294.7 181.255 L
295.018 185.663 L
295.336 190.051 L
295.654 194.411 L
295.972 198.738 L
296.29 203.026 L
296.608 207.27 L
296.925 211.467 L
297.243 215.615 L
297.561 219.71 L
297.879 223.752 L
298.197 227.739 L
298.515 231.671 L
298.833 235.546 L
299.15 239.365 L
299.468 243.127 L
299.786 246.833 L
300.104 250.483 L
300.422 254.078 L
300.74 257.618 L
301.058 261.104 L
301.376 264.537 L
301.693 267.918 L
302.011 271.247 L
302.329 274.525 L
302.647 277.753 L
302.965 280.933 L
303.283 284.066 L
303.601 287.151 L
303.919 290.191 L
304.236 293.185 L
304.554 296.136 L
304.872 299.044 L
305.19 301.91 L
305.508 304.735 L
305.826 307.52 L
306.144 310.266 L
306.462 312.973 L
306.779 315.643 L
307.097 318.276 L
307.415 320.873 L
307.733 323.435 L
308.051 325.963 L
308.369 328.458 L
308.687 330.919 L
309.004 333.349 L
309.322 335.747 L
309.64 338.115 L
309.958 340.452 L
310.276 342.76 L
310.594 345.04 L
310.912 347.291 L
311.23 349.515 L
311.547 351.712 L
311.865 353.883 L
312.183 356.027 L
312.501 358.147 L
312.819 360.241 L
313.137 362.312 L
313.455 364.359 L
313.773 366.382 L
314.09 368.382 L
314.408 370.361 L
314.726 372.317 L
315.044 374.252 L
315.362 376.165 L
315.68 378.058 L
315.998 379.931 L
316.316 381.784 L
316.633 383.617 L
316.951 385.431 L
317.269 387.226 L
317.587 389.003 L
317.905 390.762 L
318.223 392.503 L
318.541 394.226 L
318.858 395.932 L
319.176 397.622 L
319.494 399.295 L
319.812 400.951 L
320.13 402.592 L
320.448 404.216 L
320.766 405.826 L
321.084 407.42 L
321.401 408.999 L
321.719 410.563 L
322.037 412.114 L
322.355 413.649 L
322.673 415.171 L
322.991 416.679 L
323.309 418.174 L
323.627 419.655 L
323.944 421.123 L
324.262 422.578 L
324.58 424.02 L
324.898 425.45 L
325.216 426.868 L
325.534 428.273 L
325.852 429.667 L
326.17 431.049 L
326.487 432.419 L
326.805 433.777 L
327.123 435.125 L
327.441 436.461 L
327.759 437.786 L
328.077 439.101 L
328.395 440.405 L
328.712 441.699 L
329.03 442.982 L
329.348 444.255 L
329.666 445.517 L
329.984 446.77 L
330.302 448.014 L
330.62 449.247 L
330.938 450.471 L
331.255 451.686 L
331.573 452.891 L
331.891 454.088 L
332.209 455.275 L
332.527 456.453 L
332.845 457.623 L
333.163 458.783 L
333.481 459.936 L
333.798 461.079 L
334.116 462.215 L
334.434 463.342 L
334.752 464.461 L
335.07 465.572 L
335.388 466.675 L
335.706 467.77 L
336.024 468.858 L
336.341 469.938 L
336.659 471.01 L
336.977 472.075 L
337.295 473.132 L
337.613 474.182 L
337.931 475.225 L
338.249 476.26 L
338.566 477.289 L
338.884 478.311 L
339.202 479.325 L
339.52 480.333 L
339.838 481.334 L
340.156 482.329 L
340.474 483.317 L
340.792 484.298 L
341.109 485.273 L
341.427 486.241 L
341.745 487.203 L
342.063 488.159 L
342.381 489.109 L
342.699 490.053 L
343.017 490.99 L
343.335 491.922 L
343.652 492.848 L
343.97 493.767 L
344.288 494.681 L
344.606 495.59 L
344.924 496.492 L
345.242 497.389 L
345.56 498.28 L
345.878 499.166 L
346.195 500.046 L
346.513 500.921 L
346.831 501.791 L
347.149 502.655 L
347.467 503.514 L
347.785 504.368 L
348.103 505.217 L
348.421 506.06 L
348.738 506.899 L
349.056 507.732 L
349.374 508.561 L
349.692 509.384 L
350.01 510.203 L
350.328 511.017 L
350.646 511.826 L
350.963 512.63 L
351.281 513.43 L
351.599 514.225 L
351.917 515.016 L
352.235 515.802 L
352.553 516.583 L
352.871 517.36 L
353.189 518.132 L
353.506 518.9 L
353.824 519.664 L
354.142 520.423 L
354.46 521.178 L
354.778 521.929 L
355.096 522.675 L
355.414 523.417 L
355.732 524.155 L
356.049 524.889 L
356.367 525.619 L
356.685 526.345 L
357.003 527.067 L
357.321 527.785 L
357.639 528.499 L
357.957 529.209 L
358.275 529.915 L
358.592 530.617 L
358.91 531.315 L
359.228 532.01 L
359.546 532.701 L
359.864 533.388 L
360.182 534.071 L
360.5 534.751 L
360.817 535.427 L
361.135 536.099 L
361.453 536.768 L
361.771 537.434 L
362.089 538.095 L
362.407 538.753 L
362.725 539.408 L
363.043 540.059 L
363.36 540.707 L
363.678 541.352 L
363.996 541.993 L
364.314 542.63 L
364.632 543.264 L
364.95 543.895 L
365.268 544.523 L
365.586 545.148 L
365.903 545.769 L
366.221 546.387 L
366.539 547.001 L
366.857 547.613 L
367.175 548.221 L
367.493 548.827 L
367.811 549.429 L
368.129 550.028 L
368.446 550.624 L
368.764 551.217 L
369.082 551.807 L
369.4 552.394 L
369.718 552.978 L
370.036 553.559 L
370.354 554.137 L
370.671 554.712 L
370.989 555.284 L
371.307 555.854 L
371.625 556.42 L
371.943 556.984 L
372.261 557.544 L
372.579 558.102 L
372.897 558.657 L
373.214 559.21 L
373.532 559.759 L
373.85 560.306 L
374.168 560.851 L
374.292 561.061 L
S
GR
GS
[0.5 0 0 0.5 0 0] CT
1 GC
N
575 167 M
575 67 L
740 67 L
740 167 L
cp
f
GR
GS
[0.5 0 0 0.5 315.16617 40.73192] CT
/Helvetica 18 F
GS
[1 0 0 1 0 0] CT
0 7.5 moveto 
1 -1 scale
(Correlogram) t 
GR
GR
GS
[0.5 0 0 0.5 0 0] CT
0 0.447 0.741 RC
1 LJ
N
580.982 81.464 M
625.846 81.464 L
S
GR
GS
[0.5 0 0 0.5 315.16617 52.57731] CT
/Helvetica 18 F
GS
[1 0 0 1 0 0] CT
0 7.5 moveto 
1 -1 scale
(Periodogram) t 
GR
GR
GS
[0.5 0 0 0.5 0 0] CT
0.851 0.325 0.098 RC
1 LJ
N
580.982 105.155 M
625.846 105.155 L
S
GR
GS
[0.5 0 0 0.5 315.16617 64.42269] CT
/Helvetica 18 F
GS
[1 0 0 1 0 0] CT
0 7.5 moveto 
1 -1 scale
(Welch) t 
GR
GR
GS
[0.5 0 0 0.5 0 0] CT
0.929 0.694 0.125 RC
1 LJ
3 LW
N
580.982 128.845 M
625.846 128.845 L
S
GR
GS
[0.5 0 0 0.5 315.16617 76.26808] CT
/Helvetica 18 F
GS
[1 0 0 1 0 0] CT
0 7.5 moveto 
1 -1 scale
(AR model) t 
GR
GR
GS
[0.5 0 0 0.5 0 0] CT
0.494 0.184 0.557 RC
1 LJ
2 LW
N
580.982 152.536 M
625.846 152.536 L
S
GR
GS
[0.5 0 0 0.5 0 0] CT
0.149 GC
10.0 ML
N
575 167 M
575 67 L
740 67 L
740 167 L
cp
S
GR
%%Trailer
%%Pages: 1
%%EOF
