%!PS-Adobe-3.0 EPSF-3.0
%%BoundingBox: 16 1 381 292
%%HiResBoundingBox: 16.980 1.968 380.354 291.716
%%Creator: (MATLAB, The Mathworks, Inc. Version 9.1.0.441655 \(R2016b\). Operating System: Windows 8)
%%Title: C:/Users/Matteo/Documents/dt-homeworks/HW1/Latex/img/zeroPoleAR.eps
%%CreationDate: 2017-04-03T19:59:47
%%Pages: (atend)
%%LanguageLevel: 3
%%EndComments
%%BeginProlog
%%BeginResource: procset (Apache XML Graphics Std ProcSet) 1.2 0
%%Version: 1.2 0
%%Copyright: (Copyright 2001-2003,2010 The Apache Software Foundation. License terms: http://www.apache.org/licenses/LICENSE-2.0)
/bd{bind def}bind def
/ld{load def}bd
/GR/grestore ld
/M/moveto ld
/LJ/setlinejoin ld
/C/curveto ld
/f/fill ld
/LW/setlinewidth ld
/GC/setgray ld
/t/show ld
/N/newpath ld
/CT/concat ld
/cp/closepath ld
/S/stroke ld
/L/lineto ld
/CC/setcmykcolor ld
/A/ashow ld
/GS/gsave ld
/RC/setrgbcolor ld
/RM/rmoveto ld
/ML/setmiterlimit ld
/re {4 2 roll M
1 index 0 rlineto
0 exch rlineto
neg 0 rlineto
cp } bd
/_ctm matrix def
/_tm matrix def
/BT { _ctm currentmatrix pop matrix _tm copy pop 0 0 moveto } bd
/ET { _ctm setmatrix } bd
/iTm { _ctm setmatrix _tm concat } bd
/Tm { _tm astore pop iTm 0 0 moveto } bd
/ux 0.0 def
/uy 0.0 def
/F {
  /Tp exch def
  /Tf exch def
  Tf findfont Tp scalefont setfont
  /cf Tf def  /cs Tp def
} bd
/ULS {currentpoint /uy exch def /ux exch def} bd
/ULE {
  /Tcx currentpoint pop def
  gsave
  newpath
  cf findfont cs scalefont dup
  /FontMatrix get 0 get /Ts exch def /FontInfo get dup
  /UnderlinePosition get Ts mul /To exch def
  /UnderlineThickness get Ts mul /Tt exch def
  ux uy To add moveto  Tcx uy To add lineto
  Tt setlinewidth stroke
  grestore
} bd
/OLE {
  /Tcx currentpoint pop def
  gsave
  newpath
  cf findfont cs scalefont dup
  /FontMatrix get 0 get /Ts exch def /FontInfo get dup
  /UnderlinePosition get Ts mul /To exch def
  /UnderlineThickness get Ts mul /Tt exch def
  ux uy To add cs add moveto Tcx uy To add cs add lineto
  Tt setlinewidth stroke
  grestore
} bd
/SOE {
  /Tcx currentpoint pop def
  gsave
  newpath
  cf findfont cs scalefont dup
  /FontMatrix get 0 get /Ts exch def /FontInfo get dup
  /UnderlinePosition get Ts mul /To exch def
  /UnderlineThickness get Ts mul /Tt exch def
  ux uy To add cs 10 mul 26 idiv add moveto Tcx uy To add cs 10 mul 26 idiv add lineto
  Tt setlinewidth stroke
  grestore
} bd
/QT {
/Y22 exch store
/X22 exch store
/Y21 exch store
/X21 exch store
currentpoint
/Y21 load 2 mul add 3 div exch
/X21 load 2 mul add 3 div exch
/X21 load 2 mul /X22 load add 3 div
/Y21 load 2 mul /Y22 load add 3 div
/X22 load /Y22 load curveto
} bd
/SSPD {
dup length /d exch dict def
{
/v exch def
/k exch def
currentpagedevice k known {
/cpdv currentpagedevice k get def
v cpdv ne {
/upd false def
/nullv v type /nulltype eq def
/nullcpdv cpdv type /nulltype eq def
nullv nullcpdv or
{
/upd true def
} {
/sametype v type cpdv type eq def
sametype {
v type /arraytype eq {
/vlen v length def
/cpdvlen cpdv length def
vlen cpdvlen eq {
0 1 vlen 1 sub {
/i exch def
/obj v i get def
/cpdobj cpdv i get def
obj cpdobj ne {
/upd true def
exit
} if
} for
} {
/upd true def
} ifelse
} {
v type /dicttype eq {
v {
/dv exch def
/dk exch def
/cpddv cpdv dk get def
dv cpddv ne {
/upd true def
exit
} if
} forall
} {
/upd true def
} ifelse
} ifelse
} if
} ifelse
upd true eq {
d k v put
} if
} if
} if
} forall
d length 0 gt {
d setpagedevice
} if
} bd
/RE { % /NewFontName [NewEncodingArray] /FontName RE -
  findfont dup length dict begin
  {
    1 index /FID ne
    {def} {pop pop} ifelse
  } forall
  /Encoding exch def
  /FontName 1 index def
  currentdict definefont pop
  end
} bind def
%%EndResource
%%BeginResource: procset (Apache XML Graphics EPS ProcSet) 1.0 0
%%Version: 1.0 0
%%Copyright: (Copyright 2002-2003 The Apache Software Foundation. License terms: http://www.apache.org/licenses/LICENSE-2.0)
/BeginEPSF { %def
/b4_Inc_state save def         % Save state for cleanup
/dict_count countdictstack def % Count objects on dict stack
/op_count count 1 sub def      % Count objects on operand stack
userdict begin                 % Push userdict on dict stack
/showpage { } def              % Redefine showpage, { } = null proc
0 setgray 0 setlinecap         % Prepare graphics state
1 setlinewidth 0 setlinejoin
10 setmiterlimit [ ] 0 setdash newpath
/languagelevel where           % If level not equal to 1 then
{pop languagelevel             % set strokeadjust and
1 ne                           % overprint to their defaults.
{false setstrokeadjust false setoverprint
} if
} if
} bd
/EndEPSF { %def
count op_count sub {pop} repeat            % Clean up stacks
countdictstack dict_count sub {end} repeat
b4_Inc_state restore
} bd
%%EndResource
%FOPBeginFontDict
%%IncludeResource: font Courier-Bold
%%IncludeResource: font Helvetica
%%IncludeResource: font Courier-BoldOblique
%%IncludeResource: font Courier-Oblique
%%IncludeResource: font Times-Roman
%%IncludeResource: font Helvetica-BoldOblique
%%IncludeResource: font Helvetica-Bold
%%IncludeResource: font Helvetica-Oblique
%%IncludeResource: font Times-BoldItalic
%%IncludeResource: font Courier
%%IncludeResource: font Times-Italic
%%IncludeResource: font Times-Bold
%%IncludeResource: font Symbol
%%IncludeResource: font ZapfDingbats
%FOPEndFontDict
%%BeginResource: encoding WinAnsiEncoding
/WinAnsiEncoding [
/.notdef /.notdef /.notdef /.notdef /.notdef
/.notdef /.notdef /.notdef /.notdef /.notdef
/.notdef /.notdef /.notdef /.notdef /.notdef
/.notdef /.notdef /.notdef /.notdef /.notdef
/.notdef /.notdef /.notdef /.notdef /.notdef
/.notdef /.notdef /.notdef /.notdef /.notdef
/.notdef /.notdef /space /exclam /quotedbl
/numbersign /dollar /percent /ampersand /quotesingle
/parenleft /parenright /asterisk /plus /comma
/hyphen /period /slash /zero /one
/two /three /four /five /six
/seven /eight /nine /colon /semicolon
/less /equal /greater /question /at
/A /B /C /D /E
/F /G /H /I /J
/K /L /M /N /O
/P /Q /R /S /T
/U /V /W /X /Y
/Z /bracketleft /backslash /bracketright /asciicircum
/underscore /quoteleft /a /b /c
/d /e /f /g /h
/i /j /k /l /m
/n /o /p /q /r
/s /t /u /v /w
/x /y /z /braceleft /bar
/braceright /asciitilde /bullet /Euro /bullet
/quotesinglbase /florin /quotedblbase /ellipsis /dagger
/daggerdbl /circumflex /perthousand /Scaron /guilsinglleft
/OE /bullet /Zcaron /bullet /bullet
/quoteleft /quoteright /quotedblleft /quotedblright /bullet
/endash /emdash /asciitilde /trademark /scaron
/guilsinglright /oe /bullet /zcaron /Ydieresis
/space /exclamdown /cent /sterling /currency
/yen /brokenbar /section /dieresis /copyright
/ordfeminine /guillemotleft /logicalnot /sfthyphen /registered
/macron /degree /plusminus /twosuperior /threesuperior
/acute /mu /paragraph /middot /cedilla
/onesuperior /ordmasculine /guillemotright /onequarter /onehalf
/threequarters /questiondown /Agrave /Aacute /Acircumflex
/Atilde /Adieresis /Aring /AE /Ccedilla
/Egrave /Eacute /Ecircumflex /Edieresis /Igrave
/Iacute /Icircumflex /Idieresis /Eth /Ntilde
/Ograve /Oacute /Ocircumflex /Otilde /Odieresis
/multiply /Oslash /Ugrave /Uacute /Ucircumflex
/Udieresis /Yacute /Thorn /germandbls /agrave
/aacute /acircumflex /atilde /adieresis /aring
/ae /ccedilla /egrave /eacute /ecircumflex
/edieresis /igrave /iacute /icircumflex /idieresis
/eth /ntilde /ograve /oacute /ocircumflex
/otilde /odieresis /divide /oslash /ugrave
/uacute /ucircumflex /udieresis /yacute /thorn
/ydieresis
] def
%%EndResource
%FOPBeginFontReencode
/Courier-Bold findfont
dup length dict begin
  {1 index /FID ne {def} {pop pop} ifelse} forall
  /Encoding WinAnsiEncoding def
  currentdict
end
/Courier-Bold exch definefont pop
/Helvetica findfont
dup length dict begin
  {1 index /FID ne {def} {pop pop} ifelse} forall
  /Encoding WinAnsiEncoding def
  currentdict
end
/Helvetica exch definefont pop
/Courier-BoldOblique findfont
dup length dict begin
  {1 index /FID ne {def} {pop pop} ifelse} forall
  /Encoding WinAnsiEncoding def
  currentdict
end
/Courier-BoldOblique exch definefont pop
/Courier-Oblique findfont
dup length dict begin
  {1 index /FID ne {def} {pop pop} ifelse} forall
  /Encoding WinAnsiEncoding def
  currentdict
end
/Courier-Oblique exch definefont pop
/Times-Roman findfont
dup length dict begin
  {1 index /FID ne {def} {pop pop} ifelse} forall
  /Encoding WinAnsiEncoding def
  currentdict
end
/Times-Roman exch definefont pop
/Helvetica-BoldOblique findfont
dup length dict begin
  {1 index /FID ne {def} {pop pop} ifelse} forall
  /Encoding WinAnsiEncoding def
  currentdict
end
/Helvetica-BoldOblique exch definefont pop
/Helvetica-Bold findfont
dup length dict begin
  {1 index /FID ne {def} {pop pop} ifelse} forall
  /Encoding WinAnsiEncoding def
  currentdict
end
/Helvetica-Bold exch definefont pop
/Helvetica-Oblique findfont
dup length dict begin
  {1 index /FID ne {def} {pop pop} ifelse} forall
  /Encoding WinAnsiEncoding def
  currentdict
end
/Helvetica-Oblique exch definefont pop
/Times-BoldItalic findfont
dup length dict begin
  {1 index /FID ne {def} {pop pop} ifelse} forall
  /Encoding WinAnsiEncoding def
  currentdict
end
/Times-BoldItalic exch definefont pop
/Courier findfont
dup length dict begin
  {1 index /FID ne {def} {pop pop} ifelse} forall
  /Encoding WinAnsiEncoding def
  currentdict
end
/Courier exch definefont pop
/Times-Italic findfont
dup length dict begin
  {1 index /FID ne {def} {pop pop} ifelse} forall
  /Encoding WinAnsiEncoding def
  currentdict
end
/Times-Italic exch definefont pop
/Times-Bold findfont
dup length dict begin
  {1 index /FID ne {def} {pop pop} ifelse} forall
  /Encoding WinAnsiEncoding def
  currentdict
end
/Times-Bold exch definefont pop
%FOPEndFontReencode
%%EndProlog
%%Page: 1 1
%%PageBoundingBox: 0 0 420 315
%%BeginPageSetup
[1 0 0 -1 0 315] CT
%%EndPageSetup
GS
[0.5 0 0 0.5 0 0] CT
1 GC
N
0 0 840 630 re
f
GR
GS
[0.5 0 0 0.5 0 0] CT
1 GC
N
0 0 840 630 re
f
GR
GS
[0.5 0 0 0.5 0 0] CT
1 GC
N
109 560.725 M
760 560.725 L
760 47.275 L
109 47.275 L
cp
f
GR
GS
[0.5 0 0 0.5 0 0] CT
0.149 GC
2 setlinecap
1 LJ
N
109 560.725 M
760 560.725 L
S
GR
GS
[0.5 0 0 0.5 0 0] CT
0.149 GC
2 setlinecap
1 LJ
N
109 47.275 M
760 47.275 L
S
GR
GS
[0.5 0 0 0.5 0 0] CT
0.149 GC
2 setlinecap
1 LJ
N
201.025 560.725 M
201.025 554.215 L
S
GR
GS
[0.5 0 0 0.5 0 0] CT
0.149 GC
2 setlinecap
1 LJ
N
317.733 560.725 M
317.733 554.215 L
S
GR
GS
[0.5 0 0 0.5 0 0] CT
0.149 GC
2 setlinecap
1 LJ
N
434.441 560.725 M
434.441 554.215 L
S
GR
GS
[0.5 0 0 0.5 0 0] CT
0.149 GC
2 setlinecap
1 LJ
N
551.149 560.725 M
551.149 554.215 L
S
GR
GS
[0.5 0 0 0.5 0 0] CT
0.149 GC
2 setlinecap
1 LJ
N
667.857 560.725 M
667.857 554.215 L
S
GR
GS
[0.5 0 0 0.5 0 0] CT
0.149 GC
2 setlinecap
1 LJ
N
201.025 47.275 M
201.025 53.785 L
S
GR
GS
[0.5 0 0 0.5 0 0] CT
0.149 GC
2 setlinecap
1 LJ
N
317.733 47.275 M
317.733 53.785 L
S
GR
GS
[0.5 0 0 0.5 0 0] CT
0.149 GC
2 setlinecap
1 LJ
N
434.441 47.275 M
434.441 53.785 L
S
GR
GS
[0.5 0 0 0.5 0 0] CT
0.149 GC
2 setlinecap
1 LJ
N
551.149 47.275 M
551.149 53.785 L
S
GR
GS
[0.5 0 0 0.5 0 0] CT
0.149 GC
2 setlinecap
1 LJ
N
667.857 47.275 M
667.857 53.785 L
S
GR
GS
[0.5 0 0 0.5 100.51275 284.36249] CT
0.149 GC
/Helvetica 20 F
GS
[1 0 0 1 0 0] CT
-9 21 moveto 
1 -1 scale
(-1) t 
GR
GR
GS
[0.5 0 0 0.5 158.86668 284.36249] CT
0.149 GC
/Helvetica 20 F
GS
[1 0 0 1 0 0] CT
-17.5 21 moveto 
1 -1 scale
(-0.5) t 
GR
GR
GS
[0.5 0 0 0.5 217.22063 284.36249] CT
0.149 GC
/Helvetica 20 F
GS
[1 0 0 1 0 0] CT
-6 21 moveto 
1 -1 scale
(0) t 
GR
GR
GS
[0.5 0 0 0.5 275.57455 284.36249] CT
0.149 GC
/Helvetica 20 F
GS
[1 0 0 1 0 0] CT
-14 21 moveto 
1 -1 scale
(0.5) t 
GR
GR
GS
[0.5 0 0 0.5 333.9285 284.36249] CT
0.149 GC
/Helvetica 20 F
GS
[1 0 0 1 0 0] CT
-6 21 moveto 
1 -1 scale
(1) t 
GR
GR
GS
[0.5 0 0 0.5 217.25015 298.36249] CT
0.149 GC
/Helvetica 22 F
GS
[1 0 0 1 0 0] CT
-46 23 moveto 
1 -1 scale
(Real Part) t 
GR
GR
GS
[0.5 0 0 0.5 0 0] CT
0.149 GC
2 setlinecap
1 LJ
N
109 560.725 M
109 47.275 L
S
GR
GS
[0.5 0 0 0.5 0 0] CT
0.149 GC
2 setlinecap
1 LJ
N
760 560.725 M
760 47.275 L
S
GR
GS
[0.5 0 0 0.5 0 0] CT
0.149 GC
2 setlinecap
1 LJ
N
109 537.416 M
115.51 537.416 L
S
GR
GS
[0.5 0 0 0.5 0 0] CT
0.149 GC
2 setlinecap
1 LJ
N
109 490.733 M
115.51 490.733 L
S
GR
GS
[0.5 0 0 0.5 0 0] CT
0.149 GC
2 setlinecap
1 LJ
N
109 444.049 M
115.51 444.049 L
S
GR
GS
[0.5 0 0 0.5 0 0] CT
0.149 GC
2 setlinecap
1 LJ
N
109 397.366 M
115.51 397.366 L
S
GR
GS
[0.5 0 0 0.5 0 0] CT
0.149 GC
2 setlinecap
1 LJ
N
109 350.683 M
115.51 350.683 L
S
GR
GS
[0.5 0 0 0.5 0 0] CT
0.149 GC
2 setlinecap
1 LJ
N
109 304 M
115.51 304 L
S
GR
GS
[0.5 0 0 0.5 0 0] CT
0.149 GC
2 setlinecap
1 LJ
N
109 257.317 M
115.51 257.317 L
S
GR
GS
[0.5 0 0 0.5 0 0] CT
0.149 GC
2 setlinecap
1 LJ
N
109 210.634 M
115.51 210.634 L
S
GR
GS
[0.5 0 0 0.5 0 0] CT
0.149 GC
2 setlinecap
1 LJ
N
109 163.951 M
115.51 163.951 L
S
GR
GS
[0.5 0 0 0.5 0 0] CT
0.149 GC
2 setlinecap
1 LJ
N
109 117.267 M
115.51 117.267 L
S
GR
GS
[0.5 0 0 0.5 0 0] CT
0.149 GC
2 setlinecap
1 LJ
N
109 70.584 M
115.51 70.584 L
S
GR
GS
[0.5 0 0 0.5 0 0] CT
0.149 GC
2 setlinecap
1 LJ
N
760 537.416 M
753.49 537.416 L
S
GR
GS
[0.5 0 0 0.5 0 0] CT
0.149 GC
2 setlinecap
1 LJ
N
760 490.733 M
753.49 490.733 L
S
GR
GS
[0.5 0 0 0.5 0 0] CT
0.149 GC
2 setlinecap
1 LJ
N
760 444.049 M
753.49 444.049 L
S
GR
GS
[0.5 0 0 0.5 0 0] CT
0.149 GC
2 setlinecap
1 LJ
N
760 397.366 M
753.49 397.366 L
S
GR
GS
[0.5 0 0 0.5 0 0] CT
0.149 GC
2 setlinecap
1 LJ
N
760 350.683 M
753.49 350.683 L
S
GR
GS
[0.5 0 0 0.5 0 0] CT
0.149 GC
2 setlinecap
1 LJ
N
760 304 M
753.49 304 L
S
GR
GS
[0.5 0 0 0.5 0 0] CT
0.149 GC
2 setlinecap
1 LJ
N
760 257.317 M
753.49 257.317 L
S
GR
GS
[0.5 0 0 0.5 0 0] CT
0.149 GC
2 setlinecap
1 LJ
N
760 210.634 M
753.49 210.634 L
S
GR
GS
[0.5 0 0 0.5 0 0] CT
0.149 GC
2 setlinecap
1 LJ
N
760 163.951 M
753.49 163.951 L
S
GR
GS
[0.5 0 0 0.5 0 0] CT
0.149 GC
2 setlinecap
1 LJ
N
760 117.267 M
753.49 117.267 L
S
GR
GS
[0.5 0 0 0.5 0 0] CT
0.149 GC
2 setlinecap
1 LJ
N
760 70.584 M
753.49 70.584 L
S
GR
GS
[0.5 0 0 0.5 50.5 268.70789] CT
0.149 GC
/Helvetica 20 F
GS
[1 0 0 1 0 0] CT
-18 8 moveto 
1 -1 scale
(-1) t 
GR
GR
GS
[0.5 0 0 0.5 50.5 245.3663] CT
0.149 GC
/Helvetica 20 F
GS
[1 0 0 1 0 0] CT
-35 8 moveto 
1 -1 scale
(-0.8) t 
GR
GR
GS
[0.5 0 0 0.5 50.5 222.02472] CT
0.149 GC
/Helvetica 20 F
GS
[1 0 0 1 0 0] CT
-35 8 moveto 
1 -1 scale
(-0.6) t 
GR
GR
GS
[0.5 0 0 0.5 50.5 198.68315] CT
0.149 GC
/Helvetica 20 F
GS
[1 0 0 1 0 0] CT
-35 8 moveto 
1 -1 scale
(-0.4) t 
GR
GR
GS
[0.5 0 0 0.5 50.5 175.34157] CT
0.149 GC
/Helvetica 20 F
GS
[1 0 0 1 0 0] CT
-35 8 moveto 
1 -1 scale
(-0.2) t 
GR
GR
GS
[0.5 0 0 0.5 50.5 152] CT
0.149 GC
/Helvetica 20 F
GS
[1 0 0 1 0 0] CT
-12 8 moveto 
1 -1 scale
(0) t 
GR
GR
GS
[0.5 0 0 0.5 50.5 128.65843] CT
0.149 GC
/Helvetica 20 F
GS
[1 0 0 1 0 0] CT
-28 8 moveto 
1 -1 scale
(0.2) t 
GR
GR
GS
[0.5 0 0 0.5 50.5 105.31685] CT
0.149 GC
/Helvetica 20 F
GS
[1 0 0 1 0 0] CT
-28 8 moveto 
1 -1 scale
(0.4) t 
GR
GR
GS
[0.5 0 0 0.5 50.5 81.97527] CT
0.149 GC
/Helvetica 20 F
GS
[1 0 0 1 0 0] CT
-28 8 moveto 
1 -1 scale
(0.6) t 
GR
GR
GS
[0.5 0 0 0.5 50.5 58.6337] CT
0.149 GC
/Helvetica 20 F
GS
[1 0 0 1 0 0] CT
-28 8 moveto 
1 -1 scale
(0.8) t 
GR
GR
GS
[0.5 0 0 0.5 50.5 35.29213] CT
0.149 GC
/Helvetica 20 F
GS
[1 0 0 1 0 0] CT
-12 8 moveto 
1 -1 scale
(1) t 
GR
GR
GS
[0 -0.5 0.5 0 29.99999 151.99988] CT
0.149 GC
/Helvetica 22 F
GS
[1 0 0 1 0 0] CT
-72 -5 moveto 
1 -1 scale
(Imaginary Part) t 
GR
GR
GS
[0.5 0 0 0.5 217.22063 152] CT
0 0.447 0.741 RC
10.0 ML
N
6.5 -0.5 M
6.5 -4.366 3.366 -7.5 -0.5 -7.5 C
-4.366 -7.5 -7.5 -4.366 -7.5 -0.5 C
-7.5 3.366 -4.366 6.5 -0.5 6.5 C
3.366 6.5 6.5 3.366 6.5 -0.5 C
S
GR
GS
[0.5 0 0 0.5 217.22063 152] CT
0 0.447 0.741 RC
10.0 ML
N
6.5 -0.5 M
6.5 -4.366 3.366 -7.5 -0.5 -7.5 C
-4.366 -7.5 -7.5 -4.366 -7.5 -0.5 C
-7.5 3.366 -4.366 6.5 -0.5 6.5 C
3.366 6.5 6.5 3.366 6.5 -0.5 C
S
GR
GS
[0.5 0 0 0.5 217.22063 152] CT
0 0.447 0.741 RC
10.0 ML
N
6.5 -0.5 M
6.5 -4.366 3.366 -7.5 -0.5 -7.5 C
-4.366 -7.5 -7.5 -4.366 -7.5 -0.5 C
-7.5 3.366 -4.366 6.5 -0.5 6.5 C
3.366 6.5 6.5 3.366 6.5 -0.5 C
S
GR
GS
[0.5 0 0 0.5 217.22063 152] CT
0 0.447 0.741 RC
10.0 ML
N
6.5 -0.5 M
6.5 -4.366 3.366 -7.5 -0.5 -7.5 C
-4.366 -7.5 -7.5 -4.366 -7.5 -0.5 C
-7.5 3.366 -4.366 6.5 -0.5 6.5 C
3.366 6.5 6.5 3.366 6.5 -0.5 C
S
GR
GS
[0.5 0 0 0.5 217.22063 152] CT
0 0.447 0.741 RC
10.0 ML
N
6.5 -0.5 M
6.5 -4.366 3.366 -7.5 -0.5 -7.5 C
-4.366 -7.5 -7.5 -4.366 -7.5 -0.5 C
-7.5 3.366 -4.366 6.5 -0.5 6.5 C
3.366 6.5 6.5 3.366 6.5 -0.5 C
S
GR
GS
[0.5 0 0 0.5 217.22063 152] CT
0 0.447 0.741 RC
10.0 ML
N
6.5 -0.5 M
6.5 -4.366 3.366 -7.5 -0.5 -7.5 C
-4.366 -7.5 -7.5 -4.366 -7.5 -0.5 C
-7.5 3.366 -4.366 6.5 -0.5 6.5 C
3.366 6.5 6.5 3.366 6.5 -0.5 C
S
GR
GS
[0.5 0 0 0.5 217.22063 152] CT
0 0.447 0.741 RC
10.0 ML
N
6.5 -0.5 M
6.5 -4.366 3.366 -7.5 -0.5 -7.5 C
-4.366 -7.5 -7.5 -4.366 -7.5 -0.5 C
-7.5 3.366 -4.366 6.5 -0.5 6.5 C
3.366 6.5 6.5 3.366 6.5 -0.5 C
S
GR
GS
[0.5 0 0 0.5 239.62631 39.2516] CT
0 0.447 0.741 RC
10.0 ML
N
-5.657 -5.657 M
5.657 5.657 L
-5.657 5.657 M
5.657 -5.657 L
S
GR
GS
[0.5 0 0 0.5 155.56989 84.98061] CT
0 0.447 0.741 RC
10.0 ML
N
-5.657 -5.657 M
5.657 5.657 L
-5.657 5.657 M
5.657 -5.657 L
S
GR
GS
[0.5 0 0 0.5 131.59491 154.25919] CT
0 0.447 0.741 RC
10.0 ML
N
-5.657 -5.657 M
5.657 5.657 L
-5.657 5.657 M
5.657 -5.657 L
S
GR
GS
[0.5 0 0 0.5 166.57997 227.10201] CT
0 0.447 0.741 RC
10.0 ML
N
-5.657 -5.657 M
5.657 5.657 L
-5.657 5.657 M
5.657 -5.657 L
S
GR
GS
[0.5 0 0 0.5 301.97827 117.64017] CT
0 0.447 0.741 RC
10.0 ML
N
-5.657 -5.657 M
5.657 5.657 L
-5.657 5.657 M
5.657 -5.657 L
S
GR
GS
[0.5 0 0 0.5 248.70226 227.48103] CT
0 0.447 0.741 RC
10.0 ML
N
-5.657 -5.657 M
5.657 5.657 L
-5.657 5.657 M
5.657 -5.657 L
S
GR
GS
[0.5 0 0 0.5 276.96014 186.74837] CT
0 0.447 0.741 RC
10.0 ML
N
-5.657 -5.657 M
5.657 5.657 L
-5.657 5.657 M
5.657 -5.657 L
S
GR
GS
[0.5 0 0 0.5 0 0] CT
0 0.447 0.741 RC
[1 3] 0 setdash
2 LJ
N
667.857 304 M
667.387 289.196 L
665.979 274.451 L
663.639 259.826 L
660.376 245.378 L
656.203 231.166 L
651.137 217.248 L
645.199 203.679 L
638.411 190.514 L
630.803 177.806 L
622.404 165.606 L
613.248 153.963 L
603.372 142.925 L
592.816 132.535 L
581.622 122.835 L
569.836 113.865 L
557.504 105.661 L
544.677 98.255 L
531.406 91.678 L
517.744 85.955 L
503.747 81.111 L
489.471 77.164 L
474.973 74.13 L
460.313 72.022 L
445.548 70.849 L
430.738 70.614 L
415.943 71.318 L
401.223 72.96 L
386.636 75.532 L
372.242 79.024 L
358.098 83.422 L
344.262 88.708 L
330.789 94.861 L
317.733 101.856 L
305.148 109.665 L
293.082 118.257 L
281.586 127.596 L
270.706 137.646 L
260.485 148.366 L
250.964 159.712 L
242.182 171.639 L
234.174 184.1 L
226.973 197.043 L
220.607 210.417 L
215.102 224.167 L
210.48 238.239 L
206.761 252.576 L
203.957 267.12 L
202.082 281.812 L
201.143 296.594 L
201.143 311.406 L
202.082 326.188 L
203.957 340.88 L
206.761 355.424 L
210.48 369.761 L
215.102 383.833 L
220.607 397.583 L
226.973 410.957 L
234.174 423.9 L
242.182 436.361 L
250.964 448.288 L
260.485 459.634 L
270.706 470.354 L
281.586 480.404 L
293.082 489.743 L
305.148 498.335 L
317.733 506.144 L
330.789 513.139 L
344.262 519.292 L
358.098 524.578 L
372.242 528.976 L
386.636 532.468 L
401.223 535.04 L
415.943 536.682 L
430.738 537.386 L
445.548 537.151 L
460.313 535.978 L
474.973 533.87 L
489.471 530.836 L
503.747 526.889 L
517.744 522.045 L
531.406 516.322 L
544.677 509.745 L
557.504 502.339 L
569.836 494.135 L
581.622 485.165 L
592.816 475.465 L
603.372 465.075 L
613.248 454.037 L
622.404 442.394 L
630.803 430.194 L
638.411 417.486 L
645.199 404.321 L
651.137 390.752 L
656.203 376.834 L
660.376 362.622 L
663.639 348.174 L
665.979 333.549 L
667.387 318.804 L
667.857 304 L
S
GR
GS
[0.5 0 0 0.5 0 0] CT
0 0.447 0.741 RC
[1 3] 0 setdash
2 LJ
N
108.939 304 M
760.061 304 L
S
GR
GS
[0.5 0 0 0.5 0 0] CT
0 0.447 0.741 RC
[1 3] 0 setdash
2 LJ
N
434.441 560.786 M
434.441 47.214 L
S
GR
GS
[0.5 0 0 0.5 221.28937 152] CT
/Helvetica 20 F
GS
[1 0 0 1 0 0] CT
0 -5 moveto 
1 -1 scale
(7) t 
GR
GR
%%Trailer
%%Pages: 1
%%EOF
